ISO-10303-21;
HEADER;
FILE_DESCRIPTION(('Open CASCADE Model'),'2;1');
FILE_NAME('Open CASCADE Shape Model','2021-02-17T12:40:43',('Author'),(
    'Open CASCADE'),'Open CASCADE STEP processor 7.4','Open CASCADE 7.4'
  ,'Unknown');
FILE_SCHEMA(('AUTOMOTIVE_DESIGN { 1 0 10303 214 1 1 1 1 }'));
ENDSEC;
DATA;
#1 = APPLICATION_PROTOCOL_DEFINITION('international standard',
  'automotive_design',2000,#2);
#2 = APPLICATION_CONTEXT(
  'core data for automotive mechanical design processes');
#3 = SHAPE_DEFINITION_REPRESENTATION(#4,#10);
#4 = PRODUCT_DEFINITION_SHAPE('','',#5);
#5 = PRODUCT_DEFINITION('design','',#6,#9);
#6 = PRODUCT_DEFINITION_FORMATION('','',#7);
#7 = PRODUCT('Open CASCADE STEP translator 7.4 1',
  'Open CASCADE STEP translator 7.4 1','',(#8));
#8 = PRODUCT_CONTEXT('',#2,'mechanical');
#9 = PRODUCT_DEFINITION_CONTEXT('part definition',#2,'design');
#10 = ADVANCED_BREP_SHAPE_REPRESENTATION('',(#11,#15),#1163);
#11 = AXIS2_PLACEMENT_3D('',#12,#13,#14);
#12 = CARTESIAN_POINT('',(0.,0.,0.));
#13 = DIRECTION('',(0.,0.,1.));
#14 = DIRECTION('',(1.,0.,-0.));
#15 = MANIFOLD_SOLID_BREP('',#16);
#16 = CLOSED_SHELL('',(#17,#129,#224,#319,#407,#726,#979,#1024,#1069,
    #1076,#1083,#1090,#1097,#1142,#1149,#1156));
#17 = ADVANCED_FACE('',(#18),#31,.T.);
#18 = FACE_BOUND('',#19,.T.);
#19 = EDGE_LOOP('',(#20,#52,#79,#104));
#20 = ORIENTED_EDGE('',*,*,#21,.T.);
#21 = EDGE_CURVE('',#22,#24,#26,.T.);
#22 = VERTEX_POINT('',#23);
#23 = CARTESIAN_POINT('',(-2.9235E+03,14.,1.9225E+03));
#24 = VERTEX_POINT('',#25);
#25 = CARTESIAN_POINT('',(-2.9235E+03,-13.99999999998,1.9225E+03));
#26 = SURFACE_CURVE('',#27,(#30,#41),.PCURVE_S1.);
#27 = B_SPLINE_CURVE_WITH_KNOTS('',1,(#28,#29),.UNSPECIFIED.,.F.,.F.,(2,
    2),(0.230769230769,0.76923076923),.PIECEWISE_BEZIER_KNOTS.);
#28 = CARTESIAN_POINT('',(-2.9235E+03,14.,1.9225E+03));
#29 = CARTESIAN_POINT('',(-2.9235E+03,-13.99999999998,1.9225E+03));
#30 = PCURVE('',#31,#36);
#31 = PLANE('',#32);
#32 = AXIS2_PLACEMENT_3D('',#33,#34,#35);
#33 = CARTESIAN_POINT('',(-2.9235E+03,26.,1.9225E+03));
#34 = DIRECTION('',(0.,0.,1.));
#35 = DIRECTION('',(1.,0.,-0.));
#36 = DEFINITIONAL_REPRESENTATION('',(#37),#40);
#37 = B_SPLINE_CURVE_WITH_KNOTS('',1,(#38,#39),.UNSPECIFIED.,.F.,.F.,(2,
    2),(0.230769230769,0.76923076923),.PIECEWISE_BEZIER_KNOTS.);
#38 = CARTESIAN_POINT('',(0.,-12.));
#39 = CARTESIAN_POINT('',(0.,-39.99999999998));
#40 = ( GEOMETRIC_REPRESENTATION_CONTEXT(2) 
PARAMETRIC_REPRESENTATION_CONTEXT() REPRESENTATION_CONTEXT('2D SPACE',''
  ) );
#41 = PCURVE('',#42,#47);
#42 = PLANE('',#43);
#43 = AXIS2_PLACEMENT_3D('',#44,#45,#46);
#44 = CARTESIAN_POINT('',(-2.9235E+03,30.55,1.92705E+03));
#45 = DIRECTION('',(-1.,0.,0.));
#46 = DIRECTION('',(0.,0.,-1.));
#47 = DEFINITIONAL_REPRESENTATION('',(#48),#51);
#48 = B_SPLINE_CURVE_WITH_KNOTS('',1,(#49,#50),.UNSPECIFIED.,.F.,.F.,(2,
    2),(0.230769230769,0.76923076923),.PIECEWISE_BEZIER_KNOTS.);
#49 = CARTESIAN_POINT('',(4.55,16.55));
#50 = CARTESIAN_POINT('',(4.55,44.54999999998));
#51 = ( GEOMETRIC_REPRESENTATION_CONTEXT(2) 
PARAMETRIC_REPRESENTATION_CONTEXT() REPRESENTATION_CONTEXT('2D SPACE',''
  ) );
#52 = ORIENTED_EDGE('',*,*,#53,.T.);
#53 = EDGE_CURVE('',#24,#54,#56,.T.);
#54 = VERTEX_POINT('',#55);
#55 = CARTESIAN_POINT('',(-2.9205E+03,-13.99999999998,1.9225E+03));
#56 = SURFACE_CURVE('',#57,(#60,#66),.PCURVE_S1.);
#57 = B_SPLINE_CURVE_WITH_KNOTS('',1,(#58,#59),.UNSPECIFIED.,.F.,.F.,(2,
    2),(0.,1.),.PIECEWISE_BEZIER_KNOTS.);
#58 = CARTESIAN_POINT('',(-2.9235E+03,-13.99999999998,1.9225E+03));
#59 = CARTESIAN_POINT('',(-2.9205E+03,-13.99999999998,1.9225E+03));
#60 = PCURVE('',#31,#61);
#61 = DEFINITIONAL_REPRESENTATION('',(#62),#65);
#62 = B_SPLINE_CURVE_WITH_KNOTS('',1,(#63,#64),.UNSPECIFIED.,.F.,.F.,(2,
    2),(0.,1.),.PIECEWISE_BEZIER_KNOTS.);
#63 = CARTESIAN_POINT('',(0.,-39.99999999998));
#64 = CARTESIAN_POINT('',(3.,-39.99999999998));
#65 = ( GEOMETRIC_REPRESENTATION_CONTEXT(2) 
PARAMETRIC_REPRESENTATION_CONTEXT() REPRESENTATION_CONTEXT('2D SPACE',''
  ) );
#66 = PCURVE('',#67,#74);
#67 = ( BOUNDED_SURFACE() B_SPLINE_SURFACE(2,1,(
    (#68,#69)
    ,(#70,#71)
,(#72,#73
  )),.UNSPECIFIED.,.F.,.F.,.F.) B_SPLINE_SURFACE_WITH_KNOTS((3,3),(2,2),
  (0.,24.),(0.,3.),.PIECEWISE_BEZIER_KNOTS.) 
GEOMETRIC_REPRESENTATION_ITEM() RATIONAL_B_SPLINE_SURFACE((
    (1.,1.)
    ,(0.707106781187,0.707106781187)
,(1.,1.))) REPRESENTATION_ITEM('') SURFACE() );
#68 = CARTESIAN_POINT('',(-2.9235E+03,-14.,1.9225E+03));
#69 = CARTESIAN_POINT('',(-2.9205E+03,-14.,1.9225E+03));
#70 = CARTESIAN_POINT('',(-2.9235E+03,-26.,1.9225E+03));
#71 = CARTESIAN_POINT('',(-2.9205E+03,-26.,1.9225E+03));
#72 = CARTESIAN_POINT('',(-2.9235E+03,-26.,1.9105E+03));
#73 = CARTESIAN_POINT('',(-2.9205E+03,-26.,1.9105E+03));
#74 = DEFINITIONAL_REPRESENTATION('',(#75),#78);
#75 = B_SPLINE_CURVE_WITH_KNOTS('',1,(#76,#77),.UNSPECIFIED.,.F.,.F.,(2,
    2),(0.,1.),.PIECEWISE_BEZIER_KNOTS.);
#76 = CARTESIAN_POINT('',(-2.44632448473E-11,-3.524106203368E-13));
#77 = CARTESIAN_POINT('',(-2.446516844151E-11,3.));
#78 = ( GEOMETRIC_REPRESENTATION_CONTEXT(2) 
PARAMETRIC_REPRESENTATION_CONTEXT() REPRESENTATION_CONTEXT('2D SPACE',''
  ) );
#79 = ORIENTED_EDGE('',*,*,#80,.T.);
#80 = EDGE_CURVE('',#54,#81,#83,.T.);
#81 = VERTEX_POINT('',#82);
#82 = CARTESIAN_POINT('',(-2.9205E+03,14.,1.9225E+03));
#83 = SURFACE_CURVE('',#84,(#87,#93),.PCURVE_S1.);
#84 = B_SPLINE_CURVE_WITH_KNOTS('',1,(#85,#86),.UNSPECIFIED.,.F.,.F.,(2,
    2),(-0.76923076923,-0.230769230769),.PIECEWISE_BEZIER_KNOTS.);
#85 = CARTESIAN_POINT('',(-2.9205E+03,-13.99999999998,1.9225E+03));
#86 = CARTESIAN_POINT('',(-2.9205E+03,14.,1.9225E+03));
#87 = PCURVE('',#31,#88);
#88 = DEFINITIONAL_REPRESENTATION('',(#89),#92);
#89 = B_SPLINE_CURVE_WITH_KNOTS('',1,(#90,#91),.UNSPECIFIED.,.F.,.F.,(2,
    2),(-0.76923076923,-0.230769230769),.PIECEWISE_BEZIER_KNOTS.);
#90 = CARTESIAN_POINT('',(3.,-39.99999999998));
#91 = CARTESIAN_POINT('',(3.,-12.));
#92 = ( GEOMETRIC_REPRESENTATION_CONTEXT(2) 
PARAMETRIC_REPRESENTATION_CONTEXT() REPRESENTATION_CONTEXT('2D SPACE',''
  ) );
#93 = PCURVE('',#94,#99);
#94 = PLANE('',#95);
#95 = AXIS2_PLACEMENT_3D('',#96,#97,#98);
#96 = CARTESIAN_POINT('',(-2.9205E+03,30.55,1.92705E+03));
#97 = DIRECTION('',(1.,0.,0.));
#98 = DIRECTION('',(-0.,0.,1.));
#99 = DEFINITIONAL_REPRESENTATION('',(#100),#103);
#100 = B_SPLINE_CURVE_WITH_KNOTS('',1,(#101,#102),.UNSPECIFIED.,.F.,.F.,
  (2,2),(-0.76923076923,-0.230769230769),.PIECEWISE_BEZIER_KNOTS.);
#101 = CARTESIAN_POINT('',(-4.55,44.54999999998));
#102 = CARTESIAN_POINT('',(-4.55,16.55));
#103 = ( GEOMETRIC_REPRESENTATION_CONTEXT(2) 
PARAMETRIC_REPRESENTATION_CONTEXT() REPRESENTATION_CONTEXT('2D SPACE',''
  ) );
#104 = ORIENTED_EDGE('',*,*,#105,.T.);
#105 = EDGE_CURVE('',#81,#22,#106,.T.);
#106 = SURFACE_CURVE('',#107,(#110,#116),.PCURVE_S1.);
#107 = B_SPLINE_CURVE_WITH_KNOTS('',1,(#108,#109),.UNSPECIFIED.,.F.,.F.,
  (2,2),(-1.,0.),.PIECEWISE_BEZIER_KNOTS.);
#108 = CARTESIAN_POINT('',(-2.9205E+03,14.,1.9225E+03));
#109 = CARTESIAN_POINT('',(-2.9235E+03,14.,1.9225E+03));
#110 = PCURVE('',#31,#111);
#111 = DEFINITIONAL_REPRESENTATION('',(#112),#115);
#112 = B_SPLINE_CURVE_WITH_KNOTS('',1,(#113,#114),.UNSPECIFIED.,.F.,.F.,
  (2,2),(-1.,0.),.PIECEWISE_BEZIER_KNOTS.);
#113 = CARTESIAN_POINT('',(3.,-12.));
#114 = CARTESIAN_POINT('',(0.,-12.));
#115 = ( GEOMETRIC_REPRESENTATION_CONTEXT(2) 
PARAMETRIC_REPRESENTATION_CONTEXT() REPRESENTATION_CONTEXT('2D SPACE',''
  ) );
#116 = PCURVE('',#117,#124);
#117 = ( BOUNDED_SURFACE() B_SPLINE_SURFACE(2,1,(
    (#118,#119)
    ,(#120,#121)
,(#122,#123
    )),.UNSPECIFIED.,.F.,.F.,.F.) B_SPLINE_SURFACE_WITH_KNOTS((3,3),(2,2
    ),(0.,24.),(0.,3.),.PIECEWISE_BEZIER_KNOTS.) 
GEOMETRIC_REPRESENTATION_ITEM() RATIONAL_B_SPLINE_SURFACE((
    (1.,1.)
    ,(0.707106781187,0.707106781187)
,(1.,1.))) REPRESENTATION_ITEM('') SURFACE() );
#118 = CARTESIAN_POINT('',(-2.9235E+03,26.,1.9105E+03));
#119 = CARTESIAN_POINT('',(-2.9205E+03,26.,1.9105E+03));
#120 = CARTESIAN_POINT('',(-2.9235E+03,26.,1.9225E+03));
#121 = CARTESIAN_POINT('',(-2.9205E+03,26.,1.9225E+03));
#122 = CARTESIAN_POINT('',(-2.9235E+03,14.,1.9225E+03));
#123 = CARTESIAN_POINT('',(-2.9205E+03,14.,1.9225E+03));
#124 = DEFINITIONAL_REPRESENTATION('',(#125),#128);
#125 = B_SPLINE_CURVE_WITH_KNOTS('',1,(#126,#127),.UNSPECIFIED.,.F.,.F.,
  (2,2),(-1.,0.),.PIECEWISE_BEZIER_KNOTS.);
#126 = CARTESIAN_POINT('',(24.,3.));
#127 = CARTESIAN_POINT('',(24.,-1.099038065236E-13));
#128 = ( GEOMETRIC_REPRESENTATION_CONTEXT(2) 
PARAMETRIC_REPRESENTATION_CONTEXT() REPRESENTATION_CONTEXT('2D SPACE',''
  ) );
#129 = ADVANCED_FACE('',(#130),#143,.T.);
#130 = FACE_BOUND('',#131,.T.);
#131 = EDGE_LOOP('',(#132,#159,#186,#206));
#132 = ORIENTED_EDGE('',*,*,#133,.T.);
#133 = EDGE_CURVE('',#134,#136,#138,.T.);
#134 = VERTEX_POINT('',#135);
#135 = CARTESIAN_POINT('',(-2.9235E+03,-26.,1.9105E+03));
#136 = VERTEX_POINT('',#137);
#137 = CARTESIAN_POINT('',(-2.9235E+03,-26.,1.8435E+03));
#138 = SURFACE_CURVE('',#139,(#142,#153),.PCURVE_S1.);
#139 = B_SPLINE_CURVE_WITH_KNOTS('',1,(#140,#141),.UNSPECIFIED.,.F.,.F.,
  (2,2),(0.131868131868,0.868131868131),.PIECEWISE_BEZIER_KNOTS.);
#140 = CARTESIAN_POINT('',(-2.9235E+03,-26.,1.9105E+03));
#141 = CARTESIAN_POINT('',(-2.9235E+03,-26.,1.8435E+03));
#142 = PCURVE('',#143,#148);
#143 = PLANE('',#144);
#144 = AXIS2_PLACEMENT_3D('',#145,#146,#147);
#145 = CARTESIAN_POINT('',(-2.9235E+03,-26.,1.9225E+03));
#146 = DIRECTION('',(0.,-1.,0.));
#147 = DIRECTION('',(0.,-0.,-1.));
#148 = DEFINITIONAL_REPRESENTATION('',(#149),#152);
#149 = B_SPLINE_CURVE_WITH_KNOTS('',1,(#150,#151),.UNSPECIFIED.,.F.,.F.,
  (2,2),(0.131868131868,0.868131868131),.PIECEWISE_BEZIER_KNOTS.);
#150 = CARTESIAN_POINT('',(12.,0.));
#151 = CARTESIAN_POINT('',(79.,0.));
#152 = ( GEOMETRIC_REPRESENTATION_CONTEXT(2) 
PARAMETRIC_REPRESENTATION_CONTEXT() REPRESENTATION_CONTEXT('2D SPACE',''
  ) );
#153 = PCURVE('',#42,#154);
#154 = DEFINITIONAL_REPRESENTATION('',(#155),#158);
#155 = B_SPLINE_CURVE_WITH_KNOTS('',1,(#156,#157),.UNSPECIFIED.,.F.,.F.,
  (2,2),(0.131868131868,0.868131868131),.PIECEWISE_BEZIER_KNOTS.);
#156 = CARTESIAN_POINT('',(16.55,56.55));
#157 = CARTESIAN_POINT('',(83.55,56.55));
#158 = ( GEOMETRIC_REPRESENTATION_CONTEXT(2) 
PARAMETRIC_REPRESENTATION_CONTEXT() REPRESENTATION_CONTEXT('2D SPACE',''
  ) );
#159 = ORIENTED_EDGE('',*,*,#160,.T.);
#160 = EDGE_CURVE('',#136,#161,#163,.T.);
#161 = VERTEX_POINT('',#162);
#162 = CARTESIAN_POINT('',(-2.9205E+03,-26.,1.8435E+03));
#163 = SURFACE_CURVE('',#164,(#167,#173),.PCURVE_S1.);
#164 = B_SPLINE_CURVE_WITH_KNOTS('',1,(#165,#166),.UNSPECIFIED.,.F.,.F.,
  (2,2),(0.,1.),.PIECEWISE_BEZIER_KNOTS.);
#165 = CARTESIAN_POINT('',(-2.9235E+03,-26.,1.8435E+03));
#166 = CARTESIAN_POINT('',(-2.9205E+03,-26.,1.8435E+03));
#167 = PCURVE('',#143,#168);
#168 = DEFINITIONAL_REPRESENTATION('',(#169),#172);
#169 = B_SPLINE_CURVE_WITH_KNOTS('',1,(#170,#171),.UNSPECIFIED.,.F.,.F.,
  (2,2),(0.,1.),.PIECEWISE_BEZIER_KNOTS.);
#170 = CARTESIAN_POINT('',(79.,0.));
#171 = CARTESIAN_POINT('',(79.,3.));
#172 = ( GEOMETRIC_REPRESENTATION_CONTEXT(2) 
PARAMETRIC_REPRESENTATION_CONTEXT() REPRESENTATION_CONTEXT('2D SPACE',''
  ) );
#173 = PCURVE('',#174,#181);
#174 = ( BOUNDED_SURFACE() B_SPLINE_SURFACE(2,1,(
    (#175,#176)
    ,(#177,#178)
,(#179,#180
    )),.UNSPECIFIED.,.F.,.F.,.F.) B_SPLINE_SURFACE_WITH_KNOTS((3,3),(2,2
    ),(0.,24.),(0.,3.),.PIECEWISE_BEZIER_KNOTS.) 
GEOMETRIC_REPRESENTATION_ITEM() RATIONAL_B_SPLINE_SURFACE((
    (1.,1.)
    ,(0.707106781187,0.707106781187)
,(1.,1.))) REPRESENTATION_ITEM('') SURFACE() );
#175 = CARTESIAN_POINT('',(-2.9235E+03,-26.,1.8435E+03));
#176 = CARTESIAN_POINT('',(-2.9205E+03,-26.,1.8435E+03));
#177 = CARTESIAN_POINT('',(-2.9235E+03,-26.,1.8315E+03));
#178 = CARTESIAN_POINT('',(-2.9205E+03,-26.,1.8315E+03));
#179 = CARTESIAN_POINT('',(-2.9235E+03,-14.,1.8315E+03));
#180 = CARTESIAN_POINT('',(-2.9205E+03,-14.,1.8315E+03));
#181 = DEFINITIONAL_REPRESENTATION('',(#182),#185);
#182 = B_SPLINE_CURVE_WITH_KNOTS('',1,(#183,#184),.UNSPECIFIED.,.F.,.F.,
  (2,2),(0.,1.),.PIECEWISE_BEZIER_KNOTS.);
#183 = CARTESIAN_POINT('',(-1.45164002219E-13,3.297102504393E-13));
#184 = CARTESIAN_POINT('',(-9.639926851393E-14,3.));
#185 = ( GEOMETRIC_REPRESENTATION_CONTEXT(2) 
PARAMETRIC_REPRESENTATION_CONTEXT() REPRESENTATION_CONTEXT('2D SPACE',''
  ) );
#186 = ORIENTED_EDGE('',*,*,#187,.T.);
#187 = EDGE_CURVE('',#161,#188,#190,.T.);
#188 = VERTEX_POINT('',#189);
#189 = CARTESIAN_POINT('',(-2.9205E+03,-26.,1.9105E+03));
#190 = SURFACE_CURVE('',#191,(#194,#200),.PCURVE_S1.);
#191 = B_SPLINE_CURVE_WITH_KNOTS('',1,(#192,#193),.UNSPECIFIED.,.F.,.F.,
  (2,2),(-0.868131868131,-0.131868131868),.PIECEWISE_BEZIER_KNOTS.);
#192 = CARTESIAN_POINT('',(-2.9205E+03,-26.,1.8435E+03));
#193 = CARTESIAN_POINT('',(-2.9205E+03,-26.,1.9105E+03));
#194 = PCURVE('',#143,#195);
#195 = DEFINITIONAL_REPRESENTATION('',(#196),#199);
#196 = B_SPLINE_CURVE_WITH_KNOTS('',1,(#197,#198),.UNSPECIFIED.,.F.,.F.,
  (2,2),(-0.868131868131,-0.131868131868),.PIECEWISE_BEZIER_KNOTS.);
#197 = CARTESIAN_POINT('',(79.,3.));
#198 = CARTESIAN_POINT('',(12.,3.));
#199 = ( GEOMETRIC_REPRESENTATION_CONTEXT(2) 
PARAMETRIC_REPRESENTATION_CONTEXT() REPRESENTATION_CONTEXT('2D SPACE',''
  ) );
#200 = PCURVE('',#94,#201);
#201 = DEFINITIONAL_REPRESENTATION('',(#202),#205);
#202 = B_SPLINE_CURVE_WITH_KNOTS('',1,(#203,#204),.UNSPECIFIED.,.F.,.F.,
  (2,2),(-0.868131868131,-0.131868131868),.PIECEWISE_BEZIER_KNOTS.);
#203 = CARTESIAN_POINT('',(-83.55,56.55));
#204 = CARTESIAN_POINT('',(-16.55,56.55));
#205 = ( GEOMETRIC_REPRESENTATION_CONTEXT(2) 
PARAMETRIC_REPRESENTATION_CONTEXT() REPRESENTATION_CONTEXT('2D SPACE',''
  ) );
#206 = ORIENTED_EDGE('',*,*,#207,.T.);
#207 = EDGE_CURVE('',#188,#134,#208,.T.);
#208 = SURFACE_CURVE('',#209,(#212,#218),.PCURVE_S1.);
#209 = B_SPLINE_CURVE_WITH_KNOTS('',1,(#210,#211),.UNSPECIFIED.,.F.,.F.,
  (2,2),(-1.,0.),.PIECEWISE_BEZIER_KNOTS.);
#210 = CARTESIAN_POINT('',(-2.9205E+03,-26.,1.9105E+03));
#211 = CARTESIAN_POINT('',(-2.9235E+03,-26.,1.9105E+03));
#212 = PCURVE('',#143,#213);
#213 = DEFINITIONAL_REPRESENTATION('',(#214),#217);
#214 = B_SPLINE_CURVE_WITH_KNOTS('',1,(#215,#216),.UNSPECIFIED.,.F.,.F.,
  (2,2),(-1.,0.),.PIECEWISE_BEZIER_KNOTS.);
#215 = CARTESIAN_POINT('',(12.,3.));
#216 = CARTESIAN_POINT('',(12.,0.));
#217 = ( GEOMETRIC_REPRESENTATION_CONTEXT(2) 
PARAMETRIC_REPRESENTATION_CONTEXT() REPRESENTATION_CONTEXT('2D SPACE',''
  ) );
#218 = PCURVE('',#67,#219);
#219 = DEFINITIONAL_REPRESENTATION('',(#220),#223);
#220 = B_SPLINE_CURVE_WITH_KNOTS('',1,(#221,#222),.UNSPECIFIED.,.F.,.F.,
  (2,2),(-1.,0.),.PIECEWISE_BEZIER_KNOTS.);
#221 = CARTESIAN_POINT('',(24.,3.));
#222 = CARTESIAN_POINT('',(24.,-5.646511574098E-13));
#223 = ( GEOMETRIC_REPRESENTATION_CONTEXT(2) 
PARAMETRIC_REPRESENTATION_CONTEXT() REPRESENTATION_CONTEXT('2D SPACE',''
  ) );
#224 = ADVANCED_FACE('',(#225),#238,.T.);
#225 = FACE_BOUND('',#226,.T.);
#226 = EDGE_LOOP('',(#227,#254,#281,#301));
#227 = ORIENTED_EDGE('',*,*,#228,.T.);
#228 = EDGE_CURVE('',#229,#231,#233,.T.);
#229 = VERTEX_POINT('',#230);
#230 = CARTESIAN_POINT('',(-2.9235E+03,-14.,1.8315E+03));
#231 = VERTEX_POINT('',#232);
#232 = CARTESIAN_POINT('',(-2.9235E+03,13.999999999983,1.8315E+03));
#233 = SURFACE_CURVE('',#234,(#237,#248),.PCURVE_S1.);
#234 = B_SPLINE_CURVE_WITH_KNOTS('',1,(#235,#236),.UNSPECIFIED.,.F.,.F.,
  (2,2),(0.230769230769,0.76923076923),.PIECEWISE_BEZIER_KNOTS.);
#235 = CARTESIAN_POINT('',(-2.9235E+03,-14.,1.8315E+03));
#236 = CARTESIAN_POINT('',(-2.9235E+03,13.999999999983,1.8315E+03));
#237 = PCURVE('',#238,#243);
#238 = PLANE('',#239);
#239 = AXIS2_PLACEMENT_3D('',#240,#241,#242);
#240 = CARTESIAN_POINT('',(-2.9235E+03,-26.,1.8315E+03));
#241 = DIRECTION('',(0.,0.,-1.));
#242 = DIRECTION('',(-1.,0.,-0.));
#243 = DEFINITIONAL_REPRESENTATION('',(#244),#247);
#244 = B_SPLINE_CURVE_WITH_KNOTS('',1,(#245,#246),.UNSPECIFIED.,.F.,.F.,
  (2,2),(0.230769230769,0.76923076923),.PIECEWISE_BEZIER_KNOTS.);
#245 = CARTESIAN_POINT('',(0.,12.));
#246 = CARTESIAN_POINT('',(0.,39.999999999983));
#247 = ( GEOMETRIC_REPRESENTATION_CONTEXT(2) 
PARAMETRIC_REPRESENTATION_CONTEXT() REPRESENTATION_CONTEXT('2D SPACE',''
  ) );
#248 = PCURVE('',#42,#249);
#249 = DEFINITIONAL_REPRESENTATION('',(#250),#253);
#250 = B_SPLINE_CURVE_WITH_KNOTS('',1,(#251,#252),.UNSPECIFIED.,.F.,.F.,
  (2,2),(0.230769230769,0.76923076923),.PIECEWISE_BEZIER_KNOTS.);
#251 = CARTESIAN_POINT('',(95.55,44.55));
#252 = CARTESIAN_POINT('',(95.55,16.550000000017));
#253 = ( GEOMETRIC_REPRESENTATION_CONTEXT(2) 
PARAMETRIC_REPRESENTATION_CONTEXT() REPRESENTATION_CONTEXT('2D SPACE',''
  ) );
#254 = ORIENTED_EDGE('',*,*,#255,.T.);
#255 = EDGE_CURVE('',#231,#256,#258,.T.);
#256 = VERTEX_POINT('',#257);
#257 = CARTESIAN_POINT('',(-2.9205E+03,13.999999999983,1.8315E+03));
#258 = SURFACE_CURVE('',#259,(#262,#268),.PCURVE_S1.);
#259 = B_SPLINE_CURVE_WITH_KNOTS('',1,(#260,#261),.UNSPECIFIED.,.F.,.F.,
  (2,2),(0.,1.),.PIECEWISE_BEZIER_KNOTS.);
#260 = CARTESIAN_POINT('',(-2.9235E+03,13.999999999983,1.8315E+03));
#261 = CARTESIAN_POINT('',(-2.9205E+03,13.999999999983,1.8315E+03));
#262 = PCURVE('',#238,#263);
#263 = DEFINITIONAL_REPRESENTATION('',(#264),#267);
#264 = B_SPLINE_CURVE_WITH_KNOTS('',1,(#265,#266),.UNSPECIFIED.,.F.,.F.,
  (2,2),(0.,1.),.PIECEWISE_BEZIER_KNOTS.);
#265 = CARTESIAN_POINT('',(0.,39.999999999983));
#266 = CARTESIAN_POINT('',(-3.,39.999999999983));
#267 = ( GEOMETRIC_REPRESENTATION_CONTEXT(2) 
PARAMETRIC_REPRESENTATION_CONTEXT() REPRESENTATION_CONTEXT('2D SPACE',''
  ) );
#268 = PCURVE('',#269,#276);
#269 = ( BOUNDED_SURFACE() B_SPLINE_SURFACE(2,1,(
    (#270,#271)
    ,(#272,#273)
,(#274,#275
    )),.UNSPECIFIED.,.F.,.F.,.F.) B_SPLINE_SURFACE_WITH_KNOTS((3,3),(2,2
    ),(0.,24.),(0.,3.),.PIECEWISE_BEZIER_KNOTS.) 
GEOMETRIC_REPRESENTATION_ITEM() RATIONAL_B_SPLINE_SURFACE((
    (1.,1.)
    ,(0.707106781187,0.707106781187)
,(1.,1.))) REPRESENTATION_ITEM('') SURFACE() );
#270 = CARTESIAN_POINT('',(-2.9235E+03,14.,1.8315E+03));
#271 = CARTESIAN_POINT('',(-2.9205E+03,14.,1.8315E+03));
#272 = CARTESIAN_POINT('',(-2.9235E+03,26.,1.8315E+03));
#273 = CARTESIAN_POINT('',(-2.9205E+03,26.,1.8315E+03));
#274 = CARTESIAN_POINT('',(-2.9235E+03,26.,1.8435E+03));
#275 = CARTESIAN_POINT('',(-2.9205E+03,26.,1.8435E+03));
#276 = DEFINITIONAL_REPRESENTATION('',(#277),#280);
#277 = B_SPLINE_CURVE_WITH_KNOTS('',1,(#278,#279),.UNSPECIFIED.,.F.,.F.,
  (2,2),(0.,1.),.PIECEWISE_BEZIER_KNOTS.);
#278 = CARTESIAN_POINT('',(-2.446733728089E-11,3.297102504396E-13));
#279 = CARTESIAN_POINT('',(-2.446630385936E-11,3.));
#280 = ( GEOMETRIC_REPRESENTATION_CONTEXT(2) 
PARAMETRIC_REPRESENTATION_CONTEXT() REPRESENTATION_CONTEXT('2D SPACE',''
  ) );
#281 = ORIENTED_EDGE('',*,*,#282,.T.);
#282 = EDGE_CURVE('',#256,#283,#285,.T.);
#283 = VERTEX_POINT('',#284);
#284 = CARTESIAN_POINT('',(-2.9205E+03,-14.,1.8315E+03));
#285 = SURFACE_CURVE('',#286,(#289,#295),.PCURVE_S1.);
#286 = B_SPLINE_CURVE_WITH_KNOTS('',1,(#287,#288),.UNSPECIFIED.,.F.,.F.,
  (2,2),(-0.76923076923,-0.230769230769),.PIECEWISE_BEZIER_KNOTS.);
#287 = CARTESIAN_POINT('',(-2.9205E+03,13.999999999983,1.8315E+03));
#288 = CARTESIAN_POINT('',(-2.9205E+03,-14.,1.8315E+03));
#289 = PCURVE('',#238,#290);
#290 = DEFINITIONAL_REPRESENTATION('',(#291),#294);
#291 = B_SPLINE_CURVE_WITH_KNOTS('',1,(#292,#293),.UNSPECIFIED.,.F.,.F.,
  (2,2),(-0.76923076923,-0.230769230769),.PIECEWISE_BEZIER_KNOTS.);
#292 = CARTESIAN_POINT('',(-3.,39.999999999983));
#293 = CARTESIAN_POINT('',(-3.,12.));
#294 = ( GEOMETRIC_REPRESENTATION_CONTEXT(2) 
PARAMETRIC_REPRESENTATION_CONTEXT() REPRESENTATION_CONTEXT('2D SPACE',''
  ) );
#295 = PCURVE('',#94,#296);
#296 = DEFINITIONAL_REPRESENTATION('',(#297),#300);
#297 = B_SPLINE_CURVE_WITH_KNOTS('',1,(#298,#299),.UNSPECIFIED.,.F.,.F.,
  (2,2),(-0.76923076923,-0.230769230769),.PIECEWISE_BEZIER_KNOTS.);
#298 = CARTESIAN_POINT('',(-95.55,16.550000000017));
#299 = CARTESIAN_POINT('',(-95.55,44.55));
#300 = ( GEOMETRIC_REPRESENTATION_CONTEXT(2) 
PARAMETRIC_REPRESENTATION_CONTEXT() REPRESENTATION_CONTEXT('2D SPACE',''
  ) );
#301 = ORIENTED_EDGE('',*,*,#302,.T.);
#302 = EDGE_CURVE('',#283,#229,#303,.T.);
#303 = SURFACE_CURVE('',#304,(#307,#313),.PCURVE_S1.);
#304 = B_SPLINE_CURVE_WITH_KNOTS('',1,(#305,#306),.UNSPECIFIED.,.F.,.F.,
  (2,2),(-1.,0.),.PIECEWISE_BEZIER_KNOTS.);
#305 = CARTESIAN_POINT('',(-2.9205E+03,-14.,1.8315E+03));
#306 = CARTESIAN_POINT('',(-2.9235E+03,-14.,1.8315E+03));
#307 = PCURVE('',#238,#308);
#308 = DEFINITIONAL_REPRESENTATION('',(#309),#312);
#309 = B_SPLINE_CURVE_WITH_KNOTS('',1,(#310,#311),.UNSPECIFIED.,.F.,.F.,
  (2,2),(-1.,0.),.PIECEWISE_BEZIER_KNOTS.);
#310 = CARTESIAN_POINT('',(-3.,12.));
#311 = CARTESIAN_POINT('',(0.,12.));
#312 = ( GEOMETRIC_REPRESENTATION_CONTEXT(2) 
PARAMETRIC_REPRESENTATION_CONTEXT() REPRESENTATION_CONTEXT('2D SPACE',''
  ) );
#313 = PCURVE('',#174,#314);
#314 = DEFINITIONAL_REPRESENTATION('',(#315),#318);
#315 = B_SPLINE_CURVE_WITH_KNOTS('',1,(#316,#317),.UNSPECIFIED.,.F.,.F.,
  (2,2),(-1.,0.),.PIECEWISE_BEZIER_KNOTS.);
#316 = CARTESIAN_POINT('',(24.,3.000000000001));
#317 = CARTESIAN_POINT('',(24.,3.297112403765E-13));
#318 = ( GEOMETRIC_REPRESENTATION_CONTEXT(2) 
PARAMETRIC_REPRESENTATION_CONTEXT() REPRESENTATION_CONTEXT('2D SPACE',''
  ) );
#319 = ADVANCED_FACE('',(#320),#333,.T.);
#320 = FACE_BOUND('',#321,.T.);
#321 = EDGE_LOOP('',(#322,#349,#369,#389));
#322 = ORIENTED_EDGE('',*,*,#323,.T.);
#323 = EDGE_CURVE('',#324,#326,#328,.T.);
#324 = VERTEX_POINT('',#325);
#325 = CARTESIAN_POINT('',(-2.9235E+03,26.,1.8435E+03));
#326 = VERTEX_POINT('',#327);
#327 = CARTESIAN_POINT('',(-2.9235E+03,26.,1.9105E+03));
#328 = SURFACE_CURVE('',#329,(#332,#343),.PCURVE_S1.);
#329 = B_SPLINE_CURVE_WITH_KNOTS('',1,(#330,#331),.UNSPECIFIED.,.F.,.F.,
  (2,2),(0.131868131868,0.868131868131),.PIECEWISE_BEZIER_KNOTS.);
#330 = CARTESIAN_POINT('',(-2.9235E+03,26.,1.8435E+03));
#331 = CARTESIAN_POINT('',(-2.9235E+03,26.,1.9105E+03));
#332 = PCURVE('',#333,#338);
#333 = PLANE('',#334);
#334 = AXIS2_PLACEMENT_3D('',#335,#336,#337);
#335 = CARTESIAN_POINT('',(-2.9235E+03,26.,1.8315E+03));
#336 = DIRECTION('',(0.,1.,0.));
#337 = DIRECTION('',(0.,-0.,1.));
#338 = DEFINITIONAL_REPRESENTATION('',(#339),#342);
#339 = B_SPLINE_CURVE_WITH_KNOTS('',1,(#340,#341),.UNSPECIFIED.,.F.,.F.,
  (2,2),(0.131868131868,0.868131868131),.PIECEWISE_BEZIER_KNOTS.);
#340 = CARTESIAN_POINT('',(12.,0.));
#341 = CARTESIAN_POINT('',(79.,0.));
#342 = ( GEOMETRIC_REPRESENTATION_CONTEXT(2) 
PARAMETRIC_REPRESENTATION_CONTEXT() REPRESENTATION_CONTEXT('2D SPACE',''
  ) );
#343 = PCURVE('',#42,#344);
#344 = DEFINITIONAL_REPRESENTATION('',(#345),#348);
#345 = B_SPLINE_CURVE_WITH_KNOTS('',1,(#346,#347),.UNSPECIFIED.,.F.,.F.,
  (2,2),(0.131868131868,0.868131868131),.PIECEWISE_BEZIER_KNOTS.);
#346 = CARTESIAN_POINT('',(83.55,4.55));
#347 = CARTESIAN_POINT('',(16.55,4.55));
#348 = ( GEOMETRIC_REPRESENTATION_CONTEXT(2) 
PARAMETRIC_REPRESENTATION_CONTEXT() REPRESENTATION_CONTEXT('2D SPACE',''
  ) );
#349 = ORIENTED_EDGE('',*,*,#350,.T.);
#350 = EDGE_CURVE('',#326,#351,#353,.T.);
#351 = VERTEX_POINT('',#352);
#352 = CARTESIAN_POINT('',(-2.9205E+03,26.,1.9105E+03));
#353 = SURFACE_CURVE('',#354,(#357,#363),.PCURVE_S1.);
#354 = B_SPLINE_CURVE_WITH_KNOTS('',1,(#355,#356),.UNSPECIFIED.,.F.,.F.,
  (2,2),(0.,1.),.PIECEWISE_BEZIER_KNOTS.);
#355 = CARTESIAN_POINT('',(-2.9235E+03,26.,1.9105E+03));
#356 = CARTESIAN_POINT('',(-2.9205E+03,26.,1.9105E+03));
#357 = PCURVE('',#333,#358);
#358 = DEFINITIONAL_REPRESENTATION('',(#359),#362);
#359 = B_SPLINE_CURVE_WITH_KNOTS('',1,(#360,#361),.UNSPECIFIED.,.F.,.F.,
  (2,2),(0.,1.),.PIECEWISE_BEZIER_KNOTS.);
#360 = CARTESIAN_POINT('',(79.,0.));
#361 = CARTESIAN_POINT('',(79.,3.));
#362 = ( GEOMETRIC_REPRESENTATION_CONTEXT(2) 
PARAMETRIC_REPRESENTATION_CONTEXT() REPRESENTATION_CONTEXT('2D SPACE',''
  ) );
#363 = PCURVE('',#117,#364);
#364 = DEFINITIONAL_REPRESENTATION('',(#365),#368);
#365 = B_SPLINE_CURVE_WITH_KNOTS('',1,(#366,#367),.UNSPECIFIED.,.F.,.F.,
  (2,2),(0.,1.),.PIECEWISE_BEZIER_KNOTS.);
#366 = CARTESIAN_POINT('',(-1.939289866462E-13,1.023370086778E-13));
#367 = CARTESIAN_POINT('',(2.739196362888E-13,3.));
#368 = ( GEOMETRIC_REPRESENTATION_CONTEXT(2) 
PARAMETRIC_REPRESENTATION_CONTEXT() REPRESENTATION_CONTEXT('2D SPACE',''
  ) );
#369 = ORIENTED_EDGE('',*,*,#370,.T.);
#370 = EDGE_CURVE('',#351,#371,#373,.T.);
#371 = VERTEX_POINT('',#372);
#372 = CARTESIAN_POINT('',(-2.9205E+03,26.,1.8435E+03));
#373 = SURFACE_CURVE('',#374,(#377,#383),.PCURVE_S1.);
#374 = B_SPLINE_CURVE_WITH_KNOTS('',1,(#375,#376),.UNSPECIFIED.,.F.,.F.,
  (2,2),(-0.868131868131,-0.131868131868),.PIECEWISE_BEZIER_KNOTS.);
#375 = CARTESIAN_POINT('',(-2.9205E+03,26.,1.9105E+03));
#376 = CARTESIAN_POINT('',(-2.9205E+03,26.,1.8435E+03));
#377 = PCURVE('',#333,#378);
#378 = DEFINITIONAL_REPRESENTATION('',(#379),#382);
#379 = B_SPLINE_CURVE_WITH_KNOTS('',1,(#380,#381),.UNSPECIFIED.,.F.,.F.,
  (2,2),(-0.868131868131,-0.131868131868),.PIECEWISE_BEZIER_KNOTS.);
#380 = CARTESIAN_POINT('',(79.,3.));
#381 = CARTESIAN_POINT('',(12.,3.));
#382 = ( GEOMETRIC_REPRESENTATION_CONTEXT(2) 
PARAMETRIC_REPRESENTATION_CONTEXT() REPRESENTATION_CONTEXT('2D SPACE',''
  ) );
#383 = PCURVE('',#94,#384);
#384 = DEFINITIONAL_REPRESENTATION('',(#385),#388);
#385 = B_SPLINE_CURVE_WITH_KNOTS('',1,(#386,#387),.UNSPECIFIED.,.F.,.F.,
  (2,2),(-0.868131868131,-0.131868131868),.PIECEWISE_BEZIER_KNOTS.);
#386 = CARTESIAN_POINT('',(-16.55,4.55));
#387 = CARTESIAN_POINT('',(-83.55,4.55));
#388 = ( GEOMETRIC_REPRESENTATION_CONTEXT(2) 
PARAMETRIC_REPRESENTATION_CONTEXT() REPRESENTATION_CONTEXT('2D SPACE',''
  ) );
#389 = ORIENTED_EDGE('',*,*,#390,.T.);
#390 = EDGE_CURVE('',#371,#324,#391,.T.);
#391 = SURFACE_CURVE('',#392,(#395,#401),.PCURVE_S1.);
#392 = B_SPLINE_CURVE_WITH_KNOTS('',1,(#393,#394),.UNSPECIFIED.,.F.,.F.,
  (2,2),(-1.,0.),.PIECEWISE_BEZIER_KNOTS.);
#393 = CARTESIAN_POINT('',(-2.9205E+03,26.,1.8435E+03));
#394 = CARTESIAN_POINT('',(-2.9235E+03,26.,1.8435E+03));
#395 = PCURVE('',#333,#396);
#396 = DEFINITIONAL_REPRESENTATION('',(#397),#400);
#397 = B_SPLINE_CURVE_WITH_KNOTS('',1,(#398,#399),.UNSPECIFIED.,.F.,.F.,
  (2,2),(-1.,0.),.PIECEWISE_BEZIER_KNOTS.);
#398 = CARTESIAN_POINT('',(12.,3.));
#399 = CARTESIAN_POINT('',(12.,0.));
#400 = ( GEOMETRIC_REPRESENTATION_CONTEXT(2) 
PARAMETRIC_REPRESENTATION_CONTEXT() REPRESENTATION_CONTEXT('2D SPACE',''
  ) );
#401 = PCURVE('',#269,#402);
#402 = DEFINITIONAL_REPRESENTATION('',(#403),#406);
#403 = B_SPLINE_CURVE_WITH_KNOTS('',1,(#404,#405),.UNSPECIFIED.,.F.,.F.,
  (2,2),(-1.,0.),.PIECEWISE_BEZIER_KNOTS.);
#404 = CARTESIAN_POINT('',(24.,3.));
#405 = CARTESIAN_POINT('',(24.,3.297109622486E-13));
#406 = ( GEOMETRIC_REPRESENTATION_CONTEXT(2) 
PARAMETRIC_REPRESENTATION_CONTEXT() REPRESENTATION_CONTEXT('2D SPACE',''
  ) );
#407 = ADVANCED_FACE('',(#408,#498,#574,#650),#42,.T.);
#408 = FACE_BOUND('',#409,.T.);
#409 = EDGE_LOOP('',(#410,#431,#432,#453,#454,#475,#476,#497));
#410 = ORIENTED_EDGE('',*,*,#411,.F.);
#411 = EDGE_CURVE('',#24,#134,#412,.T.);
#412 = SURFACE_CURVE('',#413,(#417,#424),.PCURVE_S1.);
#413 = ( BOUNDED_CURVE() B_SPLINE_CURVE(2,(#414,#415,#416),
.UNSPECIFIED.,.F.,.F.) B_SPLINE_CURVE_WITH_KNOTS((3,3),(0.,24.),
.PIECEWISE_BEZIER_KNOTS.) CURVE() GEOMETRIC_REPRESENTATION_ITEM() 
RATIONAL_B_SPLINE_CURVE((1.,0.707106781187,1.)) REPRESENTATION_ITEM('') 
  );
#414 = CARTESIAN_POINT('',(-2.9235E+03,-13.99999999998,1.9225E+03));
#415 = CARTESIAN_POINT('',(-2.9235E+03,-25.99999999999,1.9225E+03));
#416 = CARTESIAN_POINT('',(-2.9235E+03,-26.,1.9105E+03));
#417 = PCURVE('',#42,#418);
#418 = DEFINITIONAL_REPRESENTATION('',(#419),#423);
#419 = ( BOUNDED_CURVE() B_SPLINE_CURVE(2,(#420,#421,#422),
.UNSPECIFIED.,.F.,.F.) B_SPLINE_CURVE_WITH_KNOTS((3,3),(0.,24.),
.PIECEWISE_BEZIER_KNOTS.) CURVE() GEOMETRIC_REPRESENTATION_ITEM() 
RATIONAL_B_SPLINE_CURVE((1.,0.707106781187,1.)) REPRESENTATION_ITEM('') 
  );
#420 = CARTESIAN_POINT('',(4.55,44.54999999998));
#421 = CARTESIAN_POINT('',(4.55,56.54999999999));
#422 = CARTESIAN_POINT('',(16.55,56.55));
#423 = ( GEOMETRIC_REPRESENTATION_CONTEXT(2) 
PARAMETRIC_REPRESENTATION_CONTEXT() REPRESENTATION_CONTEXT('2D SPACE',''
  ) );
#424 = PCURVE('',#67,#425);
#425 = DEFINITIONAL_REPRESENTATION('',(#426),#430);
#426 = LINE('',#427,#428);
#427 = CARTESIAN_POINT('',(-2.828189807472E-11,-1.07181730528E-13));
#428 = VECTOR('',#429,1.);
#429 = DIRECTION('',(1.,1.89521115805E-14));
#430 = ( GEOMETRIC_REPRESENTATION_CONTEXT(2) 
PARAMETRIC_REPRESENTATION_CONTEXT() REPRESENTATION_CONTEXT('2D SPACE',''
  ) );
#431 = ORIENTED_EDGE('',*,*,#21,.F.);
#432 = ORIENTED_EDGE('',*,*,#433,.F.);
#433 = EDGE_CURVE('',#326,#22,#434,.T.);
#434 = SURFACE_CURVE('',#435,(#439,#446),.PCURVE_S1.);
#435 = ( BOUNDED_CURVE() B_SPLINE_CURVE(2,(#436,#437,#438),
.UNSPECIFIED.,.F.,.F.) B_SPLINE_CURVE_WITH_KNOTS((3,3),(0.,24.),
.PIECEWISE_BEZIER_KNOTS.) CURVE() GEOMETRIC_REPRESENTATION_ITEM() 
RATIONAL_B_SPLINE_CURVE((1.,0.707106781187,1.)) REPRESENTATION_ITEM('') 
  );
#436 = CARTESIAN_POINT('',(-2.9235E+03,26.,1.9105E+03));
#437 = CARTESIAN_POINT('',(-2.9235E+03,26.,1.9225E+03));
#438 = CARTESIAN_POINT('',(-2.9235E+03,14.,1.9225E+03));
#439 = PCURVE('',#42,#440);
#440 = DEFINITIONAL_REPRESENTATION('',(#441),#445);
#441 = ( BOUNDED_CURVE() B_SPLINE_CURVE(2,(#442,#443,#444),
.UNSPECIFIED.,.F.,.F.) B_SPLINE_CURVE_WITH_KNOTS((3,3),(0.,24.),
.PIECEWISE_BEZIER_KNOTS.) CURVE() GEOMETRIC_REPRESENTATION_ITEM() 
RATIONAL_B_SPLINE_CURVE((1.,0.707106781187,1.)) REPRESENTATION_ITEM('') 
  );
#442 = CARTESIAN_POINT('',(16.55,4.55));
#443 = CARTESIAN_POINT('',(4.55,4.55));
#444 = CARTESIAN_POINT('',(4.55,16.55));
#445 = ( GEOMETRIC_REPRESENTATION_CONTEXT(2) 
PARAMETRIC_REPRESENTATION_CONTEXT() REPRESENTATION_CONTEXT('2D SPACE',''
  ) );
#446 = PCURVE('',#117,#447);
#447 = DEFINITIONAL_REPRESENTATION('',(#448),#452);
#448 = LINE('',#449,#450);
#449 = CARTESIAN_POINT('',(-1.939289866462E-13,1.023370086778E-13));
#450 = VECTOR('',#451,1.);
#451 = DIRECTION('',(1.,1.010443898688E-14));
#452 = ( GEOMETRIC_REPRESENTATION_CONTEXT(2) 
PARAMETRIC_REPRESENTATION_CONTEXT() REPRESENTATION_CONTEXT('2D SPACE',''
  ) );
#453 = ORIENTED_EDGE('',*,*,#323,.F.);
#454 = ORIENTED_EDGE('',*,*,#455,.F.);
#455 = EDGE_CURVE('',#231,#324,#456,.T.);
#456 = SURFACE_CURVE('',#457,(#461,#468),.PCURVE_S1.);
#457 = ( BOUNDED_CURVE() B_SPLINE_CURVE(2,(#458,#459,#460),
.UNSPECIFIED.,.F.,.F.) B_SPLINE_CURVE_WITH_KNOTS((3,3),(0.,24.),
.PIECEWISE_BEZIER_KNOTS.) CURVE() GEOMETRIC_REPRESENTATION_ITEM() 
RATIONAL_B_SPLINE_CURVE((1.,0.707106781187,1.)) REPRESENTATION_ITEM('') 
  );
#458 = CARTESIAN_POINT('',(-2.9235E+03,13.999999999983,1.8315E+03));
#459 = CARTESIAN_POINT('',(-2.9235E+03,25.999999999991,1.8315E+03));
#460 = CARTESIAN_POINT('',(-2.9235E+03,26.,1.8435E+03));
#461 = PCURVE('',#42,#462);
#462 = DEFINITIONAL_REPRESENTATION('',(#463),#467);
#463 = ( BOUNDED_CURVE() B_SPLINE_CURVE(2,(#464,#465,#466),
.UNSPECIFIED.,.F.,.F.) B_SPLINE_CURVE_WITH_KNOTS((3,3),(0.,24.),
.PIECEWISE_BEZIER_KNOTS.) CURVE() GEOMETRIC_REPRESENTATION_ITEM() 
RATIONAL_B_SPLINE_CURVE((1.,0.707106781187,1.)) REPRESENTATION_ITEM('') 
  );
#464 = CARTESIAN_POINT('',(95.55,16.550000000017));
#465 = CARTESIAN_POINT('',(95.55,4.550000000009));
#466 = CARTESIAN_POINT('',(83.55,4.55));
#467 = ( GEOMETRIC_REPRESENTATION_CONTEXT(2) 
PARAMETRIC_REPRESENTATION_CONTEXT() REPRESENTATION_CONTEXT('2D SPACE',''
  ) );
#468 = PCURVE('',#269,#469);
#469 = DEFINITIONAL_REPRESENTATION('',(#470),#474);
#470 = LINE('',#471,#472);
#471 = CARTESIAN_POINT('',(-2.446733728089E-11,3.297102504396E-13));
#472 = VECTOR('',#473,1.);
#473 = DIRECTION('',(1.,2.965871059727E-20));
#474 = ( GEOMETRIC_REPRESENTATION_CONTEXT(2) 
PARAMETRIC_REPRESENTATION_CONTEXT() REPRESENTATION_CONTEXT('2D SPACE',''
  ) );
#475 = ORIENTED_EDGE('',*,*,#228,.F.);
#476 = ORIENTED_EDGE('',*,*,#477,.F.);
#477 = EDGE_CURVE('',#136,#229,#478,.T.);
#478 = SURFACE_CURVE('',#479,(#483,#490),.PCURVE_S1.);
#479 = ( BOUNDED_CURVE() B_SPLINE_CURVE(2,(#480,#481,#482),
.UNSPECIFIED.,.F.,.F.) B_SPLINE_CURVE_WITH_KNOTS((3,3),(0.,24.),
.PIECEWISE_BEZIER_KNOTS.) CURVE() GEOMETRIC_REPRESENTATION_ITEM() 
RATIONAL_B_SPLINE_CURVE((1.,0.707106781187,1.)) REPRESENTATION_ITEM('') 
  );
#480 = CARTESIAN_POINT('',(-2.9235E+03,-26.,1.8435E+03));
#481 = CARTESIAN_POINT('',(-2.9235E+03,-26.,1.8315E+03));
#482 = CARTESIAN_POINT('',(-2.9235E+03,-14.,1.8315E+03));
#483 = PCURVE('',#42,#484);
#484 = DEFINITIONAL_REPRESENTATION('',(#485),#489);
#485 = ( BOUNDED_CURVE() B_SPLINE_CURVE(2,(#486,#487,#488),
.UNSPECIFIED.,.F.,.F.) B_SPLINE_CURVE_WITH_KNOTS((3,3),(0.,24.),
.PIECEWISE_BEZIER_KNOTS.) CURVE() GEOMETRIC_REPRESENTATION_ITEM() 
RATIONAL_B_SPLINE_CURVE((1.,0.707106781187,1.)) REPRESENTATION_ITEM('') 
  );
#486 = CARTESIAN_POINT('',(83.55,56.55));
#487 = CARTESIAN_POINT('',(95.55,56.55));
#488 = CARTESIAN_POINT('',(95.55,44.55));
#489 = ( GEOMETRIC_REPRESENTATION_CONTEXT(2) 
PARAMETRIC_REPRESENTATION_CONTEXT() REPRESENTATION_CONTEXT('2D SPACE',''
  ) );
#490 = PCURVE('',#174,#491);
#491 = DEFINITIONAL_REPRESENTATION('',(#492),#496);
#492 = LINE('',#493,#494);
#493 = CARTESIAN_POINT('',(-1.45164002219E-13,3.297102504393E-13));
#494 = VECTOR('',#495,1.);
#495 = DIRECTION('',(1.,4.12473859626E-20));
#496 = ( GEOMETRIC_REPRESENTATION_CONTEXT(2) 
PARAMETRIC_REPRESENTATION_CONTEXT() REPRESENTATION_CONTEXT('2D SPACE',''
  ) );
#497 = ORIENTED_EDGE('',*,*,#133,.F.);
#498 = FACE_BOUND('',#499,.T.);
#499 = EDGE_LOOP('',(#500,#539));
#500 = ORIENTED_EDGE('',*,*,#501,.F.);
#501 = EDGE_CURVE('',#502,#504,#506,.T.);
#502 = VERTEX_POINT('',#503);
#503 = CARTESIAN_POINT('',(-2.9235E+03,-5.92287825623E-02,1.9155E+03));
#504 = VERTEX_POINT('',#505);
#505 = CARTESIAN_POINT('',(-2.9235E+03,-5.92287825623E-02,1.9055E+03));
#506 = SURFACE_CURVE('',#507,(#513,#522),.PCURVE_S1.);
#507 = ( BOUNDED_CURVE() B_SPLINE_CURVE(2,(#508,#509,#510,#511,#512),
.UNSPECIFIED.,.F.,.F.) B_SPLINE_CURVE_WITH_KNOTS((3,2,3),(0.5,0.75,1.),
.PIECEWISE_BEZIER_KNOTS.) CURVE() GEOMETRIC_REPRESENTATION_ITEM() 
RATIONAL_B_SPLINE_CURVE((1.,0.707106781187,1.,0.707106781187,1.)) 
REPRESENTATION_ITEM('') );
#508 = CARTESIAN_POINT('',(-2.9235E+03,-5.92287825623E-02,1.9155E+03));
#509 = CARTESIAN_POINT('',(-2.9235E+03,4.940771217438,1.9155E+03));
#510 = CARTESIAN_POINT('',(-2.9235E+03,4.940771217438,1.9105E+03));
#511 = CARTESIAN_POINT('',(-2.9235E+03,4.940771217438,1.9055E+03));
#512 = CARTESIAN_POINT('',(-2.9235E+03,-5.92287825623E-02,1.9055E+03));
#513 = PCURVE('',#42,#514);
#514 = DEFINITIONAL_REPRESENTATION('',(#515),#521);
#515 = ( BOUNDED_CURVE() B_SPLINE_CURVE(2,(#516,#517,#518,#519,#520),
.UNSPECIFIED.,.F.,.F.) B_SPLINE_CURVE_WITH_KNOTS((3,2,3),(0.5,0.75,1.),
.PIECEWISE_BEZIER_KNOTS.) CURVE() GEOMETRIC_REPRESENTATION_ITEM() 
RATIONAL_B_SPLINE_CURVE((1.,0.707106781187,1.,0.707106781187,1.)) 
REPRESENTATION_ITEM('') );
#516 = CARTESIAN_POINT('',(11.55,30.609228782562));
#517 = CARTESIAN_POINT('',(11.55,25.609228782562));
#518 = CARTESIAN_POINT('',(16.55,25.609228782562));
#519 = CARTESIAN_POINT('',(21.55,25.609228782562));
#520 = CARTESIAN_POINT('',(21.55,30.609228782562));
#521 = ( GEOMETRIC_REPRESENTATION_CONTEXT(2) 
PARAMETRIC_REPRESENTATION_CONTEXT() REPRESENTATION_CONTEXT('2D SPACE',''
  ) );
#522 = PCURVE('',#523,#534);
#523 = ( BOUNDED_SURFACE() B_SPLINE_SURFACE(1,2,(
    (#524,#525,#526,#527,#528)
    ,(#529,#530,#531,#532,#533
)),.UNSPECIFIED.,.F.,.F.,.F.) B_SPLINE_SURFACE_WITH_KNOTS((2,2),(3,2,3),
  (-7.549516567451E-14,60.),(20.,30.,40.),.PIECEWISE_BEZIER_KNOTS.) 
GEOMETRIC_REPRESENTATION_ITEM() RATIONAL_B_SPLINE_SURFACE((
    (1.,0.707106781187,1.,0.707106781187,1.)
,(1.,0.707106781187,1.,0.707106781187,1.
))) REPRESENTATION_ITEM('') SURFACE() );
#524 = CARTESIAN_POINT('',(-2.9205E+03,-5.92287825623E-02,1.9155E+03));
#525 = CARTESIAN_POINT('',(-2.9205E+03,4.940771217438,1.9155E+03));
#526 = CARTESIAN_POINT('',(-2.9205E+03,4.940771217438,1.9105E+03));
#527 = CARTESIAN_POINT('',(-2.9205E+03,4.940771217438,1.9055E+03));
#528 = CARTESIAN_POINT('',(-2.9205E+03,-5.92287825623E-02,1.9055E+03));
#529 = CARTESIAN_POINT('',(-2.9805E+03,-5.922878256231E-02,1.9155E+03));
#530 = CARTESIAN_POINT('',(-2.9805E+03,4.940771217438,1.9155E+03));
#531 = CARTESIAN_POINT('',(-2.9805E+03,4.940771217438,1.9105E+03));
#532 = CARTESIAN_POINT('',(-2.9805E+03,4.940771217438,1.9055E+03));
#533 = CARTESIAN_POINT('',(-2.9805E+03,-5.92287825623E-02,1.9055E+03));
#534 = DEFINITIONAL_REPRESENTATION('',(#535),#538);
#535 = B_SPLINE_CURVE_WITH_KNOTS('',1,(#536,#537),.UNSPECIFIED.,.F.,.F.,
  (2,2),(0.5,1.),.PIECEWISE_BEZIER_KNOTS.);
#536 = CARTESIAN_POINT('',(3.,20.));
#537 = CARTESIAN_POINT('',(3.,40.));
#538 = ( GEOMETRIC_REPRESENTATION_CONTEXT(2) 
PARAMETRIC_REPRESENTATION_CONTEXT() REPRESENTATION_CONTEXT('2D SPACE',''
  ) );
#539 = ORIENTED_EDGE('',*,*,#540,.F.);
#540 = EDGE_CURVE('',#504,#502,#541,.T.);
#541 = SURFACE_CURVE('',#542,(#548,#557),.PCURVE_S1.);
#542 = ( BOUNDED_CURVE() B_SPLINE_CURVE(2,(#543,#544,#545,#546,#547),
.UNSPECIFIED.,.F.,.F.) B_SPLINE_CURVE_WITH_KNOTS((3,2,3),(0.,0.25,0.5),
.PIECEWISE_BEZIER_KNOTS.) CURVE() GEOMETRIC_REPRESENTATION_ITEM() 
RATIONAL_B_SPLINE_CURVE((1.,0.707106781187,1.,0.707106781187,1.)) 
REPRESENTATION_ITEM('') );
#543 = CARTESIAN_POINT('',(-2.9235E+03,-5.92287825623E-02,1.9055E+03));
#544 = CARTESIAN_POINT('',(-2.9235E+03,-5.059228782562,1.9055E+03));
#545 = CARTESIAN_POINT('',(-2.9235E+03,-5.059228782562,1.9105E+03));
#546 = CARTESIAN_POINT('',(-2.9235E+03,-5.059228782562,1.9155E+03));
#547 = CARTESIAN_POINT('',(-2.9235E+03,-5.92287825623E-02,1.9155E+03));
#548 = PCURVE('',#42,#549);
#549 = DEFINITIONAL_REPRESENTATION('',(#550),#556);
#550 = ( BOUNDED_CURVE() B_SPLINE_CURVE(2,(#551,#552,#553,#554,#555),
.UNSPECIFIED.,.F.,.F.) B_SPLINE_CURVE_WITH_KNOTS((3,2,3),(0.,0.25,0.5),
.PIECEWISE_BEZIER_KNOTS.) CURVE() GEOMETRIC_REPRESENTATION_ITEM() 
RATIONAL_B_SPLINE_CURVE((1.,0.707106781187,1.,0.707106781187,1.)) 
REPRESENTATION_ITEM('') );
#551 = CARTESIAN_POINT('',(21.55,30.609228782562));
#552 = CARTESIAN_POINT('',(21.55,35.609228782562));
#553 = CARTESIAN_POINT('',(16.55,35.609228782562));
#554 = CARTESIAN_POINT('',(11.55,35.609228782562));
#555 = CARTESIAN_POINT('',(11.55,30.609228782562));
#556 = ( GEOMETRIC_REPRESENTATION_CONTEXT(2) 
PARAMETRIC_REPRESENTATION_CONTEXT() REPRESENTATION_CONTEXT('2D SPACE',''
  ) );
#557 = PCURVE('',#558,#569);
#558 = ( BOUNDED_SURFACE() B_SPLINE_SURFACE(1,2,(
    (#559,#560,#561,#562,#563)
    ,(#564,#565,#566,#567,#568
)),.UNSPECIFIED.,.F.,.F.,.F.) B_SPLINE_SURFACE_WITH_KNOTS((2,2),(3,2,3),
  (-7.549516567451E-14,60.),(0.,10.,20.),.PIECEWISE_BEZIER_KNOTS.) 
GEOMETRIC_REPRESENTATION_ITEM() RATIONAL_B_SPLINE_SURFACE((
    (1.,0.707106781187,1.,0.707106781187,1.)
,(1.,0.707106781187,1.,0.707106781187,1.
))) REPRESENTATION_ITEM('') SURFACE() );
#559 = CARTESIAN_POINT('',(-2.9205E+03,-5.92287825623E-02,1.9055E+03));
#560 = CARTESIAN_POINT('',(-2.9205E+03,-5.059228782562,1.9055E+03));
#561 = CARTESIAN_POINT('',(-2.9205E+03,-5.059228782562,1.9105E+03));
#562 = CARTESIAN_POINT('',(-2.9205E+03,-5.059228782562,1.9155E+03));
#563 = CARTESIAN_POINT('',(-2.9205E+03,-5.92287825623E-02,1.9155E+03));
#564 = CARTESIAN_POINT('',(-2.9805E+03,-5.92287825623E-02,1.9055E+03));
#565 = CARTESIAN_POINT('',(-2.9805E+03,-5.059228782562,1.9055E+03));
#566 = CARTESIAN_POINT('',(-2.9805E+03,-5.059228782562,1.9105E+03));
#567 = CARTESIAN_POINT('',(-2.9805E+03,-5.059228782562,1.9155E+03));
#568 = CARTESIAN_POINT('',(-2.9805E+03,-5.922878256231E-02,1.9155E+03));
#569 = DEFINITIONAL_REPRESENTATION('',(#570),#573);
#570 = B_SPLINE_CURVE_WITH_KNOTS('',1,(#571,#572),.UNSPECIFIED.,.F.,.F.,
  (2,2),(0.,0.5),.PIECEWISE_BEZIER_KNOTS.);
#571 = CARTESIAN_POINT('',(3.,5.516254532992E-16));
#572 = CARTESIAN_POINT('',(3.,20.));
#573 = ( GEOMETRIC_REPRESENTATION_CONTEXT(2) 
PARAMETRIC_REPRESENTATION_CONTEXT() REPRESENTATION_CONTEXT('2D SPACE',''
  ) );
#574 = FACE_BOUND('',#575,.T.);
#575 = EDGE_LOOP('',(#576,#615));
#576 = ORIENTED_EDGE('',*,*,#577,.F.);
#577 = EDGE_CURVE('',#578,#580,#582,.T.);
#578 = VERTEX_POINT('',#579);
#579 = CARTESIAN_POINT('',(-2.9235E+03,-5.700313565727E-02,1.8485E+03));
#580 = VERTEX_POINT('',#581);
#581 = CARTESIAN_POINT('',(-2.9235E+03,-5.700313565727E-02,1.8385E+03));
#582 = SURFACE_CURVE('',#583,(#589,#598),.PCURVE_S1.);
#583 = ( BOUNDED_CURVE() B_SPLINE_CURVE(2,(#584,#585,#586,#587,#588),
.UNSPECIFIED.,.F.,.F.) B_SPLINE_CURVE_WITH_KNOTS((3,2,3),(0.5,0.75,1.),
.PIECEWISE_BEZIER_KNOTS.) CURVE() GEOMETRIC_REPRESENTATION_ITEM() 
RATIONAL_B_SPLINE_CURVE((1.,0.707106781187,1.,0.707106781187,1.)) 
REPRESENTATION_ITEM('') );
#584 = CARTESIAN_POINT('',(-2.9235E+03,-5.700313565727E-02,1.8485E+03));
#585 = CARTESIAN_POINT('',(-2.9235E+03,4.942996864343,1.8485E+03));
#586 = CARTESIAN_POINT('',(-2.9235E+03,4.942996864343,1.8435E+03));
#587 = CARTESIAN_POINT('',(-2.9235E+03,4.942996864343,1.8385E+03));
#588 = CARTESIAN_POINT('',(-2.9235E+03,-5.700313565727E-02,1.8385E+03));
#589 = PCURVE('',#42,#590);
#590 = DEFINITIONAL_REPRESENTATION('',(#591),#597);
#591 = ( BOUNDED_CURVE() B_SPLINE_CURVE(2,(#592,#593,#594,#595,#596),
.UNSPECIFIED.,.F.,.F.) B_SPLINE_CURVE_WITH_KNOTS((3,2,3),(0.5,0.75,1.),
.PIECEWISE_BEZIER_KNOTS.) CURVE() GEOMETRIC_REPRESENTATION_ITEM() 
RATIONAL_B_SPLINE_CURVE((1.,0.707106781187,1.,0.707106781187,1.)) 
REPRESENTATION_ITEM('') );
#592 = CARTESIAN_POINT('',(78.55,30.607003135657));
#593 = CARTESIAN_POINT('',(78.55,25.607003135657));
#594 = CARTESIAN_POINT('',(83.55,25.607003135657));
#595 = CARTESIAN_POINT('',(88.55,25.607003135657));
#596 = CARTESIAN_POINT('',(88.55,30.607003135657));
#597 = ( GEOMETRIC_REPRESENTATION_CONTEXT(2) 
PARAMETRIC_REPRESENTATION_CONTEXT() REPRESENTATION_CONTEXT('2D SPACE',''
  ) );
#598 = PCURVE('',#599,#610);
#599 = ( BOUNDED_SURFACE() B_SPLINE_SURFACE(1,2,(
    (#600,#601,#602,#603,#604)
    ,(#605,#606,#607,#608,#609
)),.UNSPECIFIED.,.F.,.F.,.F.) B_SPLINE_SURFACE_WITH_KNOTS((2,2),(3,2,3),
  (-7.460698725481E-14,60.),(20.,30.,40.),.PIECEWISE_BEZIER_KNOTS.) 
GEOMETRIC_REPRESENTATION_ITEM() RATIONAL_B_SPLINE_SURFACE((
    (1.,0.707106781187,1.,0.707106781187,1.)
,(1.,0.707106781187,1.,0.707106781187,1.
))) REPRESENTATION_ITEM('') SURFACE() );
#600 = CARTESIAN_POINT('',(-2.9205E+03,-5.700313565727E-02,1.8485E+03));
#601 = CARTESIAN_POINT('',(-2.9205E+03,4.942996864343,1.8485E+03));
#602 = CARTESIAN_POINT('',(-2.9205E+03,4.942996864343,1.8435E+03));
#603 = CARTESIAN_POINT('',(-2.9205E+03,4.942996864343,1.8385E+03));
#604 = CARTESIAN_POINT('',(-2.9205E+03,-5.700313565727E-02,1.8385E+03));
#605 = CARTESIAN_POINT('',(-2.9805E+03,-5.700313565727E-02,1.8485E+03));
#606 = CARTESIAN_POINT('',(-2.9805E+03,4.942996864343,1.8485E+03));
#607 = CARTESIAN_POINT('',(-2.9805E+03,4.942996864343,1.8435E+03));
#608 = CARTESIAN_POINT('',(-2.9805E+03,4.942996864343,1.8385E+03));
#609 = CARTESIAN_POINT('',(-2.9805E+03,-5.700313565727E-02,1.8385E+03));
#610 = DEFINITIONAL_REPRESENTATION('',(#611),#614);
#611 = B_SPLINE_CURVE_WITH_KNOTS('',1,(#612,#613),.UNSPECIFIED.,.F.,.F.,
  (2,2),(0.5,1.),.PIECEWISE_BEZIER_KNOTS.);
#612 = CARTESIAN_POINT('',(3.,20.));
#613 = CARTESIAN_POINT('',(3.,40.));
#614 = ( GEOMETRIC_REPRESENTATION_CONTEXT(2) 
PARAMETRIC_REPRESENTATION_CONTEXT() REPRESENTATION_CONTEXT('2D SPACE',''
  ) );
#615 = ORIENTED_EDGE('',*,*,#616,.F.);
#616 = EDGE_CURVE('',#580,#578,#617,.T.);
#617 = SURFACE_CURVE('',#618,(#624,#633),.PCURVE_S1.);
#618 = ( BOUNDED_CURVE() B_SPLINE_CURVE(2,(#619,#620,#621,#622,#623),
.UNSPECIFIED.,.F.,.F.) B_SPLINE_CURVE_WITH_KNOTS((3,2,3),(0.,0.25,0.5),
.PIECEWISE_BEZIER_KNOTS.) CURVE() GEOMETRIC_REPRESENTATION_ITEM() 
RATIONAL_B_SPLINE_CURVE((1.,0.707106781187,1.,0.707106781187,1.)) 
REPRESENTATION_ITEM('') );
#619 = CARTESIAN_POINT('',(-2.9235E+03,-5.700313565727E-02,1.8385E+03));
#620 = CARTESIAN_POINT('',(-2.9235E+03,-5.057003135657,1.8385E+03));
#621 = CARTESIAN_POINT('',(-2.9235E+03,-5.057003135657,1.8435E+03));
#622 = CARTESIAN_POINT('',(-2.9235E+03,-5.057003135657,1.8485E+03));
#623 = CARTESIAN_POINT('',(-2.9235E+03,-5.700313565727E-02,1.8485E+03));
#624 = PCURVE('',#42,#625);
#625 = DEFINITIONAL_REPRESENTATION('',(#626),#632);
#626 = ( BOUNDED_CURVE() B_SPLINE_CURVE(2,(#627,#628,#629,#630,#631),
.UNSPECIFIED.,.F.,.F.) B_SPLINE_CURVE_WITH_KNOTS((3,2,3),(0.,0.25,0.5),
.PIECEWISE_BEZIER_KNOTS.) CURVE() GEOMETRIC_REPRESENTATION_ITEM() 
RATIONAL_B_SPLINE_CURVE((1.,0.707106781187,1.,0.707106781187,1.)) 
REPRESENTATION_ITEM('') );
#627 = CARTESIAN_POINT('',(88.55,30.607003135657));
#628 = CARTESIAN_POINT('',(88.55,35.607003135657));
#629 = CARTESIAN_POINT('',(83.55,35.607003135657));
#630 = CARTESIAN_POINT('',(78.55,35.607003135657));
#631 = CARTESIAN_POINT('',(78.55,30.607003135657));
#632 = ( GEOMETRIC_REPRESENTATION_CONTEXT(2) 
PARAMETRIC_REPRESENTATION_CONTEXT() REPRESENTATION_CONTEXT('2D SPACE',''
  ) );
#633 = PCURVE('',#634,#645);
#634 = ( BOUNDED_SURFACE() B_SPLINE_SURFACE(1,2,(
    (#635,#636,#637,#638,#639)
    ,(#640,#641,#642,#643,#644
)),.UNSPECIFIED.,.F.,.F.,.F.) B_SPLINE_SURFACE_WITH_KNOTS((2,2),(3,2,3),
  (-7.460698725481E-14,60.),(0.,10.,20.),.PIECEWISE_BEZIER_KNOTS.) 
GEOMETRIC_REPRESENTATION_ITEM() RATIONAL_B_SPLINE_SURFACE((
    (1.,0.707106781187,1.,0.707106781187,1.)
,(1.,0.707106781187,1.,0.707106781187,1.
))) REPRESENTATION_ITEM('') SURFACE() );
#635 = CARTESIAN_POINT('',(-2.9205E+03,-5.700313565727E-02,1.8385E+03));
#636 = CARTESIAN_POINT('',(-2.9205E+03,-5.057003135657,1.8385E+03));
#637 = CARTESIAN_POINT('',(-2.9205E+03,-5.057003135657,1.8435E+03));
#638 = CARTESIAN_POINT('',(-2.9205E+03,-5.057003135657,1.8485E+03));
#639 = CARTESIAN_POINT('',(-2.9205E+03,-5.700313565727E-02,1.8485E+03));
#640 = CARTESIAN_POINT('',(-2.9805E+03,-5.700313565727E-02,1.8385E+03));
#641 = CARTESIAN_POINT('',(-2.9805E+03,-5.057003135657,1.8385E+03));
#642 = CARTESIAN_POINT('',(-2.9805E+03,-5.057003135657,1.8435E+03));
#643 = CARTESIAN_POINT('',(-2.9805E+03,-5.057003135657,1.8485E+03));
#644 = CARTESIAN_POINT('',(-2.9805E+03,-5.700313565727E-02,1.8485E+03));
#645 = DEFINITIONAL_REPRESENTATION('',(#646),#649);
#646 = B_SPLINE_CURVE_WITH_KNOTS('',1,(#647,#648),.UNSPECIFIED.,.F.,.F.,
  (2,2),(0.,0.5),.PIECEWISE_BEZIER_KNOTS.);
#647 = CARTESIAN_POINT('',(3.,9.876908213695E-16));
#648 = CARTESIAN_POINT('',(3.,20.));
#649 = ( GEOMETRIC_REPRESENTATION_CONTEXT(2) 
PARAMETRIC_REPRESENTATION_CONTEXT() REPRESENTATION_CONTEXT('2D SPACE',''
  ) );
#650 = FACE_BOUND('',#651,.T.);
#651 = EDGE_LOOP('',(#652,#691));
#652 = ORIENTED_EDGE('',*,*,#653,.F.);
#653 = EDGE_CURVE('',#654,#656,#658,.T.);
#654 = VERTEX_POINT('',#655);
#655 = CARTESIAN_POINT('',(-2.9235E+03,6.058451752097E-28,1.8992E+03));
#656 = VERTEX_POINT('',#657);
#657 = CARTESIAN_POINT('',(-2.9235E+03,-2.423380700839E-27,1.8558E+03));
#658 = SURFACE_CURVE('',#659,(#665,#674),.PCURVE_S1.);
#659 = ( BOUNDED_CURVE() B_SPLINE_CURVE(2,(#660,#661,#662,#663,#664),
.UNSPECIFIED.,.F.,.F.) B_SPLINE_CURVE_WITH_KNOTS((3,2,3),(-0.5,-0.25,0.)
,.PIECEWISE_BEZIER_KNOTS.) CURVE() GEOMETRIC_REPRESENTATION_ITEM() 
RATIONAL_B_SPLINE_CURVE((1.,0.707106781187,1.,0.707106781187,1.)) 
REPRESENTATION_ITEM('') );
#660 = CARTESIAN_POINT('',(-2.9235E+03,6.058451752097E-28,1.8992E+03));
#661 = CARTESIAN_POINT('',(-2.9235E+03,21.7,1.8992E+03));
#662 = CARTESIAN_POINT('',(-2.9235E+03,21.7,1.8775E+03));
#663 = CARTESIAN_POINT('',(-2.9235E+03,21.7,1.8558E+03));
#664 = CARTESIAN_POINT('',(-2.9235E+03,-2.423380700839E-27,1.8558E+03));
#665 = PCURVE('',#42,#666);
#666 = DEFINITIONAL_REPRESENTATION('',(#667),#673);
#667 = ( BOUNDED_CURVE() B_SPLINE_CURVE(2,(#668,#669,#670,#671,#672),
.UNSPECIFIED.,.F.,.F.) B_SPLINE_CURVE_WITH_KNOTS((3,2,3),(-0.5,-0.25,0.)
,.PIECEWISE_BEZIER_KNOTS.) CURVE() GEOMETRIC_REPRESENTATION_ITEM() 
RATIONAL_B_SPLINE_CURVE((1.,0.707106781187,1.,0.707106781187,1.)) 
REPRESENTATION_ITEM('') );
#668 = CARTESIAN_POINT('',(27.85,30.55));
#669 = CARTESIAN_POINT('',(27.85,8.85));
#670 = CARTESIAN_POINT('',(49.55,8.85));
#671 = CARTESIAN_POINT('',(71.25,8.85));
#672 = CARTESIAN_POINT('',(71.25,30.55));
#673 = ( GEOMETRIC_REPRESENTATION_CONTEXT(2) 
PARAMETRIC_REPRESENTATION_CONTEXT() REPRESENTATION_CONTEXT('2D SPACE',''
  ) );
#674 = PCURVE('',#675,#686);
#675 = ( BOUNDED_SURFACE() B_SPLINE_SURFACE(1,2,(
    (#676,#677,#678,#679,#680)
    ,(#681,#682,#683,#684,#685
)),.UNSPECIFIED.,.F.,.F.,.F.) B_SPLINE_SURFACE_WITH_KNOTS((2,2),(3,2,3),
  (-7.958078640513E-13,5.357660480101E+03),(0.,43.4,86.8),
.PIECEWISE_BEZIER_KNOTS.) GEOMETRIC_REPRESENTATION_ITEM() 
RATIONAL_B_SPLINE_SURFACE((
    (1.,0.707106781187,1.,0.707106781187,1.)
,(1.,0.707106781187,1.,0.707106781187,1.
))) REPRESENTATION_ITEM('') SURFACE() );
#676 = CARTESIAN_POINT('',(-2.9235E+03,5.250658185151E-27,1.8558E+03));
#677 = CARTESIAN_POINT('',(-2.9235E+03,21.7,1.8558E+03));
#678 = CARTESIAN_POINT('',(-2.9235E+03,21.7,1.8775E+03));
#679 = CARTESIAN_POINT('',(-2.9235E+03,21.7,1.8992E+03));
#680 = CARTESIAN_POINT('',(-2.9235E+03,4.846761401678E-27,1.8992E+03));
#681 = CARTESIAN_POINT('',(2.434160480101E+03,-3.425872779905E-11,
    1.8558E+03));
#682 = CARTESIAN_POINT('',(2.434160480101E+03,21.699999999966,1.8558E+03
    ));
#683 = CARTESIAN_POINT('',(2.434160480101E+03,21.699999999966,1.8775E+03
    ));
#684 = CARTESIAN_POINT('',(2.434160480101E+03,21.699999999966,1.8992E+03
    ));
#685 = CARTESIAN_POINT('',(2.434160480101E+03,-3.359994574237E-11,
    1.8992E+03));
#686 = DEFINITIONAL_REPRESENTATION('',(#687),#690);
#687 = B_SPLINE_CURVE_WITH_KNOTS('',1,(#688,#689),.UNSPECIFIED.,.F.,.F.,
  (2,2),(-0.5,0.),.PIECEWISE_BEZIER_KNOTS.);
#688 = CARTESIAN_POINT('',(-9.610090501155E-13,86.8));
#689 = CARTESIAN_POINT('',(-5.062616992291E-13,-3.600555531945E-16));
#690 = ( GEOMETRIC_REPRESENTATION_CONTEXT(2) 
PARAMETRIC_REPRESENTATION_CONTEXT() REPRESENTATION_CONTEXT('2D SPACE',''
  ) );
#691 = ORIENTED_EDGE('',*,*,#692,.F.);
#692 = EDGE_CURVE('',#656,#654,#693,.T.);
#693 = SURFACE_CURVE('',#694,(#700,#709),.PCURVE_S1.);
#694 = ( BOUNDED_CURVE() B_SPLINE_CURVE(2,(#695,#696,#697,#698,#699),
.UNSPECIFIED.,.F.,.F.) B_SPLINE_CURVE_WITH_KNOTS((3,2,3),(-1.,-0.75,-0.5
),.PIECEWISE_BEZIER_KNOTS.) CURVE() GEOMETRIC_REPRESENTATION_ITEM() 
RATIONAL_B_SPLINE_CURVE((1.,0.707106781187,1.,0.707106781187,1.)) 
REPRESENTATION_ITEM('') );
#695 = CARTESIAN_POINT('',(-2.9235E+03,-2.423380700839E-27,1.8558E+03));
#696 = CARTESIAN_POINT('',(-2.9235E+03,-21.7,1.8558E+03));
#697 = CARTESIAN_POINT('',(-2.9235E+03,-21.7,1.8775E+03));
#698 = CARTESIAN_POINT('',(-2.9235E+03,-21.7,1.8992E+03));
#699 = CARTESIAN_POINT('',(-2.9235E+03,6.058451752097E-28,1.8992E+03));
#700 = PCURVE('',#42,#701);
#701 = DEFINITIONAL_REPRESENTATION('',(#702),#708);
#702 = ( BOUNDED_CURVE() B_SPLINE_CURVE(2,(#703,#704,#705,#706,#707),
.UNSPECIFIED.,.F.,.F.) B_SPLINE_CURVE_WITH_KNOTS((3,2,3),(-1.,-0.75,-0.5
),.PIECEWISE_BEZIER_KNOTS.) CURVE() GEOMETRIC_REPRESENTATION_ITEM() 
RATIONAL_B_SPLINE_CURVE((1.,0.707106781187,1.,0.707106781187,1.)) 
REPRESENTATION_ITEM('') );
#703 = CARTESIAN_POINT('',(71.25,30.55));
#704 = CARTESIAN_POINT('',(71.25,52.25));
#705 = CARTESIAN_POINT('',(49.55,52.25));
#706 = CARTESIAN_POINT('',(27.85,52.25));
#707 = CARTESIAN_POINT('',(27.85,30.55));
#708 = ( GEOMETRIC_REPRESENTATION_CONTEXT(2) 
PARAMETRIC_REPRESENTATION_CONTEXT() REPRESENTATION_CONTEXT('2D SPACE',''
  ) );
#709 = PCURVE('',#710,#721);
#710 = ( BOUNDED_SURFACE() B_SPLINE_SURFACE(1,2,(
    (#711,#712,#713,#714,#715)
    ,(#716,#717,#718,#719,#720
)),.UNSPECIFIED.,.F.,.F.,.F.) B_SPLINE_SURFACE_WITH_KNOTS((2,2),(3,2,3),
  (-7.958078640513E-13,5.357660480101E+03),(86.8,130.2,173.6),
.PIECEWISE_BEZIER_KNOTS.) GEOMETRIC_REPRESENTATION_ITEM() 
RATIONAL_B_SPLINE_SURFACE((
    (1.,0.707106781187,1.,0.707106781187,1.)
,(1.,0.707106781187,1.,0.707106781187,1.
))) REPRESENTATION_ITEM('') SURFACE() );
#711 = CARTESIAN_POINT('',(-2.9235E+03,4.846761401678E-27,1.8992E+03));
#712 = CARTESIAN_POINT('',(-2.9235E+03,-21.7,1.8992E+03));
#713 = CARTESIAN_POINT('',(-2.9235E+03,-21.7,1.8775E+03));
#714 = CARTESIAN_POINT('',(-2.9235E+03,-21.7,1.8558E+03));
#715 = CARTESIAN_POINT('',(-2.9235E+03,5.250658185151E-27,1.8558E+03));
#716 = CARTESIAN_POINT('',(2.434160480101E+03,-3.359994574237E-11,
    1.8992E+03));
#717 = CARTESIAN_POINT('',(2.434160480101E+03,-21.70000000003,1.8992E+03
    ));
#718 = CARTESIAN_POINT('',(2.434160480101E+03,-21.70000000003,1.8775E+03
    ));
#719 = CARTESIAN_POINT('',(2.434160480101E+03,-21.70000000003,1.8558E+03
    ));
#720 = CARTESIAN_POINT('',(2.434160480101E+03,-3.425872779905E-11,
    1.8558E+03));
#721 = DEFINITIONAL_REPRESENTATION('',(#722),#725);
#722 = B_SPLINE_CURVE_WITH_KNOTS('',1,(#723,#724),.UNSPECIFIED.,.F.,.F.,
  (2,2),(-1.,-0.5),.PIECEWISE_BEZIER_KNOTS.);
#723 = CARTESIAN_POINT('',(-9.610090492876E-13,173.6));
#724 = CARTESIAN_POINT('',(-9.608980261571E-13,86.8));
#725 = ( GEOMETRIC_REPRESENTATION_CONTEXT(2) 
PARAMETRIC_REPRESENTATION_CONTEXT() REPRESENTATION_CONTEXT('2D SPACE',''
  ) );
#726 = ADVANCED_FACE('',(#727,#817,#871,#925),#94,.T.);
#727 = FACE_BOUND('',#728,.T.);
#728 = EDGE_LOOP('',(#729,#730,#751,#752,#773,#774,#795,#796));
#729 = ORIENTED_EDGE('',*,*,#187,.F.);
#730 = ORIENTED_EDGE('',*,*,#731,.T.);
#731 = EDGE_CURVE('',#161,#283,#732,.T.);
#732 = SURFACE_CURVE('',#733,(#737,#744),.PCURVE_S1.);
#733 = ( BOUNDED_CURVE() B_SPLINE_CURVE(2,(#734,#735,#736),
.UNSPECIFIED.,.F.,.F.) B_SPLINE_CURVE_WITH_KNOTS((3,3),(0.,24.),
.PIECEWISE_BEZIER_KNOTS.) CURVE() GEOMETRIC_REPRESENTATION_ITEM() 
RATIONAL_B_SPLINE_CURVE((1.,0.707106781187,1.)) REPRESENTATION_ITEM('') 
  );
#734 = CARTESIAN_POINT('',(-2.9205E+03,-26.,1.8435E+03));
#735 = CARTESIAN_POINT('',(-2.9205E+03,-26.,1.8315E+03));
#736 = CARTESIAN_POINT('',(-2.9205E+03,-14.,1.8315E+03));
#737 = PCURVE('',#94,#738);
#738 = DEFINITIONAL_REPRESENTATION('',(#739),#743);
#739 = ( BOUNDED_CURVE() B_SPLINE_CURVE(2,(#740,#741,#742),
.UNSPECIFIED.,.F.,.F.) B_SPLINE_CURVE_WITH_KNOTS((3,3),(0.,24.),
.PIECEWISE_BEZIER_KNOTS.) CURVE() GEOMETRIC_REPRESENTATION_ITEM() 
RATIONAL_B_SPLINE_CURVE((1.,0.707106781187,1.)) REPRESENTATION_ITEM('') 
  );
#740 = CARTESIAN_POINT('',(-83.55,56.55));
#741 = CARTESIAN_POINT('',(-95.55,56.55));
#742 = CARTESIAN_POINT('',(-95.55,44.55));
#743 = ( GEOMETRIC_REPRESENTATION_CONTEXT(2) 
PARAMETRIC_REPRESENTATION_CONTEXT() REPRESENTATION_CONTEXT('2D SPACE',''
  ) );
#744 = PCURVE('',#174,#745);
#745 = DEFINITIONAL_REPRESENTATION('',(#746),#750);
#746 = LINE('',#747,#748);
#747 = CARTESIAN_POINT('',(2.251556670245E-13,3.));
#748 = VECTOR('',#749,1.);
#749 = DIRECTION('',(1.,0.));
#750 = ( GEOMETRIC_REPRESENTATION_CONTEXT(2) 
PARAMETRIC_REPRESENTATION_CONTEXT() REPRESENTATION_CONTEXT('2D SPACE',''
  ) );
#751 = ORIENTED_EDGE('',*,*,#282,.F.);
#752 = ORIENTED_EDGE('',*,*,#753,.T.);
#753 = EDGE_CURVE('',#256,#371,#754,.T.);
#754 = SURFACE_CURVE('',#755,(#759,#766),.PCURVE_S1.);
#755 = ( BOUNDED_CURVE() B_SPLINE_CURVE(2,(#756,#757,#758),
.UNSPECIFIED.,.F.,.F.) B_SPLINE_CURVE_WITH_KNOTS((3,3),(0.,24.),
.PIECEWISE_BEZIER_KNOTS.) CURVE() GEOMETRIC_REPRESENTATION_ITEM() 
RATIONAL_B_SPLINE_CURVE((1.,0.707106781187,1.)) REPRESENTATION_ITEM('') 
  );
#756 = CARTESIAN_POINT('',(-2.9205E+03,13.999999999983,1.8315E+03));
#757 = CARTESIAN_POINT('',(-2.9205E+03,25.999999999991,1.8315E+03));
#758 = CARTESIAN_POINT('',(-2.9205E+03,26.,1.8435E+03));
#759 = PCURVE('',#94,#760);
#760 = DEFINITIONAL_REPRESENTATION('',(#761),#765);
#761 = ( BOUNDED_CURVE() B_SPLINE_CURVE(2,(#762,#763,#764),
.UNSPECIFIED.,.F.,.F.) B_SPLINE_CURVE_WITH_KNOTS((3,3),(0.,24.),
.PIECEWISE_BEZIER_KNOTS.) CURVE() GEOMETRIC_REPRESENTATION_ITEM() 
RATIONAL_B_SPLINE_CURVE((1.,0.707106781187,1.)) REPRESENTATION_ITEM('') 
  );
#762 = CARTESIAN_POINT('',(-95.55,16.550000000017));
#763 = CARTESIAN_POINT('',(-95.55,4.550000000009));
#764 = CARTESIAN_POINT('',(-83.55,4.55));
#765 = ( GEOMETRIC_REPRESENTATION_CONTEXT(2) 
PARAMETRIC_REPRESENTATION_CONTEXT() REPRESENTATION_CONTEXT('2D SPACE',''
  ) );
#766 = PCURVE('',#269,#767);
#767 = DEFINITIONAL_REPRESENTATION('',(#768),#772);
#768 = LINE('',#769,#770);
#769 = CARTESIAN_POINT('',(-2.446881600729E-11,3.));
#770 = VECTOR('',#771,1.);
#771 = DIRECTION('',(1.,0.));
#772 = ( GEOMETRIC_REPRESENTATION_CONTEXT(2) 
PARAMETRIC_REPRESENTATION_CONTEXT() REPRESENTATION_CONTEXT('2D SPACE',''
  ) );
#773 = ORIENTED_EDGE('',*,*,#370,.F.);
#774 = ORIENTED_EDGE('',*,*,#775,.T.);
#775 = EDGE_CURVE('',#351,#81,#776,.T.);
#776 = SURFACE_CURVE('',#777,(#781,#788),.PCURVE_S1.);
#777 = ( BOUNDED_CURVE() B_SPLINE_CURVE(2,(#778,#779,#780),
.UNSPECIFIED.,.F.,.F.) B_SPLINE_CURVE_WITH_KNOTS((3,3),(0.,24.),
.PIECEWISE_BEZIER_KNOTS.) CURVE() GEOMETRIC_REPRESENTATION_ITEM() 
RATIONAL_B_SPLINE_CURVE((1.,0.707106781187,1.)) REPRESENTATION_ITEM('') 
  );
#778 = CARTESIAN_POINT('',(-2.9205E+03,26.,1.9105E+03));
#779 = CARTESIAN_POINT('',(-2.9205E+03,26.,1.9225E+03));
#780 = CARTESIAN_POINT('',(-2.9205E+03,14.,1.9225E+03));
#781 = PCURVE('',#94,#782);
#782 = DEFINITIONAL_REPRESENTATION('',(#783),#787);
#783 = ( BOUNDED_CURVE() B_SPLINE_CURVE(2,(#784,#785,#786),
.UNSPECIFIED.,.F.,.F.) B_SPLINE_CURVE_WITH_KNOTS((3,3),(0.,24.),
.PIECEWISE_BEZIER_KNOTS.) CURVE() GEOMETRIC_REPRESENTATION_ITEM() 
RATIONAL_B_SPLINE_CURVE((1.,0.707106781187,1.)) REPRESENTATION_ITEM('') 
  );
#784 = CARTESIAN_POINT('',(-16.55,4.55));
#785 = CARTESIAN_POINT('',(-4.55,4.55));
#786 = CARTESIAN_POINT('',(-4.55,16.55));
#787 = ( GEOMETRIC_REPRESENTATION_CONTEXT(2) 
PARAMETRIC_REPRESENTATION_CONTEXT() REPRESENTATION_CONTEXT('2D SPACE',''
  ) );
#788 = PCURVE('',#117,#789);
#789 = DEFINITIONAL_REPRESENTATION('',(#790),#794);
#790 = LINE('',#791,#792);
#791 = CARTESIAN_POINT('',(-4.76352992496E-14,3.));
#792 = VECTOR('',#793,1.);
#793 = DIRECTION('',(1.,-6.291263806209E-16));
#794 = ( GEOMETRIC_REPRESENTATION_CONTEXT(2) 
PARAMETRIC_REPRESENTATION_CONTEXT() REPRESENTATION_CONTEXT('2D SPACE',''
  ) );
#795 = ORIENTED_EDGE('',*,*,#80,.F.);
#796 = ORIENTED_EDGE('',*,*,#797,.T.);
#797 = EDGE_CURVE('',#54,#188,#798,.T.);
#798 = SURFACE_CURVE('',#799,(#803,#810),.PCURVE_S1.);
#799 = ( BOUNDED_CURVE() B_SPLINE_CURVE(2,(#800,#801,#802),
.UNSPECIFIED.,.F.,.F.) B_SPLINE_CURVE_WITH_KNOTS((3,3),(0.,24.),
.PIECEWISE_BEZIER_KNOTS.) CURVE() GEOMETRIC_REPRESENTATION_ITEM() 
RATIONAL_B_SPLINE_CURVE((1.,0.707106781187,1.)) REPRESENTATION_ITEM('') 
  );
#800 = CARTESIAN_POINT('',(-2.9205E+03,-13.99999999998,1.9225E+03));
#801 = CARTESIAN_POINT('',(-2.9205E+03,-25.99999999999,1.9225E+03));
#802 = CARTESIAN_POINT('',(-2.9205E+03,-26.,1.9105E+03));
#803 = PCURVE('',#94,#804);
#804 = DEFINITIONAL_REPRESENTATION('',(#805),#809);
#805 = ( BOUNDED_CURVE() B_SPLINE_CURVE(2,(#806,#807,#808),
.UNSPECIFIED.,.F.,.F.) B_SPLINE_CURVE_WITH_KNOTS((3,3),(0.,24.),
.PIECEWISE_BEZIER_KNOTS.) CURVE() GEOMETRIC_REPRESENTATION_ITEM() 
RATIONAL_B_SPLINE_CURVE((1.,0.707106781187,1.)) REPRESENTATION_ITEM('') 
  );
#806 = CARTESIAN_POINT('',(-4.55,44.54999999998));
#807 = CARTESIAN_POINT('',(-4.55,56.54999999999));
#808 = CARTESIAN_POINT('',(-16.55,56.55));
#809 = ( GEOMETRIC_REPRESENTATION_CONTEXT(2) 
PARAMETRIC_REPRESENTATION_CONTEXT() REPRESENTATION_CONTEXT('2D SPACE',''
  ) );
#810 = PCURVE('',#67,#811);
#811 = DEFINITIONAL_REPRESENTATION('',(#812),#816);
#812 = LINE('',#813,#814);
#813 = CARTESIAN_POINT('',(-2.446516844151E-11,3.));
#814 = VECTOR('',#815,1.);
#815 = DIRECTION('',(1.,-6.291263806203E-16));
#816 = ( GEOMETRIC_REPRESENTATION_CONTEXT(2) 
PARAMETRIC_REPRESENTATION_CONTEXT() REPRESENTATION_CONTEXT('2D SPACE',''
  ) );
#817 = FACE_BOUND('',#818,.T.);
#818 = EDGE_LOOP('',(#819,#847));
#819 = ORIENTED_EDGE('',*,*,#820,.T.);
#820 = EDGE_CURVE('',#821,#823,#825,.T.);
#821 = VERTEX_POINT('',#822);
#822 = CARTESIAN_POINT('',(-2.9205E+03,-5.922878256223E-02,1.9155E+03));
#823 = VERTEX_POINT('',#824);
#824 = CARTESIAN_POINT('',(-2.9205E+03,-5.92287825623E-02,1.9055E+03));
#825 = SURFACE_CURVE('',#826,(#832,#841),.PCURVE_S1.);
#826 = ( BOUNDED_CURVE() B_SPLINE_CURVE(2,(#827,#828,#829,#830,#831),
.UNSPECIFIED.,.F.,.F.) B_SPLINE_CURVE_WITH_KNOTS((3,2,3),(0.5,0.75,1.),
.PIECEWISE_BEZIER_KNOTS.) CURVE() GEOMETRIC_REPRESENTATION_ITEM() 
RATIONAL_B_SPLINE_CURVE((1.,0.707106781187,1.,0.707106781187,1.)) 
REPRESENTATION_ITEM('') );
#827 = CARTESIAN_POINT('',(-2.9205E+03,-5.922878256223E-02,1.9155E+03));
#828 = CARTESIAN_POINT('',(-2.9205E+03,4.940771217438,1.9155E+03));
#829 = CARTESIAN_POINT('',(-2.9205E+03,4.940771217438,1.9105E+03));
#830 = CARTESIAN_POINT('',(-2.9205E+03,4.940771217438,1.9055E+03));
#831 = CARTESIAN_POINT('',(-2.9205E+03,-5.92287825623E-02,1.9055E+03));
#832 = PCURVE('',#94,#833);
#833 = DEFINITIONAL_REPRESENTATION('',(#834),#840);
#834 = ( BOUNDED_CURVE() B_SPLINE_CURVE(2,(#835,#836,#837,#838,#839),
.UNSPECIFIED.,.F.,.F.) B_SPLINE_CURVE_WITH_KNOTS((3,2,3),(0.5,0.75,1.),
.PIECEWISE_BEZIER_KNOTS.) CURVE() GEOMETRIC_REPRESENTATION_ITEM() 
RATIONAL_B_SPLINE_CURVE((1.,0.707106781187,1.,0.707106781187,1.)) 
REPRESENTATION_ITEM('') );
#835 = CARTESIAN_POINT('',(-11.55,30.609228782562));
#836 = CARTESIAN_POINT('',(-11.55,25.609228782562));
#837 = CARTESIAN_POINT('',(-16.55,25.609228782562));
#838 = CARTESIAN_POINT('',(-21.55,25.609228782562));
#839 = CARTESIAN_POINT('',(-21.55,30.609228782562));
#840 = ( GEOMETRIC_REPRESENTATION_CONTEXT(2) 
PARAMETRIC_REPRESENTATION_CONTEXT() REPRESENTATION_CONTEXT('2D SPACE',''
  ) );
#841 = PCURVE('',#523,#842);
#842 = DEFINITIONAL_REPRESENTATION('',(#843),#846);
#843 = B_SPLINE_CURVE_WITH_KNOTS('',1,(#844,#845),.UNSPECIFIED.,.F.,.F.,
  (2,2),(0.5,1.),.PIECEWISE_BEZIER_KNOTS.);
#844 = CARTESIAN_POINT('',(4.095968356155E-13,20.));
#845 = CARTESIAN_POINT('',(4.095937998494E-13,40.));
#846 = ( GEOMETRIC_REPRESENTATION_CONTEXT(2) 
PARAMETRIC_REPRESENTATION_CONTEXT() REPRESENTATION_CONTEXT('2D SPACE',''
  ) );
#847 = ORIENTED_EDGE('',*,*,#848,.T.);
#848 = EDGE_CURVE('',#823,#821,#849,.T.);
#849 = SURFACE_CURVE('',#850,(#856,#865),.PCURVE_S1.);
#850 = ( BOUNDED_CURVE() B_SPLINE_CURVE(2,(#851,#852,#853,#854,#855),
.UNSPECIFIED.,.F.,.F.) B_SPLINE_CURVE_WITH_KNOTS((3,2,3),(0.,0.25,0.5),
.PIECEWISE_BEZIER_KNOTS.) CURVE() GEOMETRIC_REPRESENTATION_ITEM() 
RATIONAL_B_SPLINE_CURVE((1.,0.707106781187,1.,0.707106781187,1.)) 
REPRESENTATION_ITEM('') );
#851 = CARTESIAN_POINT('',(-2.9205E+03,-5.92287825623E-02,1.9055E+03));
#852 = CARTESIAN_POINT('',(-2.9205E+03,-5.059228782562,1.9055E+03));
#853 = CARTESIAN_POINT('',(-2.9205E+03,-5.059228782562,1.9105E+03));
#854 = CARTESIAN_POINT('',(-2.9205E+03,-5.059228782562,1.9155E+03));
#855 = CARTESIAN_POINT('',(-2.9205E+03,-5.922878256223E-02,1.9155E+03));
#856 = PCURVE('',#94,#857);
#857 = DEFINITIONAL_REPRESENTATION('',(#858),#864);
#858 = ( BOUNDED_CURVE() B_SPLINE_CURVE(2,(#859,#860,#861,#862,#863),
.UNSPECIFIED.,.F.,.F.) B_SPLINE_CURVE_WITH_KNOTS((3,2,3),(0.,0.25,0.5),
.PIECEWISE_BEZIER_KNOTS.) CURVE() GEOMETRIC_REPRESENTATION_ITEM() 
RATIONAL_B_SPLINE_CURVE((1.,0.707106781187,1.,0.707106781187,1.)) 
REPRESENTATION_ITEM('') );
#859 = CARTESIAN_POINT('',(-21.55,30.609228782562));
#860 = CARTESIAN_POINT('',(-21.55,35.609228782562));
#861 = CARTESIAN_POINT('',(-16.55,35.609228782562));
#862 = CARTESIAN_POINT('',(-11.55,35.609228782562));
#863 = CARTESIAN_POINT('',(-11.55,30.609228782562));
#864 = ( GEOMETRIC_REPRESENTATION_CONTEXT(2) 
PARAMETRIC_REPRESENTATION_CONTEXT() REPRESENTATION_CONTEXT('2D SPACE',''
  ) );
#865 = PCURVE('',#558,#866);
#866 = DEFINITIONAL_REPRESENTATION('',(#867),#870);
#867 = B_SPLINE_CURVE_WITH_KNOTS('',1,(#868,#869),.UNSPECIFIED.,.F.,.F.,
  (2,2),(0.,0.5),.PIECEWISE_BEZIER_KNOTS.);
#868 = CARTESIAN_POINT('',(-4.515094894349E-14,2.873834456904E-16));
#869 = CARTESIAN_POINT('',(-4.514878056424E-14,20.));
#870 = ( GEOMETRIC_REPRESENTATION_CONTEXT(2) 
PARAMETRIC_REPRESENTATION_CONTEXT() REPRESENTATION_CONTEXT('2D SPACE',''
  ) );
#871 = FACE_BOUND('',#872,.T.);
#872 = EDGE_LOOP('',(#873,#901));
#873 = ORIENTED_EDGE('',*,*,#874,.T.);
#874 = EDGE_CURVE('',#875,#877,#879,.T.);
#875 = VERTEX_POINT('',#876);
#876 = CARTESIAN_POINT('',(-2.9205E+03,-5.700313565727E-02,1.8485E+03));
#877 = VERTEX_POINT('',#878);
#878 = CARTESIAN_POINT('',(-2.9205E+03,-5.700313565727E-02,1.8385E+03));
#879 = SURFACE_CURVE('',#880,(#886,#895),.PCURVE_S1.);
#880 = ( BOUNDED_CURVE() B_SPLINE_CURVE(2,(#881,#882,#883,#884,#885),
.UNSPECIFIED.,.F.,.F.) B_SPLINE_CURVE_WITH_KNOTS((3,2,3),(0.5,0.75,1.),
.PIECEWISE_BEZIER_KNOTS.) CURVE() GEOMETRIC_REPRESENTATION_ITEM() 
RATIONAL_B_SPLINE_CURVE((1.,0.707106781187,1.,0.707106781187,1.)) 
REPRESENTATION_ITEM('') );
#881 = CARTESIAN_POINT('',(-2.9205E+03,-5.700313565727E-02,1.8485E+03));
#882 = CARTESIAN_POINT('',(-2.9205E+03,4.942996864343,1.8485E+03));
#883 = CARTESIAN_POINT('',(-2.9205E+03,4.942996864343,1.8435E+03));
#884 = CARTESIAN_POINT('',(-2.9205E+03,4.942996864343,1.8385E+03));
#885 = CARTESIAN_POINT('',(-2.9205E+03,-5.700313565727E-02,1.8385E+03));
#886 = PCURVE('',#94,#887);
#887 = DEFINITIONAL_REPRESENTATION('',(#888),#894);
#888 = ( BOUNDED_CURVE() B_SPLINE_CURVE(2,(#889,#890,#891,#892,#893),
.UNSPECIFIED.,.F.,.F.) B_SPLINE_CURVE_WITH_KNOTS((3,2,3),(0.5,0.75,1.),
.PIECEWISE_BEZIER_KNOTS.) CURVE() GEOMETRIC_REPRESENTATION_ITEM() 
RATIONAL_B_SPLINE_CURVE((1.,0.707106781187,1.,0.707106781187,1.)) 
REPRESENTATION_ITEM('') );
#889 = CARTESIAN_POINT('',(-78.55,30.607003135657));
#890 = CARTESIAN_POINT('',(-78.55,25.607003135657));
#891 = CARTESIAN_POINT('',(-83.55,25.607003135657));
#892 = CARTESIAN_POINT('',(-88.55,25.607003135657));
#893 = CARTESIAN_POINT('',(-88.55,30.607003135657));
#894 = ( GEOMETRIC_REPRESENTATION_CONTEXT(2) 
PARAMETRIC_REPRESENTATION_CONTEXT() REPRESENTATION_CONTEXT('2D SPACE',''
  ) );
#895 = PCURVE('',#599,#896);
#896 = DEFINITIONAL_REPRESENTATION('',(#897),#900);
#897 = B_SPLINE_CURVE_WITH_KNOTS('',1,(#898,#899),.UNSPECIFIED.,.F.,.F.,
  (2,2),(0.5,1.),.PIECEWISE_BEZIER_KNOTS.);
#898 = CARTESIAN_POINT('',(-4.426602313031E-14,20.));
#899 = CARTESIAN_POINT('',(-4.426298737259E-14,40.));
#900 = ( GEOMETRIC_REPRESENTATION_CONTEXT(2) 
PARAMETRIC_REPRESENTATION_CONTEXT() REPRESENTATION_CONTEXT('2D SPACE',''
  ) );
#901 = ORIENTED_EDGE('',*,*,#902,.T.);
#902 = EDGE_CURVE('',#877,#875,#903,.T.);
#903 = SURFACE_CURVE('',#904,(#910,#919),.PCURVE_S1.);
#904 = ( BOUNDED_CURVE() B_SPLINE_CURVE(2,(#905,#906,#907,#908,#909),
.UNSPECIFIED.,.F.,.F.) B_SPLINE_CURVE_WITH_KNOTS((3,2,3),(0.,0.25,0.5),
.PIECEWISE_BEZIER_KNOTS.) CURVE() GEOMETRIC_REPRESENTATION_ITEM() 
RATIONAL_B_SPLINE_CURVE((1.,0.707106781187,1.,0.707106781187,1.)) 
REPRESENTATION_ITEM('') );
#905 = CARTESIAN_POINT('',(-2.9205E+03,-5.700313565727E-02,1.8385E+03));
#906 = CARTESIAN_POINT('',(-2.9205E+03,-5.057003135657,1.8385E+03));
#907 = CARTESIAN_POINT('',(-2.9205E+03,-5.057003135657,1.8435E+03));
#908 = CARTESIAN_POINT('',(-2.9205E+03,-5.057003135657,1.8485E+03));
#909 = CARTESIAN_POINT('',(-2.9205E+03,-5.700313565727E-02,1.8485E+03));
#910 = PCURVE('',#94,#911);
#911 = DEFINITIONAL_REPRESENTATION('',(#912),#918);
#912 = ( BOUNDED_CURVE() B_SPLINE_CURVE(2,(#913,#914,#915,#916,#917),
.UNSPECIFIED.,.F.,.F.) B_SPLINE_CURVE_WITH_KNOTS((3,2,3),(0.,0.25,0.5),
.PIECEWISE_BEZIER_KNOTS.) CURVE() GEOMETRIC_REPRESENTATION_ITEM() 
RATIONAL_B_SPLINE_CURVE((1.,0.707106781187,1.,0.707106781187,1.)) 
REPRESENTATION_ITEM('') );
#913 = CARTESIAN_POINT('',(-88.55,30.607003135657));
#914 = CARTESIAN_POINT('',(-88.55,35.607003135657));
#915 = CARTESIAN_POINT('',(-83.55,35.607003135657));
#916 = CARTESIAN_POINT('',(-78.55,35.607003135657));
#917 = CARTESIAN_POINT('',(-78.55,30.607003135657));
#918 = ( GEOMETRIC_REPRESENTATION_CONTEXT(2) 
PARAMETRIC_REPRESENTATION_CONTEXT() REPRESENTATION_CONTEXT('2D SPACE',''
  ) );
#919 = PCURVE('',#634,#920);
#920 = DEFINITIONAL_REPRESENTATION('',(#921),#924);
#921 = B_SPLINE_CURVE_WITH_KNOTS('',1,(#922,#923),.UNSPECIFIED.,.F.,.F.,
  (2,2),(0.,0.5),.PIECEWISE_BEZIER_KNOTS.);
#922 = CARTESIAN_POINT('',(-4.426689049205E-14,1.019450236889E-15));
#923 = CARTESIAN_POINT('',(-4.990103382591E-13,20.));
#924 = ( GEOMETRIC_REPRESENTATION_CONTEXT(2) 
PARAMETRIC_REPRESENTATION_CONTEXT() REPRESENTATION_CONTEXT('2D SPACE',''
  ) );
#925 = FACE_BOUND('',#926,.T.);
#926 = EDGE_LOOP('',(#927,#955));
#927 = ORIENTED_EDGE('',*,*,#928,.T.);
#928 = EDGE_CURVE('',#929,#931,#933,.T.);
#929 = VERTEX_POINT('',#930);
#930 = CARTESIAN_POINT('',(-2.9205E+03,-9.407075868421E-15,1.8992E+03));
#931 = VERTEX_POINT('',#932);
#932 = CARTESIAN_POINT('',(-2.9205E+03,-1.150982042765E-14,1.8558E+03));
#933 = SURFACE_CURVE('',#934,(#940,#949),.PCURVE_S1.);
#934 = ( BOUNDED_CURVE() B_SPLINE_CURVE(2,(#935,#936,#937,#938,#939),
.UNSPECIFIED.,.F.,.F.) B_SPLINE_CURVE_WITH_KNOTS((3,2,3),(-0.5,-0.25,0.)
,.PIECEWISE_BEZIER_KNOTS.) CURVE() GEOMETRIC_REPRESENTATION_ITEM() 
RATIONAL_B_SPLINE_CURVE((1.,0.707106781187,1.,0.707106781187,1.)) 
REPRESENTATION_ITEM('') );
#935 = CARTESIAN_POINT('',(-2.9205E+03,-9.407075868421E-15,1.8992E+03));
#936 = CARTESIAN_POINT('',(-2.9205E+03,21.7,1.8992E+03));
#937 = CARTESIAN_POINT('',(-2.9205E+03,21.7,1.8775E+03));
#938 = CARTESIAN_POINT('',(-2.9205E+03,21.7,1.8558E+03));
#939 = CARTESIAN_POINT('',(-2.9205E+03,-1.150982042765E-14,1.8558E+03));
#940 = PCURVE('',#94,#941);
#941 = DEFINITIONAL_REPRESENTATION('',(#942),#948);
#942 = ( BOUNDED_CURVE() B_SPLINE_CURVE(2,(#943,#944,#945,#946,#947),
.UNSPECIFIED.,.F.,.F.) B_SPLINE_CURVE_WITH_KNOTS((3,2,3),(-0.5,-0.25,0.)
,.PIECEWISE_BEZIER_KNOTS.) CURVE() GEOMETRIC_REPRESENTATION_ITEM() 
RATIONAL_B_SPLINE_CURVE((1.,0.707106781187,1.,0.707106781187,1.)) 
REPRESENTATION_ITEM('') );
#943 = CARTESIAN_POINT('',(-27.85,30.55));
#944 = CARTESIAN_POINT('',(-27.85,8.85));
#945 = CARTESIAN_POINT('',(-49.55,8.85));
#946 = CARTESIAN_POINT('',(-71.25,8.85));
#947 = CARTESIAN_POINT('',(-71.25,30.55));
#948 = ( GEOMETRIC_REPRESENTATION_CONTEXT(2) 
PARAMETRIC_REPRESENTATION_CONTEXT() REPRESENTATION_CONTEXT('2D SPACE',''
  ) );
#949 = PCURVE('',#675,#950);
#950 = DEFINITIONAL_REPRESENTATION('',(#951),#954);
#951 = B_SPLINE_CURVE_WITH_KNOTS('',1,(#952,#953),.UNSPECIFIED.,.F.,.F.,
  (2,2),(-0.5,0.),.PIECEWISE_BEZIER_KNOTS.);
#952 = CARTESIAN_POINT('',(2.999999999999,86.8));
#953 = CARTESIAN_POINT('',(2.999999999999,9.578362345088E-15));
#954 = ( GEOMETRIC_REPRESENTATION_CONTEXT(2) 
PARAMETRIC_REPRESENTATION_CONTEXT() REPRESENTATION_CONTEXT('2D SPACE',''
  ) );
#955 = ORIENTED_EDGE('',*,*,#956,.T.);
#956 = EDGE_CURVE('',#931,#929,#957,.T.);
#957 = SURFACE_CURVE('',#958,(#964,#973),.PCURVE_S1.);
#958 = ( BOUNDED_CURVE() B_SPLINE_CURVE(2,(#959,#960,#961,#962,#963),
.UNSPECIFIED.,.F.,.F.) B_SPLINE_CURVE_WITH_KNOTS((3,2,3),(-1.,-0.75,-0.5
),.PIECEWISE_BEZIER_KNOTS.) CURVE() GEOMETRIC_REPRESENTATION_ITEM() 
RATIONAL_B_SPLINE_CURVE((1.,0.707106781187,1.,0.707106781187,1.)) 
REPRESENTATION_ITEM('') );
#959 = CARTESIAN_POINT('',(-2.9205E+03,-1.150982042765E-14,1.8558E+03));
#960 = CARTESIAN_POINT('',(-2.9205E+03,-21.7,1.8558E+03));
#961 = CARTESIAN_POINT('',(-2.9205E+03,-21.7,1.8775E+03));
#962 = CARTESIAN_POINT('',(-2.9205E+03,-21.7,1.8992E+03));
#963 = CARTESIAN_POINT('',(-2.9205E+03,-9.407075868421E-15,1.8992E+03));
#964 = PCURVE('',#94,#965);
#965 = DEFINITIONAL_REPRESENTATION('',(#966),#972);
#966 = ( BOUNDED_CURVE() B_SPLINE_CURVE(2,(#967,#968,#969,#970,#971),
.UNSPECIFIED.,.F.,.F.) B_SPLINE_CURVE_WITH_KNOTS((3,2,3),(-1.,-0.75,-0.5
),.PIECEWISE_BEZIER_KNOTS.) CURVE() GEOMETRIC_REPRESENTATION_ITEM() 
RATIONAL_B_SPLINE_CURVE((1.,0.707106781187,1.,0.707106781187,1.)) 
REPRESENTATION_ITEM('') );
#967 = CARTESIAN_POINT('',(-71.25,30.55));
#968 = CARTESIAN_POINT('',(-71.25,52.25));
#969 = CARTESIAN_POINT('',(-49.55,52.25));
#970 = CARTESIAN_POINT('',(-27.85,52.25));
#971 = CARTESIAN_POINT('',(-27.85,30.55));
#972 = ( GEOMETRIC_REPRESENTATION_CONTEXT(2) 
PARAMETRIC_REPRESENTATION_CONTEXT() REPRESENTATION_CONTEXT('2D SPACE',''
  ) );
#973 = PCURVE('',#710,#974);
#974 = DEFINITIONAL_REPRESENTATION('',(#975),#978);
#975 = B_SPLINE_CURVE_WITH_KNOTS('',1,(#976,#977),.UNSPECIFIED.,.F.,.F.,
  (2,2),(-1.,-0.5),.PIECEWISE_BEZIER_KNOTS.);
#976 = CARTESIAN_POINT('',(2.999999999999,173.6));
#977 = CARTESIAN_POINT('',(2.999999999999,86.8));
#978 = ( GEOMETRIC_REPRESENTATION_CONTEXT(2) 
PARAMETRIC_REPRESENTATION_CONTEXT() REPRESENTATION_CONTEXT('2D SPACE',''
  ) );
#979 = ADVANCED_FACE('',(#980),#523,.T.);
#980 = FACE_BOUND('',#981,.T.);
#981 = EDGE_LOOP('',(#982,#1002,#1003,#1023));
#982 = ORIENTED_EDGE('',*,*,#983,.T.);
#983 = EDGE_CURVE('',#821,#502,#984,.T.);
#984 = SURFACE_CURVE('',#985,(#988,#995),.PCURVE_S1.);
#985 = B_SPLINE_CURVE_WITH_KNOTS('',1,(#986,#987),.UNSPECIFIED.,.F.,.F.,
  (2,2),(-7.549516567451E-14,3.),.PIECEWISE_BEZIER_KNOTS.);
#986 = CARTESIAN_POINT('',(-2.9205E+03,-5.92287825623E-02,1.9155E+03));
#987 = CARTESIAN_POINT('',(-2.9235E+03,-5.92287825623E-02,1.9155E+03));
#988 = PCURVE('',#523,#989);
#989 = DEFINITIONAL_REPRESENTATION('',(#990),#994);
#990 = LINE('',#991,#992);
#991 = CARTESIAN_POINT('',(3.034465039516E-14,20.));
#992 = VECTOR('',#993,1.);
#993 = DIRECTION('',(1.,0.));
#994 = ( GEOMETRIC_REPRESENTATION_CONTEXT(2) 
PARAMETRIC_REPRESENTATION_CONTEXT() REPRESENTATION_CONTEXT('2D SPACE',''
  ) );
#995 = PCURVE('',#558,#996);
#996 = DEFINITIONAL_REPRESENTATION('',(#997),#1001);
#997 = LINE('',#998,#999);
#998 = CARTESIAN_POINT('',(-4.244027004829E-13,20.));
#999 = VECTOR('',#1000,1.);
#1000 = DIRECTION('',(1.,0.));
#1001 = ( GEOMETRIC_REPRESENTATION_CONTEXT(2) 
PARAMETRIC_REPRESENTATION_CONTEXT() REPRESENTATION_CONTEXT('2D SPACE',''
  ) );
#1002 = ORIENTED_EDGE('',*,*,#501,.T.);
#1003 = ORIENTED_EDGE('',*,*,#1004,.F.);
#1004 = EDGE_CURVE('',#823,#504,#1005,.T.);
#1005 = SURFACE_CURVE('',#1006,(#1009,#1016),.PCURVE_S1.);
#1006 = B_SPLINE_CURVE_WITH_KNOTS('',1,(#1007,#1008),.UNSPECIFIED.,.F.,
  .F.,(2,2),(-5.74651437546E-14,3.),.PIECEWISE_BEZIER_KNOTS.);
#1007 = CARTESIAN_POINT('',(-2.9205E+03,-5.92287825623E-02,1.9055E+03));
#1008 = CARTESIAN_POINT('',(-2.9235E+03,-5.92287825623E-02,1.9055E+03));
#1009 = PCURVE('',#523,#1010);
#1010 = DEFINITIONAL_REPRESENTATION('',(#1011),#1015);
#1011 = LINE('',#1012,#1013);
#1012 = CARTESIAN_POINT('',(4.67058943604E-13,40.));
#1013 = VECTOR('',#1014,1.);
#1014 = DIRECTION('',(1.,0.));
#1015 = ( GEOMETRIC_REPRESENTATION_CONTEXT(2) 
PARAMETRIC_REPRESENTATION_CONTEXT() REPRESENTATION_CONTEXT('2D SPACE',''
  ) );
#1016 = PCURVE('',#558,#1017);
#1017 = DEFINITIONAL_REPRESENTATION('',(#1018),#1022);
#1018 = LINE('',#1019,#1020);
#1019 = CARTESIAN_POINT('',(1.231419481111E-14,2.873834456905E-16));
#1020 = VECTOR('',#1021,1.);
#1021 = DIRECTION('',(1.,8.808066920291E-17));
#1022 = ( GEOMETRIC_REPRESENTATION_CONTEXT(2) 
PARAMETRIC_REPRESENTATION_CONTEXT() REPRESENTATION_CONTEXT('2D SPACE',''
  ) );
#1023 = ORIENTED_EDGE('',*,*,#820,.F.);
#1024 = ADVANCED_FACE('',(#1025),#599,.T.);
#1025 = FACE_BOUND('',#1026,.T.);
#1026 = EDGE_LOOP('',(#1027,#1047,#1048,#1068));
#1027 = ORIENTED_EDGE('',*,*,#1028,.T.);
#1028 = EDGE_CURVE('',#875,#578,#1029,.T.);
#1029 = SURFACE_CURVE('',#1030,(#1033,#1040),.PCURVE_S1.);
#1030 = B_SPLINE_CURVE_WITH_KNOTS('',1,(#1031,#1032),.UNSPECIFIED.,.F.,
  .F.,(2,2),(-7.460698725481E-14,3.),.PIECEWISE_BEZIER_KNOTS.);
#1031 = CARTESIAN_POINT('',(-2.9205E+03,-5.700313565727E-02,1.8485E+03)
  );
#1032 = CARTESIAN_POINT('',(-2.9235E+03,-5.700313565727E-02,1.8485E+03)
  );
#1033 = PCURVE('',#599,#1034);
#1034 = DEFINITIONAL_REPRESENTATION('',(#1035),#1039);
#1035 = LINE('',#1036,#1037);
#1036 = CARTESIAN_POINT('',(3.03409641245E-14,20.));
#1037 = VECTOR('',#1038,1.);
#1038 = DIRECTION('',(1.,0.));
#1039 = ( GEOMETRIC_REPRESENTATION_CONTEXT(2) 
PARAMETRIC_REPRESENTATION_CONTEXT() REPRESENTATION_CONTEXT('2D SPACE',''
  ) );
#1040 = PCURVE('',#634,#1041);
#1041 = DEFINITIONAL_REPRESENTATION('',(#1042),#1046);
#1042 = LINE('',#1043,#1044);
#1043 = CARTESIAN_POINT('',(-4.244033510042E-13,20.));
#1044 = VECTOR('',#1045,1.);
#1045 = DIRECTION('',(1.,0.));
#1046 = ( GEOMETRIC_REPRESENTATION_CONTEXT(2) 
PARAMETRIC_REPRESENTATION_CONTEXT() REPRESENTATION_CONTEXT('2D SPACE',''
  ) );
#1047 = ORIENTED_EDGE('',*,*,#577,.T.);
#1048 = ORIENTED_EDGE('',*,*,#1049,.F.);
#1049 = EDGE_CURVE('',#877,#580,#1050,.T.);
#1050 = SURFACE_CURVE('',#1051,(#1054,#1061),.PCURVE_S1.);
#1051 = B_SPLINE_CURVE_WITH_KNOTS('',1,(#1052,#1053),.UNSPECIFIED.,.F.,
  .F.,(2,2),(-7.194245199571E-14,3.),.PIECEWISE_BEZIER_KNOTS.);
#1052 = CARTESIAN_POINT('',(-2.9205E+03,-5.700313565727E-02,1.8385E+03)
  );
#1053 = CARTESIAN_POINT('',(-2.9235E+03,-5.700313565727E-02,1.8385E+03)
  );
#1054 = PCURVE('',#599,#1055);
#1055 = DEFINITIONAL_REPRESENTATION('',(#1056),#1060);
#1056 = LINE('',#1057,#1058);
#1057 = CARTESIAN_POINT('',(2.767946462312E-14,40.));
#1058 = VECTOR('',#1059,1.);
#1059 = DIRECTION('',(1.,0.));
#1060 = ( GEOMETRIC_REPRESENTATION_CONTEXT(2) 
PARAMETRIC_REPRESENTATION_CONTEXT() REPRESENTATION_CONTEXT('2D SPACE',''
  ) );
#1061 = PCURVE('',#634,#1062);
#1062 = DEFINITIONAL_REPRESENTATION('',(#1063),#1067);
#1063 = LINE('',#1064,#1065);
#1064 = CARTESIAN_POINT('',(2.767556150366E-14,1.019450236889E-15));
#1065 = VECTOR('',#1066,1.);
#1066 = DIRECTION('',(1.,-1.058647183986E-17));
#1067 = ( GEOMETRIC_REPRESENTATION_CONTEXT(2) 
PARAMETRIC_REPRESENTATION_CONTEXT() REPRESENTATION_CONTEXT('2D SPACE',''
  ) );
#1068 = ORIENTED_EDGE('',*,*,#874,.F.);
#1069 = ADVANCED_FACE('',(#1070),#174,.T.);
#1070 = FACE_BOUND('',#1071,.T.);
#1071 = EDGE_LOOP('',(#1072,#1073,#1074,#1075));
#1072 = ORIENTED_EDGE('',*,*,#477,.T.);
#1073 = ORIENTED_EDGE('',*,*,#302,.F.);
#1074 = ORIENTED_EDGE('',*,*,#731,.F.);
#1075 = ORIENTED_EDGE('',*,*,#160,.F.);
#1076 = ADVANCED_FACE('',(#1077),#67,.T.);
#1077 = FACE_BOUND('',#1078,.T.);
#1078 = EDGE_LOOP('',(#1079,#1080,#1081,#1082));
#1079 = ORIENTED_EDGE('',*,*,#411,.T.);
#1080 = ORIENTED_EDGE('',*,*,#207,.F.);
#1081 = ORIENTED_EDGE('',*,*,#797,.F.);
#1082 = ORIENTED_EDGE('',*,*,#53,.F.);
#1083 = ADVANCED_FACE('',(#1084),#117,.T.);
#1084 = FACE_BOUND('',#1085,.T.);
#1085 = EDGE_LOOP('',(#1086,#1087,#1088,#1089));
#1086 = ORIENTED_EDGE('',*,*,#433,.T.);
#1087 = ORIENTED_EDGE('',*,*,#105,.F.);
#1088 = ORIENTED_EDGE('',*,*,#775,.F.);
#1089 = ORIENTED_EDGE('',*,*,#350,.F.);
#1090 = ADVANCED_FACE('',(#1091),#269,.T.);
#1091 = FACE_BOUND('',#1092,.T.);
#1092 = EDGE_LOOP('',(#1093,#1094,#1095,#1096));
#1093 = ORIENTED_EDGE('',*,*,#455,.T.);
#1094 = ORIENTED_EDGE('',*,*,#390,.F.);
#1095 = ORIENTED_EDGE('',*,*,#753,.F.);
#1096 = ORIENTED_EDGE('',*,*,#255,.F.);
#1097 = ADVANCED_FACE('',(#1098),#710,.T.);
#1098 = FACE_BOUND('',#1099,.T.);
#1099 = EDGE_LOOP('',(#1100,#1120,#1121,#1141));
#1100 = ORIENTED_EDGE('',*,*,#1101,.T.);
#1101 = EDGE_CURVE('',#654,#929,#1102,.T.);
#1102 = SURFACE_CURVE('',#1103,(#1106,#1113),.PCURVE_S1.);
#1103 = B_SPLINE_CURVE_WITH_KNOTS('',1,(#1104,#1105),.UNSPECIFIED.,.F.,
  .F.,(2,2),(-7.958078640513E-13,2.999999999998),
  .PIECEWISE_BEZIER_KNOTS.);
#1104 = CARTESIAN_POINT('',(-2.9235E+03,4.846761401678E-27,1.8992E+03));
#1105 = CARTESIAN_POINT('',(-2.9205E+03,-1.881415173683E-14,1.8992E+03)
  );
#1106 = PCURVE('',#710,#1107);
#1107 = DEFINITIONAL_REPRESENTATION('',(#1108),#1112);
#1108 = LINE('',#1109,#1110);
#1109 = CARTESIAN_POINT('',(-1.650901621058E-13,86.8));
#1110 = VECTOR('',#1111,1.);
#1111 = DIRECTION('',(1.,0.));
#1112 = ( GEOMETRIC_REPRESENTATION_CONTEXT(2) 
PARAMETRIC_REPRESENTATION_CONTEXT() REPRESENTATION_CONTEXT('2D SPACE',''
  ) );
#1113 = PCURVE('',#675,#1114);
#1114 = DEFINITIONAL_REPRESENTATION('',(#1115),#1119);
#1115 = LINE('',#1116,#1117);
#1116 = CARTESIAN_POINT('',(-1.652011860642E-13,86.8));
#1117 = VECTOR('',#1118,1.);
#1118 = DIRECTION('',(1.,0.));
#1119 = ( GEOMETRIC_REPRESENTATION_CONTEXT(2) 
PARAMETRIC_REPRESENTATION_CONTEXT() REPRESENTATION_CONTEXT('2D SPACE',''
  ) );
#1120 = ORIENTED_EDGE('',*,*,#956,.F.);
#1121 = ORIENTED_EDGE('',*,*,#1122,.F.);
#1122 = EDGE_CURVE('',#656,#931,#1123,.T.);
#1123 = SURFACE_CURVE('',#1124,(#1127,#1134),.PCURVE_S1.);
#1124 = B_SPLINE_CURVE_WITH_KNOTS('',1,(#1125,#1126),.UNSPECIFIED.,.F.,
  .F.,(2,2),(-2.656857273678E-14,2.999999999999),
  .PIECEWISE_BEZIER_KNOTS.);
#1125 = CARTESIAN_POINT('',(-2.9235E+03,-2.423380700839E-27,1.8558E+03)
  );
#1126 = CARTESIAN_POINT('',(-2.9205E+03,-1.150982042765E-14,1.8558E+03)
  );
#1127 = PCURVE('',#710,#1128);
#1128 = DEFINITIONAL_REPRESENTATION('',(#1129),#1133);
#1129 = LINE('',#1130,#1131);
#1130 = CARTESIAN_POINT('',(-9.344404765508E-13,173.6));
#1131 = VECTOR('',#1132,1.);
#1132 = DIRECTION('',(1.,0.));
#1133 = ( GEOMETRIC_REPRESENTATION_CONTEXT(2) 
PARAMETRIC_REPRESENTATION_CONTEXT() REPRESENTATION_CONTEXT('2D SPACE',''
  ) );
#1134 = PCURVE('',#675,#1135);
#1135 = DEFINITIONAL_REPRESENTATION('',(#1136),#1140);
#1136 = LINE('',#1137,#1138);
#1137 = CARTESIAN_POINT('',(-1.117294219847E-12,-3.058996624946E-16));
#1138 = VECTOR('',#1139,1.);
#1139 = DIRECTION('',(1.,4.151056248177E-15));
#1140 = ( GEOMETRIC_REPRESENTATION_CONTEXT(2) 
PARAMETRIC_REPRESENTATION_CONTEXT() REPRESENTATION_CONTEXT('2D SPACE',''
  ) );
#1141 = ORIENTED_EDGE('',*,*,#692,.T.);
#1142 = ADVANCED_FACE('',(#1143),#558,.T.);
#1143 = FACE_BOUND('',#1144,.T.);
#1144 = EDGE_LOOP('',(#1145,#1146,#1147,#1148));
#1145 = ORIENTED_EDGE('',*,*,#848,.F.);
#1146 = ORIENTED_EDGE('',*,*,#1004,.T.);
#1147 = ORIENTED_EDGE('',*,*,#540,.T.);
#1148 = ORIENTED_EDGE('',*,*,#983,.F.);
#1149 = ADVANCED_FACE('',(#1150),#634,.T.);
#1150 = FACE_BOUND('',#1151,.T.);
#1151 = EDGE_LOOP('',(#1152,#1153,#1154,#1155));
#1152 = ORIENTED_EDGE('',*,*,#902,.F.);
#1153 = ORIENTED_EDGE('',*,*,#1049,.T.);
#1154 = ORIENTED_EDGE('',*,*,#616,.T.);
#1155 = ORIENTED_EDGE('',*,*,#1028,.F.);
#1156 = ADVANCED_FACE('',(#1157),#675,.T.);
#1157 = FACE_BOUND('',#1158,.T.);
#1158 = EDGE_LOOP('',(#1159,#1160,#1161,#1162));
#1159 = ORIENTED_EDGE('',*,*,#653,.T.);
#1160 = ORIENTED_EDGE('',*,*,#1122,.T.);
#1161 = ORIENTED_EDGE('',*,*,#928,.F.);
#1162 = ORIENTED_EDGE('',*,*,#1101,.F.);
#1163 = ( GEOMETRIC_REPRESENTATION_CONTEXT(3) 
GLOBAL_UNCERTAINTY_ASSIGNED_CONTEXT((#1167)) 
GLOBAL_UNIT_ASSIGNED_CONTEXT((#1164,#1165,#1166)) REPRESENTATION_CONTEXT
('Context #1','3D Context with UNIT and UNCERTAINTY') );
#1164 = ( LENGTH_UNIT() NAMED_UNIT(*) SI_UNIT(.MILLI.,.METRE.) );
#1165 = ( NAMED_UNIT(*) PLANE_ANGLE_UNIT() SI_UNIT($,.RADIAN.) );
#1166 = ( NAMED_UNIT(*) SI_UNIT($,.STERADIAN.) SOLID_ANGLE_UNIT() );
#1167 = UNCERTAINTY_MEASURE_WITH_UNIT(LENGTH_MEASURE(1.E-07),#1164,
  'distance_accuracy_value','confusion accuracy');
#1168 = PRODUCT_RELATED_PRODUCT_CATEGORY('part',$,(#7));
#1169 = MECHANICAL_DESIGN_GEOMETRIC_PRESENTATION_REPRESENTATION('',(
    #1170,#1178,#1185,#1193,#1200,#1207,#1214,#1221,#1228,#1235,#1242),
  #1163);
#1170 = STYLED_ITEM('color',(#1171),#407);
#1171 = PRESENTATION_STYLE_ASSIGNMENT((#1172));
#1172 = SURFACE_STYLE_USAGE(.BOTH.,#1173);
#1173 = SURFACE_SIDE_STYLE('',(#1174));
#1174 = SURFACE_STYLE_FILL_AREA(#1175);
#1175 = FILL_AREA_STYLE('',(#1176));
#1176 = FILL_AREA_STYLE_COLOUR('',#1177);
#1177 = COLOUR_RGB('',0.368627458811,0.368627458811,0.368627458811);
#1178 = STYLED_ITEM('color',(#1179),#726);
#1179 = PRESENTATION_STYLE_ASSIGNMENT((#1180));
#1180 = SURFACE_STYLE_USAGE(.BOTH.,#1181);
#1181 = SURFACE_SIDE_STYLE('',(#1182));
#1182 = SURFACE_STYLE_FILL_AREA(#1183);
#1183 = FILL_AREA_STYLE('',(#1184));
#1184 = FILL_AREA_STYLE_COLOUR('',#1177);
#1185 = STYLED_ITEM('color',(#1186),#17);
#1186 = PRESENTATION_STYLE_ASSIGNMENT((#1187));
#1187 = SURFACE_STYLE_USAGE(.BOTH.,#1188);
#1188 = SURFACE_SIDE_STYLE('',(#1189));
#1189 = SURFACE_STYLE_FILL_AREA(#1190);
#1190 = FILL_AREA_STYLE('',(#1191));
#1191 = FILL_AREA_STYLE_COLOUR('',#1192);
#1192 = COLOUR_RGB('',0.274509817362,0.274509817362,0.274509817362);
#1193 = STYLED_ITEM('color',(#1194),#129);
#1194 = PRESENTATION_STYLE_ASSIGNMENT((#1195));
#1195 = SURFACE_STYLE_USAGE(.BOTH.,#1196);
#1196 = SURFACE_SIDE_STYLE('',(#1197));
#1197 = SURFACE_STYLE_FILL_AREA(#1198);
#1198 = FILL_AREA_STYLE('',(#1199));
#1199 = FILL_AREA_STYLE_COLOUR('',#1192);
#1200 = STYLED_ITEM('color',(#1201),#224);
#1201 = PRESENTATION_STYLE_ASSIGNMENT((#1202));
#1202 = SURFACE_STYLE_USAGE(.BOTH.,#1203);
#1203 = SURFACE_SIDE_STYLE('',(#1204));
#1204 = SURFACE_STYLE_FILL_AREA(#1205);
#1205 = FILL_AREA_STYLE('',(#1206));
#1206 = FILL_AREA_STYLE_COLOUR('',#1192);
#1207 = STYLED_ITEM('color',(#1208),#319);
#1208 = PRESENTATION_STYLE_ASSIGNMENT((#1209));
#1209 = SURFACE_STYLE_USAGE(.BOTH.,#1210);
#1210 = SURFACE_SIDE_STYLE('',(#1211));
#1211 = SURFACE_STYLE_FILL_AREA(#1212);
#1212 = FILL_AREA_STYLE('',(#1213));
#1213 = FILL_AREA_STYLE_COLOUR('',#1192);
#1214 = STYLED_ITEM('color',(#1215),#979);
#1215 = PRESENTATION_STYLE_ASSIGNMENT((#1216));
#1216 = SURFACE_STYLE_USAGE(.BOTH.,#1217);
#1217 = SURFACE_SIDE_STYLE('',(#1218));
#1218 = SURFACE_STYLE_FILL_AREA(#1219);
#1219 = FILL_AREA_STYLE('',(#1220));
#1220 = FILL_AREA_STYLE_COLOUR('',#1192);
#1221 = STYLED_ITEM('color',(#1222),#1024);
#1222 = PRESENTATION_STYLE_ASSIGNMENT((#1223));
#1223 = SURFACE_STYLE_USAGE(.BOTH.,#1224);
#1224 = SURFACE_SIDE_STYLE('',(#1225));
#1225 = SURFACE_STYLE_FILL_AREA(#1226);
#1226 = FILL_AREA_STYLE('',(#1227));
#1227 = FILL_AREA_STYLE_COLOUR('',#1192);
#1228 = STYLED_ITEM('color',(#1229),#1069);
#1229 = PRESENTATION_STYLE_ASSIGNMENT((#1230));
#1230 = SURFACE_STYLE_USAGE(.BOTH.,#1231);
#1231 = SURFACE_SIDE_STYLE('',(#1232));
#1232 = SURFACE_STYLE_FILL_AREA(#1233);
#1233 = FILL_AREA_STYLE('',(#1234));
#1234 = FILL_AREA_STYLE_COLOUR('',#1192);
#1235 = STYLED_ITEM('color',(#1236),#1076);
#1236 = PRESENTATION_STYLE_ASSIGNMENT((#1237));
#1237 = SURFACE_STYLE_USAGE(.BOTH.,#1238);
#1238 = SURFACE_SIDE_STYLE('',(#1239));
#1239 = SURFACE_STYLE_FILL_AREA(#1240);
#1240 = FILL_AREA_STYLE('',(#1241));
#1241 = FILL_AREA_STYLE_COLOUR('',#1192);
#1242 = STYLED_ITEM('color',(#1243),#1083);
#1243 = PRESENTATION_STYLE_ASSIGNMENT((#1244));
#1244 = SURFACE_STYLE_USAGE(.BOTH.,#1245);
#1245 = SURFACE_SIDE_STYLE('',(#1246));
#1246 = SURFACE_STYLE_FILL_AREA(#1247);
#1247 = FILL_AREA_STYLE('',(#1248));
#1248 = FILL_AREA_STYLE_COLOUR('',#1192);
#1249 = MECHANICAL_DESIGN_GEOMETRIC_PRESENTATION_REPRESENTATION('',(
    #1170,#1178,#1185,#1193,#1200,#1207,#1214,#1221,#1228,#1235,#1242,
    #1250),#1163);
#1250 = STYLED_ITEM('color',(#1251),#1090);
#1251 = PRESENTATION_STYLE_ASSIGNMENT((#1252));
#1252 = SURFACE_STYLE_USAGE(.BOTH.,#1253);
#1253 = SURFACE_SIDE_STYLE('',(#1254));
#1254 = SURFACE_STYLE_FILL_AREA(#1255);
#1255 = FILL_AREA_STYLE('',(#1256));
#1256 = FILL_AREA_STYLE_COLOUR('',#1192);
#1257 = MECHANICAL_DESIGN_GEOMETRIC_PRESENTATION_REPRESENTATION('',(
    #1170,#1178,#1185,#1193,#1200,#1207,#1214),#1163);
#1258 = MECHANICAL_DESIGN_GEOMETRIC_PRESENTATION_REPRESENTATION('',(
    #1170,#1178,#1185),#1163);
#1259 = MECHANICAL_DESIGN_GEOMETRIC_PRESENTATION_REPRESENTATION('',(
    #1170,#1178,#1185,#1193,#1200),#1163);
#1260 = MECHANICAL_DESIGN_GEOMETRIC_PRESENTATION_REPRESENTATION('',(
    #1170,#1178,#1185,#1193,#1200,#1207,#1214,#1221,#1228,#1235,#1242,
    #1250,#1261,#1268),#1163);
#1261 = STYLED_ITEM('color',(#1262),#1097);
#1262 = PRESENTATION_STYLE_ASSIGNMENT((#1263));
#1263 = SURFACE_STYLE_USAGE(.BOTH.,#1264);
#1264 = SURFACE_SIDE_STYLE('',(#1265));
#1265 = SURFACE_STYLE_FILL_AREA(#1266);
#1266 = FILL_AREA_STYLE('',(#1267));
#1267 = FILL_AREA_STYLE_COLOUR('',#1192);
#1268 = STYLED_ITEM('color',(#1269),#1142);
#1269 = PRESENTATION_STYLE_ASSIGNMENT((#1270));
#1270 = SURFACE_STYLE_USAGE(.BOTH.,#1271);
#1271 = SURFACE_SIDE_STYLE('',(#1272));
#1272 = SURFACE_STYLE_FILL_AREA(#1273);
#1273 = FILL_AREA_STYLE('',(#1274));
#1274 = FILL_AREA_STYLE_COLOUR('',#1192);
#1275 = MECHANICAL_DESIGN_GEOMETRIC_PRESENTATION_REPRESENTATION('',(
    #1170,#1178,#1185,#1193,#1200,#1207,#1214,#1221,#1228,#1235),#1163);
#1276 = MECHANICAL_DESIGN_GEOMETRIC_PRESENTATION_REPRESENTATION('',(
    #1170,#1178,#1185,#1193,#1200,#1207,#1214,#1221),#1163);
#1277 = MECHANICAL_DESIGN_GEOMETRIC_PRESENTATION_REPRESENTATION('',(
    #1170,#1178,#1185,#1193,#1200,#1207,#1214,#1221,#1228,#1235,#1242,
    #1250,#1261,#1268,#1278,#1285),#1163);
#1278 = STYLED_ITEM('color',(#1279),#1149);
#1279 = PRESENTATION_STYLE_ASSIGNMENT((#1280));
#1280 = SURFACE_STYLE_USAGE(.BOTH.,#1281);
#1281 = SURFACE_SIDE_STYLE('',(#1282));
#1282 = SURFACE_STYLE_FILL_AREA(#1283);
#1283 = FILL_AREA_STYLE('',(#1284));
#1284 = FILL_AREA_STYLE_COLOUR('',#1192);
#1285 = STYLED_ITEM('color',(#1286),#1156);
#1286 = PRESENTATION_STYLE_ASSIGNMENT((#1287));
#1287 = SURFACE_STYLE_USAGE(.BOTH.,#1288);
#1288 = SURFACE_SIDE_STYLE('',(#1289));
#1289 = SURFACE_STYLE_FILL_AREA(#1290);
#1290 = FILL_AREA_STYLE('',(#1291));
#1291 = FILL_AREA_STYLE_COLOUR('',#1192);
#1292 = MECHANICAL_DESIGN_GEOMETRIC_PRESENTATION_REPRESENTATION('',(
    #1170,#1178,#1185,#1193),#1163);
#1293 = MECHANICAL_DESIGN_GEOMETRIC_PRESENTATION_REPRESENTATION('',(
    #1170,#1178,#1185,#1193,#1200,#1207,#1214,#1221,#1228,#1235,#1242,
    #1250,#1261),#1163);
#1294 = MECHANICAL_DESIGN_GEOMETRIC_PRESENTATION_REPRESENTATION('',(
    #1170,#1178,#1185,#1193,#1200,#1207),#1163);
#1295 = MECHANICAL_DESIGN_GEOMETRIC_PRESENTATION_REPRESENTATION('',(
    #1170),#1163);
#1296 = MECHANICAL_DESIGN_GEOMETRIC_PRESENTATION_REPRESENTATION('',(
    #1170,#1178),#1163);
#1297 = MECHANICAL_DESIGN_GEOMETRIC_PRESENTATION_REPRESENTATION('',(
    #1170,#1178,#1185,#1193,#1200,#1207,#1214,#1221,#1228),#1163);
#1298 = MECHANICAL_DESIGN_GEOMETRIC_PRESENTATION_REPRESENTATION('',(
    #1170,#1178,#1185,#1193,#1200,#1207,#1214,#1221,#1228,#1235,#1242,
    #1250,#1261,#1268,#1278),#1163);
ENDSEC;
END-ISO-10303-21;
