ISO-10303-21;
HEADER;
/* Generated by software containing ST-Developer
 * from STEP Tools, Inc. (www.steptools.com) 
 */

FILE_DESCRIPTION(
/* description */ (''),
/* implementation_level */ '2;1');

FILE_NAME(
/* name */ 'C:\\Users\\AndrzejPapierok\\Desktop\\Rules\\cylinderTest3.
stp',
/* time_stamp */ '2022-09-05T11:18:27+02:00',
/* author */ ('AndrzejPapierok'),
/* organization */ (''),
/* preprocessor_version */ 'ST-DEVELOPER v19',
/* originating_system */ 'Autodesk Inventor 2023',
/* authorisation */ '');

FILE_SCHEMA (('AUTOMOTIVE_DESIGN { 1 0 10303 214 3 1 1 }'));
ENDSEC;

DATA;
#10=MECHANICAL_DESIGN_GEOMETRIC_PRESENTATION_REPRESENTATION('',(#13),#196);
#11=SHAPE_REPRESENTATION_RELATIONSHIP('SRR','None',#203,#12);
#12=ADVANCED_BREP_SHAPE_REPRESENTATION('',(#14),#195);
#13=STYLED_ITEM('',(#212),#14);
#14=MANIFOLD_SOLID_BREP('Solid1',#103);
#15=PLANE('',#132);
#16=PLANE('',#133);
#17=PLANE('',#134);
#18=PLANE('',#135);
#19=FACE_OUTER_BOUND('',#25,.T.);
#20=FACE_OUTER_BOUND('',#26,.T.);
#21=FACE_OUTER_BOUND('',#27,.T.);
#22=FACE_OUTER_BOUND('',#28,.T.);
#23=FACE_OUTER_BOUND('',#29,.T.);
#24=FACE_OUTER_BOUND('',#30,.T.);
#25=EDGE_LOOP('',(#71,#72,#73,#74));
#26=EDGE_LOOP('',(#75,#76,#77,#78));
#27=EDGE_LOOP('',(#79,#80,#81,#82));
#28=EDGE_LOOP('',(#83,#84,#85,#86));
#29=EDGE_LOOP('',(#87,#88,#89,#90));
#30=EDGE_LOOP('',(#91,#92,#93,#94));
#31=LINE('',#172,#39);
#32=LINE('',#175,#40);
#33=LINE('',#181,#41);
#34=LINE('',#184,#42);
#35=LINE('',#186,#43);
#36=LINE('',#187,#44);
#37=LINE('',#189,#45);
#38=LINE('',#190,#46);
#39=VECTOR('',#142,10.);
#40=VECTOR('',#145,10.);
#41=VECTOR('',#152,10.);
#42=VECTOR('',#155,10.);
#43=VECTOR('',#156,10.);
#44=VECTOR('',#157,10.);
#45=VECTOR('',#160,10.);
#46=VECTOR('',#161,10.);
#47=CIRCLE('',#127,9.18943555891894);
#48=CIRCLE('',#128,9.18943555891894);
#49=CIRCLE('',#130,3.4334652331496);
#50=CIRCLE('',#131,3.4334652331496);
#51=VERTEX_POINT('',#168);
#52=VERTEX_POINT('',#169);
#53=VERTEX_POINT('',#171);
#54=VERTEX_POINT('',#173);
#55=VERTEX_POINT('',#177);
#56=VERTEX_POINT('',#179);
#57=VERTEX_POINT('',#183);
#58=VERTEX_POINT('',#185);
#59=EDGE_CURVE('',#51,#52,#47,.T.);
#60=EDGE_CURVE('',#52,#53,#31,.T.);
#61=EDGE_CURVE('',#54,#53,#48,.T.);
#62=EDGE_CURVE('',#51,#54,#32,.T.);
#63=EDGE_CURVE('',#55,#51,#49,.T.);
#64=EDGE_CURVE('',#56,#54,#50,.T.);
#65=EDGE_CURVE('',#55,#56,#33,.T.);
#66=EDGE_CURVE('',#57,#55,#34,.T.);
#67=EDGE_CURVE('',#58,#56,#35,.T.);
#68=EDGE_CURVE('',#57,#58,#36,.T.);
#69=EDGE_CURVE('',#52,#57,#37,.T.);
#70=EDGE_CURVE('',#53,#58,#38,.T.);
#71=ORIENTED_EDGE('',*,*,#59,.T.);
#72=ORIENTED_EDGE('',*,*,#60,.T.);
#73=ORIENTED_EDGE('',*,*,#61,.F.);
#74=ORIENTED_EDGE('',*,*,#62,.F.);
#75=ORIENTED_EDGE('',*,*,#63,.T.);
#76=ORIENTED_EDGE('',*,*,#62,.T.);
#77=ORIENTED_EDGE('',*,*,#64,.F.);
#78=ORIENTED_EDGE('',*,*,#65,.F.);
#79=ORIENTED_EDGE('',*,*,#66,.T.);
#80=ORIENTED_EDGE('',*,*,#65,.T.);
#81=ORIENTED_EDGE('',*,*,#67,.F.);
#82=ORIENTED_EDGE('',*,*,#68,.F.);
#83=ORIENTED_EDGE('',*,*,#69,.T.);
#84=ORIENTED_EDGE('',*,*,#68,.T.);
#85=ORIENTED_EDGE('',*,*,#70,.F.);
#86=ORIENTED_EDGE('',*,*,#60,.F.);
#87=ORIENTED_EDGE('',*,*,#70,.T.);
#88=ORIENTED_EDGE('',*,*,#67,.T.);
#89=ORIENTED_EDGE('',*,*,#64,.T.);
#90=ORIENTED_EDGE('',*,*,#61,.T.);
#91=ORIENTED_EDGE('',*,*,#69,.F.);
#92=ORIENTED_EDGE('',*,*,#59,.F.);
#93=ORIENTED_EDGE('',*,*,#63,.F.);
#94=ORIENTED_EDGE('',*,*,#66,.F.);
#95=CYLINDRICAL_SURFACE('',#126,9.18943555891894);
#96=CYLINDRICAL_SURFACE('',#129,3.4334652331496);
#97=ADVANCED_FACE('',(#19),#95,.T.);
#98=ADVANCED_FACE('',(#20),#96,.F.);
#99=ADVANCED_FACE('',(#21),#15,.T.);
#100=ADVANCED_FACE('',(#22),#16,.T.);
#101=ADVANCED_FACE('',(#23),#17,.T.);
#102=ADVANCED_FACE('',(#24),#18,.F.);
#103=CLOSED_SHELL('',(#97,#98,#99,#100,#101,#102));
#104=DERIVED_UNIT_ELEMENT(#107,1.);
#105=DERIVED_UNIT_ELEMENT(#198,-3.);
#106=DIMENSIONAL_EXPONENTS(1.,0.,0.,0.,0.,0.,0.);
#107=(
CONVERSION_BASED_UNIT('gram',#109)
MASS_UNIT()
NAMED_UNIT(#106)
);
#108=(
MASS_UNIT()
NAMED_UNIT(*)
SI_UNIT(.KILO.,.GRAM.)
);
#109=MASS_MEASURE_WITH_UNIT(MASS_MEASURE(0.001),#108);
#110=DERIVED_UNIT((#104,#105));
#111=MEASURE_REPRESENTATION_ITEM('density measure',
POSITIVE_RATIO_MEASURE(1.),#110);
#112=PROPERTY_DEFINITION_REPRESENTATION(#117,#114);
#113=PROPERTY_DEFINITION_REPRESENTATION(#118,#115);
#114=REPRESENTATION('material name',(#116),#195);
#115=REPRESENTATION('density',(#111),#195);
#116=DESCRIPTIVE_REPRESENTATION_ITEM('Generic','Generic');
#117=PROPERTY_DEFINITION('material property','material name',#205);
#118=PROPERTY_DEFINITION('material property','density of part',#205);
#119=DATE_TIME_ROLE('creation_date');
#120=APPLIED_DATE_AND_TIME_ASSIGNMENT(#121,#119,(#205));
#121=DATE_AND_TIME(#122,#123);
#122=CALENDAR_DATE(2022,5,9);
#123=LOCAL_TIME(0,0,0.,#124);
#124=COORDINATED_UNIVERSAL_TIME_OFFSET(0,0,.BEHIND.);
#125=AXIS2_PLACEMENT_3D('placement',#166,#136,#137);
#126=AXIS2_PLACEMENT_3D('',#167,#138,#139);
#127=AXIS2_PLACEMENT_3D('',#170,#140,#141);
#128=AXIS2_PLACEMENT_3D('',#174,#143,#144);
#129=AXIS2_PLACEMENT_3D('',#176,#146,#147);
#130=AXIS2_PLACEMENT_3D('',#178,#148,#149);
#131=AXIS2_PLACEMENT_3D('',#180,#150,#151);
#132=AXIS2_PLACEMENT_3D('',#182,#153,#154);
#133=AXIS2_PLACEMENT_3D('',#188,#158,#159);
#134=AXIS2_PLACEMENT_3D('',#191,#162,#163);
#135=AXIS2_PLACEMENT_3D('',#192,#164,#165);
#136=DIRECTION('axis',(0.,0.,1.));
#137=DIRECTION('refdir',(1.,0.,0.));
#138=DIRECTION('center_axis',(0.,0.,1.));
#139=DIRECTION('ref_axis',(0.66060109530949,0.750737099706617,0.));
#140=DIRECTION('center_axis',(0.,0.,1.));
#141=DIRECTION('ref_axis',(0.66060109530949,0.750737099706617,0.));
#142=DIRECTION('',(0.,0.,1.));
#143=DIRECTION('center_axis',(0.,0.,1.));
#144=DIRECTION('ref_axis',(0.66060109530949,0.750737099706617,0.));
#145=DIRECTION('',(0.,0.,1.));
#146=DIRECTION('center_axis',(0.,0.,1.));
#147=DIRECTION('ref_axis',(-0.300852460716026,-0.953670696247458,0.));
#148=DIRECTION('center_axis',(0.,0.,-1.));
#149=DIRECTION('ref_axis',(-0.300852460716026,-0.953670696247458,0.));
#150=DIRECTION('center_axis',(0.,0.,-1.));
#151=DIRECTION('ref_axis',(-0.300852460716026,-0.953670696247458,0.));
#152=DIRECTION('',(0.,0.,1.));
#153=DIRECTION('center_axis',(-0.192611033435698,-0.981275185561539,0.));
#154=DIRECTION('ref_axis',(0.981275185561539,-0.192611033435698,0.));
#155=DIRECTION('',(0.981275185561539,-0.192611033435698,0.));
#156=DIRECTION('',(0.981275185561539,-0.192611033435698,0.));
#157=DIRECTION('',(0.,0.,1.));
#158=DIRECTION('center_axis',(-1.,0.,0.));
#159=DIRECTION('ref_axis',(0.,-1.,0.));
#160=DIRECTION('',(0.,-1.,0.));
#161=DIRECTION('',(0.,-1.,0.));
#162=DIRECTION('center_axis',(0.,0.,1.));
#163=DIRECTION('ref_axis',(1.,0.,0.));
#164=DIRECTION('center_axis',(0.,0.,1.));
#165=DIRECTION('ref_axis',(1.,0.,0.));
#166=CARTESIAN_POINT('',(0.,0.,0.));
#167=CARTESIAN_POINT('Origin',(-1.60930719612191,-3.43578427799463,0.));
#168=CARTESIAN_POINT('',(4.46124399937592,3.46306592144903,0.));
#169=CARTESIAN_POINT('',(-7.67985839161973,3.46306592144903,0.));
#170=CARTESIAN_POINT('Origin',(-1.60930719612191,-3.43578427799463,0.));
#171=CARTESIAN_POINT('',(-7.67985839161973,3.46306592144903,40.));
#172=CARTESIAN_POINT('',(-7.67985839161973,3.46306592144903,0.));
#173=CARTESIAN_POINT('',(4.46124399937592,3.46306592144903,40.));
#174=CARTESIAN_POINT('Origin',(-1.60930719612191,-3.43578427799463,40.));
#175=CARTESIAN_POINT('',(4.46124399937592,3.46306592144903,0.));
#176=CARTESIAN_POINT('Origin',(3.42827753519993,0.188670742009803,0.));
#177=CARTESIAN_POINT('',(0.,0.,0.));
#178=CARTESIAN_POINT('Origin',(3.42827753519993,0.188670742009803,0.));
#179=CARTESIAN_POINT('',(0.,0.,40.));
#180=CARTESIAN_POINT('Origin',(3.42827753519993,0.188670742009803,40.));
#181=CARTESIAN_POINT('',(0.,0.,0.));
#182=CARTESIAN_POINT('Origin',(-7.67985839161973,1.50745222463075,0.));
#183=CARTESIAN_POINT('',(-7.67985839161973,1.50745222463075,0.));
#184=CARTESIAN_POINT('',(-7.67985839161973,1.50745222463075,0.));
#185=CARTESIAN_POINT('',(-7.67985839161973,1.50745222463075,40.));
#186=CARTESIAN_POINT('',(-7.67985839161973,1.50745222463075,40.));
#187=CARTESIAN_POINT('',(-7.67985839161973,1.50745222463075,0.));
#188=CARTESIAN_POINT('Origin',(-7.67985839161973,3.46306592144903,0.));
#189=CARTESIAN_POINT('',(-7.67985839161973,3.46306592144903,0.));
#190=CARTESIAN_POINT('',(-7.67985839161973,3.46306592144903,40.));
#191=CARTESIAN_POINT('Origin',(-1.60930719612191,2.87682564046216,40.));
#192=CARTESIAN_POINT('Origin',(-1.60930719612191,2.87682564046216,0.));
#193=UNCERTAINTY_MEASURE_WITH_UNIT(LENGTH_MEASURE(0.01),#197,
'DISTANCE_ACCURACY_VALUE',
'Maximum model space distance between geometric entities at asserted c
onnectivities');
#194=UNCERTAINTY_MEASURE_WITH_UNIT(LENGTH_MEASURE(0.01),#197,
'DISTANCE_ACCURACY_VALUE',
'Maximum model space distance between geometric entities at asserted c
onnectivities');
#195=(
GEOMETRIC_REPRESENTATION_CONTEXT(3)
GLOBAL_UNCERTAINTY_ASSIGNED_CONTEXT((#193))
GLOBAL_UNIT_ASSIGNED_CONTEXT((#197,#199,#200))
REPRESENTATION_CONTEXT('','3D')
);
#196=(
GEOMETRIC_REPRESENTATION_CONTEXT(3)
GLOBAL_UNCERTAINTY_ASSIGNED_CONTEXT((#194))
GLOBAL_UNIT_ASSIGNED_CONTEXT((#197,#199,#200))
REPRESENTATION_CONTEXT('','3D')
);
#197=(
LENGTH_UNIT()
NAMED_UNIT(*)
SI_UNIT(.MILLI.,.METRE.)
);
#198=(
LENGTH_UNIT()
NAMED_UNIT(*)
SI_UNIT(.CENTI.,.METRE.)
);
#199=(
NAMED_UNIT(*)
PLANE_ANGLE_UNIT()
SI_UNIT($,.RADIAN.)
);
#200=(
NAMED_UNIT(*)
SI_UNIT($,.STERADIAN.)
SOLID_ANGLE_UNIT()
);
#201=SHAPE_DEFINITION_REPRESENTATION(#202,#203);
#202=PRODUCT_DEFINITION_SHAPE('',$,#205);
#203=SHAPE_REPRESENTATION('',(#125),#195);
#204=PRODUCT_DEFINITION_CONTEXT('part definition',#209,'design');
#205=PRODUCT_DEFINITION('Part3','Part3',#206,#204);
#206=PRODUCT_DEFINITION_FORMATION('',$,#211);
#207=PRODUCT_RELATED_PRODUCT_CATEGORY('Part3','Part3',(#211));
#208=APPLICATION_PROTOCOL_DEFINITION('international standard',
'automotive_design',2009,#209);
#209=APPLICATION_CONTEXT(
'Core Data for Automotive Mechanical Design Process');
#210=PRODUCT_CONTEXT('part definition',#209,'mechanical');
#211=PRODUCT('Part3','Part3',$,(#210));
#212=PRESENTATION_STYLE_ASSIGNMENT((#213));
#213=SURFACE_STYLE_USAGE(.BOTH.,#216);
#214=SURFACE_STYLE_RENDERING_WITH_PROPERTIES($,#220,(#215));
#215=SURFACE_STYLE_TRANSPARENT(0.);
#216=SURFACE_SIDE_STYLE('',(#217,#214));
#217=SURFACE_STYLE_FILL_AREA(#218);
#218=FILL_AREA_STYLE('',(#219));
#219=FILL_AREA_STYLE_COLOUR('',#220);
#220=COLOUR_RGB('',0.749019607843137,0.749019607843137,0.749019607843137);
ENDSEC;
END-ISO-10303-21;
