<?xml version="1.0" encoding="UTF-8" standalone="no"?>
<!-- Created with Inkscape (http://www.inkscape.org/) -->

<svg
   width="300.21964mm"
   height="209.59767mm"
   viewBox="0 0 300.21964 209.59767"
   version="1.1"
   id="svg24164"
   inkscape:version="1.1 (c68e22c387, 2021-05-23)"
   sodipodi:docname="border-trihedron.svg"
   xmlns:inkscape="http://www.inkscape.org/namespaces/inkscape"
   xmlns:sodipodi="http://sodipodi.sourceforge.net/DTD/sodipodi-0.dtd"
   xmlns="http://www.w3.org/2000/svg"
   xmlns:svg="http://www.w3.org/2000/svg">
  <sodipodi:namedview
     id="namedview24166"
     pagecolor="#ffffff"
     bordercolor="#999999"
     borderopacity="1"
     inkscape:pageshadow="0"
     inkscape:pageopacity="0"
     inkscape:pagecheckerboard="0"
     inkscape:document-units="mm"
     showgrid="false"
     inkscape:zoom="0.77771465"
     inkscape:cx="506.61255"
     inkscape:cy="532.32892"
     inkscape:window-width="3840"
     inkscape:window-height="2050"
     inkscape:window-x="-12"
     inkscape:window-y="-12"
     inkscape:window-maximized="1"
     inkscape:current-layer="layer1" />
  <defs
     id="defs24161" />
  <g
     inkscape:label="Слой 1"
     inkscape:groupmode="layer"
     id="layer1"
     transform="translate(28.996536,-7.4691853)">
    <g
       id="g24614">
      <path
         style="fill:#e7e7e7;fill-opacity:1;stroke:none;stroke-width:0.264583"
         d="m 208.13696,95.008962 -0.29824,74.635258 -76.25622,45.89356 1.20346,-77.91926 z"
         id="path5886-9-1-9-1-4"
         inkscape:connector-curvature="0"
         sodipodi:nodetypes="ccccc" />
      <path
         style="fill:#e6e6e6;fill-opacity:1;stroke:none;stroke-width:0.264583"
         d="m 155.75282,42.536796 c 27.96638,-0.365654 52.45939,21.02776 52.39901,52.515557 L 132.83072,138.049 C 132.43925,102.99091 107.54936,85.759922 80.750137,86.017097 Z"
         id="path5886-9-1-3-09"
         inkscape:connector-curvature="0"
         sodipodi:nodetypes="ccccc" />
      <path
         style="fill:#ececec;fill-opacity:1;stroke:none;stroke-width:0.264583"
         d="m 47.447137,42.986058 84.791503,0.06985 22.96525,0.01852 -73.774643,42.592625 -109.140363,0.126206 z"
         id="path5886-9-8-4"
         inkscape:connector-curvature="0"
         sodipodi:nodetypes="cccccc" />
      <path
         style="fill:#f7f7f7;fill-opacity:1;stroke:none;stroke-width:0.264583"
         d="M -27.711116,86.286179 80.659887,85.793524 c 24.384483,0.3429 51.672833,16.540166 51.968803,52.461316 l -1.04619,77.28294 c -8.7974,-3.43958 -3.36555,4.7625 -13.02285,0 l 1.48604,-76.75271 C 118.04681,114.14839 104.82434,101.83521 80.225337,100.31624 L -28.696318,99.990008 c 4.630446,-7.577138 -2.195301,-7.202488 0.985202,-13.703829 z"
         id="path5886-93-8"
         inkscape:connector-curvature="0"
         sodipodi:nodetypes="ccccccccc" />
      <path
         style="fill:none;stroke:#636363;stroke-width:0.984999;stroke-linecap:round;stroke-linejoin:miter;stroke-miterlimit:4;stroke-dasharray:none;stroke-opacity:1"
         d="M -27.711116,85.793524 H 80.659887 L 114.89142,66.029943 m 32.40553,-18.709481 7.51969,-4.341547 h -7.36443 m -18.58698,0 H 47.303417"
         id="path5846-4-8"
         inkscape:connector-curvature="0"
         sodipodi:nodetypes="cccccccc" />
      <path
         style="fill:none;stroke:#636363;stroke-width:0.985192px;stroke-linecap:round;stroke-linejoin:miter;stroke-opacity:1"
         d="m 80.298067,85.794318 c 32.010703,1.810015 52.647033,21.318802 52.353663,52.100162 l -1.06923,77.6433"
         id="path5848-4-2"
         inkscape:connector-curvature="0"
         sodipodi:nodetypes="ccc" />
      <path
         style="fill:none;stroke:#636363;stroke-width:0.985192px;stroke-linecap:round;stroke-linejoin:miter;stroke-opacity:1"
         d="m 154.36138,42.971242 c 30.92122,-0.22278 53.50062,19.114558 53.78767,52.254414 0.0927,10.695784 0.12573,22.820844 0.12216,34.907014 m -0.0249,12.56744 c -0.0222,8.17033 -0.0571,19.57493 -0.0972,26.57739"
         id="path5848-7-60-45"
         inkscape:connector-curvature="0"
         sodipodi:nodetypes="csccc" />
      <path
         style="fill:none;stroke:#636363;stroke-width:0.985192px;stroke-linecap:round;stroke-linejoin:miter;stroke-opacity:1"
         d="m 132.74127,138.23421 20.50777,-11.68771 m 33.85563,-19.29447 20.87595,-11.877149"
         id="path5846-7-6-5"
         inkscape:connector-curvature="0"
         sodipodi:nodetypes="cccc" />
      <g
         id="g7385"
         transform="matrix(0.26458333,0,0,0.26458333,1130.8308,4259.3082)">
        <path
           inkscape:connector-curvature="0"
           id="path6613"
           d="m -3826.8619,-15855.975 92.8254,-53.593"
           style="fill:none;stroke:#000000;stroke-width:5;stroke-linecap:round;stroke-linejoin:miter;stroke-miterlimit:4;stroke-dasharray:none;stroke-opacity:1" />
        <path
           sodipodi:nodetypes="ccccc"
           inkscape:connector-curvature="0"
           id="path7383"
           d="m -3751.4437,-15911.606 27.9437,-4.032 -5.75,14.75 -9.75,-6.75 z"
           style="fill:#000000;fill-opacity:1;stroke:#000000;stroke-width:1px;stroke-linecap:butt;stroke-linejoin:miter;stroke-opacity:1" />
      </g>
      <g
         id="g7385-1"
         transform="matrix(-0.26458333,0,0,-0.26458333,-867.92186,-4137.3117)"
         style="stroke:#000000;stroke-opacity:1">
        <path
           inkscape:connector-curvature="0"
           id="path6613-4"
           d="m -3872.8619,-15827.975 c 94.5,-45 195.3254,-114.093 195.3254,-114.093"
           style="fill:none;stroke:#000000;stroke-width:5;stroke-linecap:round;stroke-linejoin:miter;stroke-miterlimit:4;stroke-dasharray:none;stroke-opacity:1"
           sodipodi:nodetypes="cc" />
        <path
           style="fill:none;stroke:#000000;stroke-width:5;stroke-linecap:butt;stroke-linejoin:miter;stroke-miterlimit:4;stroke-dasharray:none;stroke-opacity:1"
           d="m -3829.5,-15830.638 -4.5,21 26.5,-2"
           id="path7593"
           inkscape:connector-curvature="0"
           transform="rotate(180,-3754.4989,-15877.108)" />
      </g>
      <g
         id="g7385-3"
         transform="matrix(0.13215979,-0.22921197,0.22921197,0.13215979,4227.1648,1276.2116)">
        <g
           id="g7497"
           transform="translate(41.115427,111.34865)">
          <path
             style="fill:none;stroke:#000000;stroke-width:5;stroke-linecap:round;stroke-linejoin:miter;stroke-miterlimit:4;stroke-dasharray:none;stroke-opacity:1"
             d="m -3826.8619,-15855.975 92.8254,-53.593"
             id="path6613-2"
             inkscape:connector-curvature="0" />
          <path
             style="fill:#000000;fill-opacity:1;stroke:#000000;stroke-width:1px;stroke-linecap:butt;stroke-linejoin:miter;stroke-opacity:1"
             d="m -3744.6635,-15916.65 22.6795,0.138 -11.6983,18.863 -5.0055,-9.448 z"
             id="path7383-21"
             inkscape:connector-curvature="0"
             sodipodi:nodetypes="ccccc" />
        </g>
      </g>
      <g
         id="g7422"
         transform="matrix(0.26458333,0,0,0.26458333,1362.9858,4141.8314)"
         style="fill:#000000;fill-opacity:1">
        <text
           id="text7397"
           y="-15491.638"
           x="-4654"
           style="font-style:normal;font-weight:bold;line-height:0%;font-family:sans-serif;-inkscape-font-specification:'Sans Bold';letter-spacing:0px;word-spacing:0px;fill:#000000;fill-opacity:1;stroke:none"
           xml:space="preserve"><tspan
             y="-15491.638"
             x="-4654"
             id="tspan7399"
             sodipodi:role="line"
             style="font-size:40px;line-height:1.25;font-family:sans-serif;fill:#000000">V</tspan></text>
        <text
           id="text7397-5"
           y="-15481.14"
           x="-4629.1895"
           style="font-style:normal;font-weight:bold;line-height:0%;font-family:sans-serif;-inkscape-font-specification:'Sans Bold';letter-spacing:0px;word-spacing:0px;fill:#000000;fill-opacity:1;stroke:none"
           xml:space="preserve"><tspan
             style="font-style:italic;font-weight:normal;font-size:32px;line-height:1.25;font-family:sans-serif;fill:#000000;fill-opacity:1"
             y="-15481.14"
             x="-4629.1895"
             id="tspan7399-2"
             sodipodi:role="line">x</tspan></text>
      </g>
      <g
         id="g7422-8"
         transform="matrix(0.26458333,0,0,0.26458333,1331.3159,4128.8658)"
         style="fill:#000000;fill-opacity:1">
        <text
           id="text7397-57"
           y="-15491.638"
           x="-4654"
           style="font-style:normal;font-weight:bold;line-height:0%;font-family:sans-serif;-inkscape-font-specification:'Sans Bold';letter-spacing:0px;word-spacing:0px;fill:#000000;fill-opacity:1;stroke:none"
           xml:space="preserve"><tspan
             y="-15491.638"
             x="-4654"
             id="tspan7399-6"
             sodipodi:role="line"
             style="font-size:40px;line-height:1.25;font-family:sans-serif;fill:#000000">V</tspan></text>
        <text
           id="text7397-5-1"
           y="-15481.14"
           x="-4629.1895"
           style="font-style:normal;font-weight:bold;line-height:0%;font-family:sans-serif;-inkscape-font-specification:'Sans Bold';letter-spacing:0px;word-spacing:0px;fill:#000000;fill-opacity:1;stroke:none"
           xml:space="preserve"><tspan
             style="font-style:italic;font-weight:normal;font-size:32px;line-height:1.25;font-family:sans-serif;fill:#000000;fill-opacity:1"
             y="-15481.14"
             x="-4629.1895"
             id="tspan7399-2-8"
             sodipodi:role="line">z</tspan></text>
      </g>
      <g
         id="g7385-9"
         transform="matrix(-0.22901896,-0.13249397,0.13249397,-0.22901896,1339.7025,-4074.1348)">
        <path
           inkscape:connector-curvature="0"
           id="path6613-27"
           d="m -3835.5177,-15850.967 101.4812,-58.601"
           style="fill:none;stroke:#000000;stroke-width:5;stroke-linecap:round;stroke-linejoin:miter;stroke-miterlimit:4;stroke-dasharray:none;stroke-opacity:1"
           sodipodi:nodetypes="cc" />
        <path
           sodipodi:nodetypes="ccccc"
           inkscape:connector-curvature="0"
           id="path7383-9"
           d="m -3743.7842,-15915.036 20.2842,-0.602 -14.1307,19.569 -2.0126,-10.186 z"
           style="fill:#000000;fill-opacity:1;stroke:#000000;stroke-width:1px;stroke-linecap:butt;stroke-linejoin:miter;stroke-opacity:1" />
      </g>
      <ellipse
         style="fill:#ffffff;fill-opacity:1;stroke:#000000;stroke-width:0.872292;stroke-miterlimit:4;stroke-dasharray:none;stroke-opacity:1"
         id="path2989-1-3-1-0-4-6-2-3-1"
         cx="118.01111"
         cy="64.027985"
         rx="2.2590156"
         ry="2.2327125" />
      <g
         id="g7422-4"
         transform="matrix(0.26458333,0,0,0.26458333,1282.1177,4161.7571)"
         style="fill:#000000;fill-opacity:1">
        <text
           id="text7397-3"
           y="-15473.638"
           x="-4590"
           style="font-style:normal;font-weight:bold;line-height:0%;font-family:sans-serif;-inkscape-font-specification:'Sans Bold';letter-spacing:0px;word-spacing:0px;fill:#000000;fill-opacity:1;stroke:none"
           xml:space="preserve"><tspan
             y="-15473.638"
             x="-4590"
             id="tspan7399-1"
             sodipodi:role="line"
             style="font-size:40px;line-height:1.25;font-family:sans-serif;fill:#000000">V</tspan></text>
        <text
           id="text7397-5-2"
           y="-15463.14"
           x="-4565.1895"
           style="font-style:normal;font-weight:bold;line-height:0%;font-family:sans-serif;-inkscape-font-specification:'Sans Bold';letter-spacing:0px;word-spacing:0px;fill:#000000;fill-opacity:1;stroke:none"
           xml:space="preserve"><tspan
             style="font-style:italic;font-weight:normal;font-size:32px;line-height:1.25;font-family:sans-serif;fill:#000000;fill-opacity:1"
             y="-15463.14"
             x="-4565.1895"
             id="tspan7399-2-3"
             sodipodi:role="line">y</tspan></text>
      </g>
      <g
         id="g7385-1-3"
         transform="matrix(0.21543465,0.15359768,0.15359768,-0.21543465,3380.1651,-2745.6725)"
         style="stroke:#000000;stroke-opacity:1">
        <path
           inkscape:connector-curvature="0"
           id="path6613-4-4"
           d="m -3872.4584,-15898.305 c 107.4825,45.313 194.9219,-43.763 194.9219,-43.763"
           style="fill:none;stroke:#000000;stroke-width:5;stroke-linecap:round;stroke-linejoin:miter;stroke-miterlimit:4;stroke-dasharray:none;stroke-opacity:1"
           sodipodi:nodetypes="cc" />
        <path
           style="fill:none;stroke:#000000;stroke-width:5;stroke-linecap:butt;stroke-linejoin:miter;stroke-miterlimit:4;stroke-dasharray:none;stroke-opacity:1"
           d="m -3828.6895,-15834.359 -5.3105,24.721 26.5,-2"
           id="path7593-1"
           inkscape:connector-curvature="0"
           transform="rotate(180,-3754.4989,-15877.108)"
           sodipodi:nodetypes="ccc" />
      </g>
      <path
         sodipodi:nodetypes="cc"
         style="fill:none;stroke:#000000;stroke-width:1.32292;stroke-linecap:round;stroke-linejoin:miter;stroke-miterlimit:4;stroke-dasharray:none;stroke-opacity:1"
         d="m 145.12572,121.4456 c 23.96191,-12.71746 53.52495,-31.056263 53.52495,-31.056263"
         id="path6613-4-3"
         inkscape:connector-curvature="0" />
      <path
         sodipodi:nodetypes="ccc"
         inkscape:connector-curvature="0"
         id="path7593-8"
         d="m 192.53766,90.245404 6.85993,-0.514615 -2.92397,5.865812"
         style="fill:none;stroke:#000000;stroke-width:1.32292;stroke-linecap:butt;stroke-linejoin:miter;stroke-miterlimit:4;stroke-dasharray:none;stroke-opacity:1" />
      <g
         style="stroke:#8a0082;stroke-opacity:1"
         transform="matrix(-0.26458333,0,0,-0.26458333,-830.04606,-4085.5862)"
         id="g7385-7">
        <path
           style="fill:none;stroke:#000000;stroke-width:5;stroke-linecap:round;stroke-linejoin:miter;stroke-miterlimit:4;stroke-dasharray:none;stroke-opacity:1"
           d="m -3826.8619,-15855.975 92.8254,-53.593"
           id="path6613-7"
           inkscape:connector-curvature="0" />
        <path
           style="fill:#000000;fill-opacity:1;stroke:#000000;stroke-width:1px;stroke-linecap:butt;stroke-linejoin:miter;stroke-opacity:1"
           d="m -3741.0139,-15917.97 18.5746,1.625 -11.0533,20.053 -1.9719,-12.23 z"
           id="path7383-93"
           inkscape:connector-curvature="0"
           sodipodi:nodetypes="ccccc" />
      </g>
      <g
         style="fill:#000000;fill-opacity:1;stroke:#8a0082;stroke-opacity:1"
         transform="matrix(0.26458333,0,0,0.26458333,1383.3629,4237.5769)"
         id="g7422-2">
        <text
           xml:space="preserve"
           style="font-style:normal;font-weight:bold;line-height:0%;font-family:sans-serif;-inkscape-font-specification:'Sans Bold';letter-spacing:0px;word-spacing:0px;fill:#000000;fill-opacity:1;stroke:none"
           x="-4654"
           y="-15491.638"
           id="text7397-4"><tspan
             sodipodi:role="line"
             id="tspan7399-8"
             x="-4654"
             y="-15491.638"
             style="font-size:40px;line-height:1.25;font-family:sans-serif;fill:#000000">V</tspan></text>
        <text
           xml:space="preserve"
           style="font-style:normal;font-weight:bold;line-height:0%;font-family:sans-serif;-inkscape-font-specification:'Sans Bold';letter-spacing:0px;word-spacing:0px;fill:#000000;fill-opacity:1;stroke:none"
           x="-4629.1895"
           y="-15481.14"
           id="text7397-5-6"><tspan
             sodipodi:role="line"
             id="tspan7399-2-5"
             x="-4629.1895"
             y="-15481.14"
             style="font-style:italic;font-weight:normal;font-size:32px;line-height:1.25;font-family:sans-serif;fill:#000000;fill-opacity:1">x</tspan></text>
      </g>
      <g
         style="fill:#000000;fill-opacity:1;stroke:#8a0082;stroke-opacity:1"
         transform="matrix(0.26458333,0,0,0.26458333,1451.8275,4216.1647)"
         id="g7422-8-9">
        <text
           xml:space="preserve"
           style="font-style:normal;font-weight:bold;line-height:0%;font-family:sans-serif;-inkscape-font-specification:'Sans Bold';letter-spacing:0px;word-spacing:0px;fill:#000000;fill-opacity:1;stroke:none"
           x="-4654"
           y="-15491.638"
           id="text7397-57-0"><tspan
             sodipodi:role="line"
             id="tspan7399-6-0"
             x="-4654"
             y="-15491.638"
             style="font-size:40px;line-height:1.25;font-family:sans-serif;fill:#000000">V</tspan></text>
        <text
           xml:space="preserve"
           style="font-style:normal;font-weight:bold;line-height:0%;font-family:sans-serif;-inkscape-font-specification:'Sans Bold';letter-spacing:0px;word-spacing:0px;fill:#000000;fill-opacity:1;stroke:none"
           x="-4629.1895"
           y="-15481.14"
           id="text7397-5-1-6"><tspan
             sodipodi:role="line"
             id="tspan7399-2-8-1"
             x="-4629.1895"
             y="-15481.14"
             style="font-style:italic;font-weight:normal;font-size:32px;line-height:1.25;font-family:sans-serif;fill:#000000;fill-opacity:1">z</tspan></text>
      </g>
      <g
         id="g7385-3-1"
         transform="matrix(0.13215979,0.22921197,0.22921197,-0.13215979,4292.2412,-1103.0402)">
        <g
           id="g7497-8"
           transform="translate(41.115427,111.34865)">
          <path
             style="fill:none;stroke:#000000;stroke-width:5;stroke-linecap:round;stroke-linejoin:miter;stroke-miterlimit:4;stroke-dasharray:none;stroke-opacity:1"
             d="m -3826.8619,-15855.975 92.8254,-53.593"
             id="path6613-2-4"
             inkscape:connector-curvature="0" />
          <path
             style="fill:#000000;fill-opacity:1;stroke:#000000;stroke-width:1px;stroke-linecap:butt;stroke-linejoin:miter;stroke-opacity:1"
             d="m -3744.6635,-15916.65 22.6795,0.138 -11.6983,18.863 -5.0055,-9.448 z"
             id="path7383-21-9"
             inkscape:connector-curvature="0"
             sodipodi:nodetypes="ccccc" />
        </g>
      </g>
      <g
         style="fill:#000000;fill-opacity:1;stroke:#8a0082;stroke-opacity:1"
         transform="matrix(0.26458333,0,0,0.26458333,1408.7944,4251.996)"
         id="g7422-4-4">
        <text
           xml:space="preserve"
           style="font-style:normal;font-weight:bold;line-height:0%;font-family:sans-serif;-inkscape-font-specification:'Sans Bold';letter-spacing:0px;word-spacing:0px;fill:#000000;fill-opacity:1;stroke:none"
           x="-4654"
           y="-15491.638"
           id="text7397-3-6"><tspan
             sodipodi:role="line"
             id="tspan7399-1-0"
             x="-4654"
             y="-15491.638"
             style="font-size:40px;line-height:1.25;font-family:sans-serif;fill:#000000">V</tspan></text>
        <text
           xml:space="preserve"
           style="font-style:normal;font-weight:bold;line-height:0%;font-family:sans-serif;-inkscape-font-specification:'Sans Bold';letter-spacing:0px;word-spacing:0px;fill:#000000;fill-opacity:1;stroke:none"
           x="-4629.1895"
           y="-15481.14"
           id="text7397-5-2-6"><tspan
             sodipodi:role="line"
             id="tspan7399-2-3-6"
             x="-4629.1895"
             y="-15481.14"
             style="font-style:italic;font-weight:normal;font-size:32px;line-height:1.25;font-family:sans-serif;fill:#000000;fill-opacity:1">y</tspan></text>
      </g>
      <g
         id="g7385-1-3-7"
         transform="matrix(-0.1503169,-0.21773646,0.21773646,-0.1503169,3079.6104,-3147.662)"
         style="stroke:#000000;stroke-opacity:1">
        <path
           inkscape:connector-curvature="0"
           id="path6613-4-4-4"
           d="m -3872.4584,-15898.305 c 107.4825,45.313 194.9219,-43.763 194.9219,-43.763"
           style="fill:none;stroke:#000000;stroke-width:5;stroke-linecap:round;stroke-linejoin:miter;stroke-miterlimit:4;stroke-dasharray:none;stroke-opacity:1"
           sodipodi:nodetypes="cc" />
        <path
           style="fill:none;stroke:#000000;stroke-width:5;stroke-linecap:butt;stroke-linejoin:miter;stroke-miterlimit:4;stroke-dasharray:none;stroke-opacity:1"
           d="m -3828.6895,-15834.359 -5.3105,24.721 26.5,-2"
           id="path7593-1-2"
           inkscape:connector-curvature="0"
           transform="rotate(180,-3754.4989,-15877.108)"
           sodipodi:nodetypes="ccc" />
      </g>
      <g
         id="g7385-9-6"
         transform="matrix(0.22901895,-0.13249399,-0.13249399,-0.22901895,-1037.7176,-4028.6942)">
        <path
           inkscape:connector-curvature="0"
           id="path6613-27-3"
           d="m -3836.4522,-15849.405 101.4812,-58.601"
           style="fill:none;stroke:#000000;stroke-width:5;stroke-linecap:round;stroke-linejoin:miter;stroke-miterlimit:4;stroke-dasharray:none;stroke-opacity:1"
           sodipodi:nodetypes="cc" />
        <path
           sodipodi:nodetypes="ccccc"
           inkscape:connector-curvature="0"
           id="path7383-9-7"
           d="m -3746.5308,-15912.017 22.0963,-2.059 -12.6246,18.289 -3.5187,-8.906 z"
           style="fill:#000000;fill-opacity:1;stroke:#000000;stroke-width:1px;stroke-linecap:butt;stroke-linejoin:miter;stroke-opacity:1" />
      </g>
      <text
         xml:space="preserve"
         style="font-style:normal;font-weight:normal;font-size:3.175px;line-height:0%;font-family:sans-serif;letter-spacing:0px;word-spacing:0px;fill:#000000;fill-opacity:1;stroke:none;stroke-width:0.264583"
         x="81.70311"
         y="15.303308"
         id="text7860"><tspan
           sodipodi:role="line"
           id="tspan7862"
           x="81.70311"
           y="15.303308"
           style="font-style:normal;font-variant:normal;font-weight:normal;font-stretch:normal;font-size:10.5833px;line-height:1.25;font-family:'Segoe UI';-inkscape-font-specification:'Segoe UI Oblique';stroke-width:0.264583">Border trihedron</tspan></text>
      <text
         xml:space="preserve"
         style="font-style:normal;font-weight:normal;font-size:3.175px;line-height:0%;font-family:sans-serif;letter-spacing:0px;word-spacing:0px;fill:#000000;fill-opacity:1;stroke:none;stroke-width:0.264583"
         x="194.21512"
         y="138.74719"
         id="text7860-8"><tspan
           sodipodi:role="line"
           id="tspan7862-8"
           x="194.21512"
           y="138.74719"
           style="font-style:normal;font-variant:normal;font-weight:normal;font-stretch:normal;font-size:10.5833px;line-height:1.25;font-family:'Segoe UI';-inkscape-font-specification:'Segoe UI Oblique';stroke-width:0.264583">Border trihedron</tspan></text>
      <path
         style="fill:none;stroke:#636363;stroke-width:0.985192px;stroke-linecap:round;stroke-linejoin:miter;stroke-opacity:1"
         d="m -28.50394,100.07018 c 0,0 86.576777,-0.0132 108.542317,0.15875 30.453943,0 39.590513,22.23479 39.590513,38.71224 l -1.06924,76.59661"
         id="path5848-4-2-6"
         inkscape:connector-curvature="0"
         sodipodi:nodetypes="cccc" />
      <ellipse
         style="fill:#ffffff;fill-opacity:1;stroke:#000000;stroke-width:0.872292;stroke-miterlimit:4;stroke-dasharray:none;stroke-opacity:1"
         id="path2989-1-3-1-0-4-6-2-3-1-1"
         cx="182.95972"
         cy="109.9425"
         rx="2.2590156"
         ry="2.2327125" />
    </g>
  </g>
</svg>
