ISO-10303-21;
HEADER;
/* Generated by software containing ST-Developer
 * from STEP Tools, Inc. (www.steptools.com) 
 */

FILE_DESCRIPTION(
/* description */ (''),
/* implementation_level */ '2;1');

FILE_NAME(
/* name */ 
'C:\\Users\\pschwitalla\\OneDrive - igus GmbH\\Documents\\190520_Platt
form Tribocut\\01_Instant Quoting\\L\X\D6SUNGEN\\Oroox\\03_CNC calcula
tion\\40_Calculations\\Pockets\\OPEN POCKET_01_WITH Bound. walls, WITH
 Int. Fillets - 01.stp',
/* time_stamp */ '2022-03-24T15:38:57+01:00',
/* author */ ('pschwitalla'),
/* organization */ ('igus GmbH'),
/* preprocessor_version */ 'ST-DEVELOPER v18.1',
/* originating_system */ 'Autodesk Inventor 2020',
/* authorisation */ '');

FILE_SCHEMA (('AUTOMOTIVE_DESIGN { 1 0 10303 214 3 1 1 }'));
ENDSEC;

DATA;
#10=MECHANICAL_DESIGN_GEOMETRIC_PRESENTATION_REPRESENTATION('',(#13),#385);
#11=SHAPE_REPRESENTATION_RELATIONSHIP('SRR','None',#392,#12);
#12=ADVANCED_BREP_SHAPE_REPRESENTATION('',(#14),#384);
#13=STYLED_ITEM('',(#401),#14);
#14=MANIFOLD_SOLID_BREP('Solid1',#229);
#15=CIRCLE('',#245,3.);
#16=CIRCLE('',#246,3.);
#17=CIRCLE('',#249,2.99999999999998);
#18=CIRCLE('',#250,2.99999999999998);
#19=CYLINDRICAL_SURFACE('',#244,3.);
#20=CYLINDRICAL_SURFACE('',#248,2.99999999999998);
#21=FACE_OUTER_BOUND('',#33,.T.);
#22=FACE_OUTER_BOUND('',#34,.T.);
#23=FACE_OUTER_BOUND('',#35,.T.);
#24=FACE_OUTER_BOUND('',#36,.T.);
#25=FACE_OUTER_BOUND('',#37,.T.);
#26=FACE_OUTER_BOUND('',#38,.T.);
#27=FACE_OUTER_BOUND('',#39,.T.);
#28=FACE_OUTER_BOUND('',#40,.T.);
#29=FACE_OUTER_BOUND('',#41,.T.);
#30=FACE_OUTER_BOUND('',#42,.T.);
#31=FACE_OUTER_BOUND('',#43,.T.);
#32=FACE_OUTER_BOUND('',#44,.T.);
#33=EDGE_LOOP('',(#147,#148,#149,#150));
#34=EDGE_LOOP('',(#151,#152,#153,#154));
#35=EDGE_LOOP('',(#155,#156,#157,#158));
#36=EDGE_LOOP('',(#159,#160,#161,#162));
#37=EDGE_LOOP('',(#163,#164,#165,#166));
#38=EDGE_LOOP('',(#167,#168,#169,#170,#171,#172));
#39=EDGE_LOOP('',(#173,#174,#175,#176,#177,#178,#179,#180,#181,#182));
#40=EDGE_LOOP('',(#183,#184,#185,#186));
#41=EDGE_LOOP('',(#187,#188,#189,#190,#191,#192,#193,#194));
#42=EDGE_LOOP('',(#195,#196,#197,#198));
#43=EDGE_LOOP('',(#199,#200,#201,#202));
#44=EDGE_LOOP('',(#203,#204,#205,#206));
#45=LINE('',#323,#71);
#46=LINE('',#325,#72);
#47=LINE('',#327,#73);
#48=LINE('',#328,#74);
#49=LINE('',#333,#75);
#50=LINE('',#337,#76);
#51=LINE('',#339,#77);
#52=LINE('',#340,#78);
#53=LINE('',#345,#79);
#54=LINE('',#349,#80);
#55=LINE('',#351,#81);
#56=LINE('',#352,#82);
#57=LINE('',#354,#83);
#58=LINE('',#357,#84);
#59=LINE('',#359,#85);
#60=LINE('',#361,#86);
#61=LINE('',#363,#87);
#62=LINE('',#364,#88);
#63=LINE('',#368,#89);
#64=LINE('',#369,#90);
#65=LINE('',#370,#91);
#66=LINE('',#373,#92);
#67=LINE('',#374,#93);
#68=LINE('',#377,#94);
#69=LINE('',#378,#95);
#70=LINE('',#380,#96);
#71=VECTOR('',#263,10.);
#72=VECTOR('',#264,10.);
#73=VECTOR('',#265,10.);
#74=VECTOR('',#266,10.);
#75=VECTOR('',#271,10.);
#76=VECTOR('',#276,10.);
#77=VECTOR('',#277,10.);
#78=VECTOR('',#278,10.);
#79=VECTOR('',#283,10.);
#80=VECTOR('',#288,10.);
#81=VECTOR('',#289,10.);
#82=VECTOR('',#290,10.);
#83=VECTOR('',#293,10.);
#84=VECTOR('',#296,10.);
#85=VECTOR('',#297,10.);
#86=VECTOR('',#298,10.);
#87=VECTOR('',#299,10.);
#88=VECTOR('',#300,10.);
#89=VECTOR('',#303,10.);
#90=VECTOR('',#304,10.);
#91=VECTOR('',#305,10.);
#92=VECTOR('',#308,10.);
#93=VECTOR('',#309,10.);
#94=VECTOR('',#312,10.);
#95=VECTOR('',#313,10.);
#96=VECTOR('',#316,10.);
#97=VERTEX_POINT('',#321);
#98=VERTEX_POINT('',#322);
#99=VERTEX_POINT('',#324);
#100=VERTEX_POINT('',#326);
#101=VERTEX_POINT('',#330);
#102=VERTEX_POINT('',#332);
#103=VERTEX_POINT('',#336);
#104=VERTEX_POINT('',#338);
#105=VERTEX_POINT('',#342);
#106=VERTEX_POINT('',#344);
#107=VERTEX_POINT('',#348);
#108=VERTEX_POINT('',#350);
#109=VERTEX_POINT('',#356);
#110=VERTEX_POINT('',#358);
#111=VERTEX_POINT('',#360);
#112=VERTEX_POINT('',#362);
#113=VERTEX_POINT('',#366);
#114=VERTEX_POINT('',#367);
#115=VERTEX_POINT('',#372);
#116=VERTEX_POINT('',#376);
#117=EDGE_CURVE('',#97,#98,#45,.T.);
#118=EDGE_CURVE('',#97,#99,#46,.T.);
#119=EDGE_CURVE('',#99,#100,#47,.T.);
#120=EDGE_CURVE('',#98,#100,#48,.T.);
#121=EDGE_CURVE('',#101,#97,#15,.T.);
#122=EDGE_CURVE('',#101,#102,#49,.T.);
#123=EDGE_CURVE('',#102,#99,#16,.T.);
#124=EDGE_CURVE('',#103,#101,#50,.T.);
#125=EDGE_CURVE('',#103,#104,#51,.T.);
#126=EDGE_CURVE('',#104,#102,#52,.T.);
#127=EDGE_CURVE('',#105,#103,#17,.T.);
#128=EDGE_CURVE('',#105,#106,#53,.T.);
#129=EDGE_CURVE('',#106,#104,#18,.T.);
#130=EDGE_CURVE('',#107,#105,#54,.T.);
#131=EDGE_CURVE('',#108,#107,#55,.T.);
#132=EDGE_CURVE('',#108,#106,#56,.T.);
#133=EDGE_CURVE('',#100,#108,#57,.T.);
#134=EDGE_CURVE('',#98,#109,#58,.T.);
#135=EDGE_CURVE('',#109,#110,#59,.T.);
#136=EDGE_CURVE('',#110,#111,#60,.T.);
#137=EDGE_CURVE('',#111,#112,#61,.T.);
#138=EDGE_CURVE('',#112,#107,#62,.T.);
#139=EDGE_CURVE('',#113,#114,#63,.T.);
#140=EDGE_CURVE('',#114,#110,#64,.T.);
#141=EDGE_CURVE('',#113,#109,#65,.T.);
#142=EDGE_CURVE('',#115,#112,#66,.T.);
#143=EDGE_CURVE('',#115,#113,#67,.T.);
#144=EDGE_CURVE('',#116,#115,#68,.T.);
#145=EDGE_CURVE('',#116,#111,#69,.T.);
#146=EDGE_CURVE('',#114,#116,#70,.T.);
#147=ORIENTED_EDGE('',*,*,#117,.F.);
#148=ORIENTED_EDGE('',*,*,#118,.T.);
#149=ORIENTED_EDGE('',*,*,#119,.T.);
#150=ORIENTED_EDGE('',*,*,#120,.F.);
#151=ORIENTED_EDGE('',*,*,#121,.F.);
#152=ORIENTED_EDGE('',*,*,#122,.T.);
#153=ORIENTED_EDGE('',*,*,#123,.T.);
#154=ORIENTED_EDGE('',*,*,#118,.F.);
#155=ORIENTED_EDGE('',*,*,#124,.F.);
#156=ORIENTED_EDGE('',*,*,#125,.T.);
#157=ORIENTED_EDGE('',*,*,#126,.T.);
#158=ORIENTED_EDGE('',*,*,#122,.F.);
#159=ORIENTED_EDGE('',*,*,#127,.F.);
#160=ORIENTED_EDGE('',*,*,#128,.T.);
#161=ORIENTED_EDGE('',*,*,#129,.T.);
#162=ORIENTED_EDGE('',*,*,#125,.F.);
#163=ORIENTED_EDGE('',*,*,#130,.F.);
#164=ORIENTED_EDGE('',*,*,#131,.F.);
#165=ORIENTED_EDGE('',*,*,#132,.T.);
#166=ORIENTED_EDGE('',*,*,#128,.F.);
#167=ORIENTED_EDGE('',*,*,#132,.F.);
#168=ORIENTED_EDGE('',*,*,#133,.F.);
#169=ORIENTED_EDGE('',*,*,#119,.F.);
#170=ORIENTED_EDGE('',*,*,#123,.F.);
#171=ORIENTED_EDGE('',*,*,#126,.F.);
#172=ORIENTED_EDGE('',*,*,#129,.F.);
#173=ORIENTED_EDGE('',*,*,#130,.T.);
#174=ORIENTED_EDGE('',*,*,#127,.T.);
#175=ORIENTED_EDGE('',*,*,#124,.T.);
#176=ORIENTED_EDGE('',*,*,#121,.T.);
#177=ORIENTED_EDGE('',*,*,#117,.T.);
#178=ORIENTED_EDGE('',*,*,#134,.T.);
#179=ORIENTED_EDGE('',*,*,#135,.T.);
#180=ORIENTED_EDGE('',*,*,#136,.T.);
#181=ORIENTED_EDGE('',*,*,#137,.T.);
#182=ORIENTED_EDGE('',*,*,#138,.T.);
#183=ORIENTED_EDGE('',*,*,#139,.T.);
#184=ORIENTED_EDGE('',*,*,#140,.T.);
#185=ORIENTED_EDGE('',*,*,#135,.F.);
#186=ORIENTED_EDGE('',*,*,#141,.F.);
#187=ORIENTED_EDGE('',*,*,#131,.T.);
#188=ORIENTED_EDGE('',*,*,#138,.F.);
#189=ORIENTED_EDGE('',*,*,#142,.F.);
#190=ORIENTED_EDGE('',*,*,#143,.T.);
#191=ORIENTED_EDGE('',*,*,#141,.T.);
#192=ORIENTED_EDGE('',*,*,#134,.F.);
#193=ORIENTED_EDGE('',*,*,#120,.T.);
#194=ORIENTED_EDGE('',*,*,#133,.T.);
#195=ORIENTED_EDGE('',*,*,#144,.T.);
#196=ORIENTED_EDGE('',*,*,#142,.T.);
#197=ORIENTED_EDGE('',*,*,#137,.F.);
#198=ORIENTED_EDGE('',*,*,#145,.F.);
#199=ORIENTED_EDGE('',*,*,#146,.T.);
#200=ORIENTED_EDGE('',*,*,#145,.T.);
#201=ORIENTED_EDGE('',*,*,#136,.F.);
#202=ORIENTED_EDGE('',*,*,#140,.F.);
#203=ORIENTED_EDGE('',*,*,#146,.F.);
#204=ORIENTED_EDGE('',*,*,#139,.F.);
#205=ORIENTED_EDGE('',*,*,#143,.F.);
#206=ORIENTED_EDGE('',*,*,#144,.F.);
#207=PLANE('',#243);
#208=PLANE('',#247);
#209=PLANE('',#251);
#210=PLANE('',#252);
#211=PLANE('',#253);
#212=PLANE('',#254);
#213=PLANE('',#255);
#214=PLANE('',#256);
#215=PLANE('',#257);
#216=PLANE('',#258);
#217=ADVANCED_FACE('',(#21),#207,.F.);
#218=ADVANCED_FACE('',(#22),#19,.F.);
#219=ADVANCED_FACE('',(#23),#208,.F.);
#220=ADVANCED_FACE('',(#24),#20,.F.);
#221=ADVANCED_FACE('',(#25),#209,.F.);
#222=ADVANCED_FACE('',(#26),#210,.T.);
#223=ADVANCED_FACE('',(#27),#211,.T.);
#224=ADVANCED_FACE('',(#28),#212,.T.);
#225=ADVANCED_FACE('',(#29),#213,.T.);
#226=ADVANCED_FACE('',(#30),#214,.T.);
#227=ADVANCED_FACE('',(#31),#215,.T.);
#228=ADVANCED_FACE('',(#32),#216,.F.);
#229=CLOSED_SHELL('',(#217,#218,#219,#220,#221,#222,#223,#224,#225,#226,
#227,#228));
#230=DERIVED_UNIT_ELEMENT(#232,1.);
#231=DERIVED_UNIT_ELEMENT(#387,3.);
#232=(
MASS_UNIT()
NAMED_UNIT(*)
SI_UNIT($,.GRAM.)
);
#233=DERIVED_UNIT((#230,#231));
#234=MEASURE_REPRESENTATION_ITEM('density measure',
POSITIVE_RATIO_MEASURE(1.),#233);
#235=PROPERTY_DEFINITION_REPRESENTATION(#240,#237);
#236=PROPERTY_DEFINITION_REPRESENTATION(#241,#238);
#237=REPRESENTATION('material name',(#239),#384);
#238=REPRESENTATION('density',(#234),#384);
#239=DESCRIPTIVE_REPRESENTATION_ITEM('Generic','Generic');
#240=PROPERTY_DEFINITION('material property','material name',#394);
#241=PROPERTY_DEFINITION('material property','density of part',#394);
#242=AXIS2_PLACEMENT_3D('placement',#319,#259,#260);
#243=AXIS2_PLACEMENT_3D('',#320,#261,#262);
#244=AXIS2_PLACEMENT_3D('',#329,#267,#268);
#245=AXIS2_PLACEMENT_3D('',#331,#269,#270);
#246=AXIS2_PLACEMENT_3D('',#334,#272,#273);
#247=AXIS2_PLACEMENT_3D('',#335,#274,#275);
#248=AXIS2_PLACEMENT_3D('',#341,#279,#280);
#249=AXIS2_PLACEMENT_3D('',#343,#281,#282);
#250=AXIS2_PLACEMENT_3D('',#346,#284,#285);
#251=AXIS2_PLACEMENT_3D('',#347,#286,#287);
#252=AXIS2_PLACEMENT_3D('',#353,#291,#292);
#253=AXIS2_PLACEMENT_3D('',#355,#294,#295);
#254=AXIS2_PLACEMENT_3D('',#365,#301,#302);
#255=AXIS2_PLACEMENT_3D('',#371,#306,#307);
#256=AXIS2_PLACEMENT_3D('',#375,#310,#311);
#257=AXIS2_PLACEMENT_3D('',#379,#314,#315);
#258=AXIS2_PLACEMENT_3D('',#381,#317,#318);
#259=DIRECTION('axis',(0.,0.,1.));
#260=DIRECTION('refdir',(1.,0.,0.));
#261=DIRECTION('center_axis',(6.14795842288881E-16,-1.,0.));
#262=DIRECTION('ref_axis',(-1.,-6.14795842288881E-16,-1.36512099910586E-31));
#263=DIRECTION('',(-1.,-6.14795842288881E-16,-1.36512099910586E-31));
#264=DIRECTION('',(0.,0.,-1.));
#265=DIRECTION('',(-1.,-6.14795842288881E-16,-1.36512099910586E-31));
#266=DIRECTION('',(0.,0.,-1.));
#267=DIRECTION('center_axis',(0.,0.,-1.));
#268=DIRECTION('ref_axis',(2.368475785867E-16,-1.,0.));
#269=DIRECTION('center_axis',(0.,2.22044604925031E-16,-1.));
#270=DIRECTION('ref_axis',(2.368475785867E-16,-1.,0.));
#271=DIRECTION('',(0.,0.,-1.));
#272=DIRECTION('center_axis',(0.,2.22044604925031E-16,-1.));
#273=DIRECTION('ref_axis',(2.368475785867E-16,-1.,-2.22044604925031E-16));
#274=DIRECTION('center_axis',(1.,5.20308776363336E-16,0.));
#275=DIRECTION('ref_axis',(5.20308776363336E-16,-1.,-2.22044604925031E-16));
#276=DIRECTION('',(5.20308776363336E-16,-1.,-2.22044604925031E-16));
#277=DIRECTION('',(0.,0.,-1.));
#278=DIRECTION('',(5.20308776363336E-16,-1.,-2.22044604925031E-16));
#279=DIRECTION('center_axis',(0.,0.,-1.));
#280=DIRECTION('ref_axis',(1.,3.19744231092047E-15,0.));
#281=DIRECTION('center_axis',(0.,2.22044604925031E-16,-1.));
#282=DIRECTION('ref_axis',(1.,3.19744231092047E-15,0.));
#283=DIRECTION('',(0.,0.,-1.));
#284=DIRECTION('center_axis',(0.,2.22044604925031E-16,-1.));
#285=DIRECTION('ref_axis',(1.,3.19744231092047E-15,7.09974814698915E-31));
#286=DIRECTION('center_axis',(-2.368475785867E-16,1.,0.));
#287=DIRECTION('ref_axis',(1.,2.368475785867E-16,5.25907270147341E-32));
#288=DIRECTION('',(1.,2.368475785867E-16,5.25907270147341E-32));
#289=DIRECTION('',(0.,0.,1.));
#290=DIRECTION('',(1.,2.368475785867E-16,5.25907270147341E-32));
#291=DIRECTION('center_axis',(0.,-2.22044604925031E-16,1.));
#292=DIRECTION('ref_axis',(1.,0.,0.));
#293=DIRECTION('',(0.,1.,2.22044604925031E-16));
#294=DIRECTION('center_axis',(0.,-2.22044604925031E-16,1.));
#295=DIRECTION('ref_axis',(0.,-1.,-2.22044604925031E-16));
#296=DIRECTION('',(0.,-1.,-2.22044604925031E-16));
#297=DIRECTION('',(1.,2.368475785867E-16,5.25907270147341E-32));
#298=DIRECTION('',(-2.66453525910038E-16,1.,2.22044604925031E-16));
#299=DIRECTION('',(-1.,-2.368475785867E-16,-5.25907270147341E-32));
#300=DIRECTION('',(0.,-1.,-2.22044604925031E-16));
#301=DIRECTION('center_axis',(2.368475785867E-16,-1.,-2.22044604925031E-16));
#302=DIRECTION('ref_axis',(1.,2.368475785867E-16,5.25907270147341E-32));
#303=DIRECTION('',(1.,2.368475785867E-16,5.25907270147341E-32));
#304=DIRECTION('',(0.,-2.22044604925031E-16,1.));
#305=DIRECTION('',(0.,-2.22044604925031E-16,1.));
#306=DIRECTION('center_axis',(-1.,0.,0.));
#307=DIRECTION('ref_axis',(0.,-1.,-2.22044604925031E-16));
#308=DIRECTION('',(0.,-2.22044604925031E-16,1.));
#309=DIRECTION('',(0.,-1.,-2.22044604925031E-16));
#310=DIRECTION('center_axis',(-2.368475785867E-16,1.,2.22044604925031E-16));
#311=DIRECTION('ref_axis',(-1.,-2.368475785867E-16,-5.25907270147341E-32));
#312=DIRECTION('',(-1.,-2.368475785867E-16,-5.25907270147341E-32));
#313=DIRECTION('',(0.,-2.22044604925031E-16,1.));
#314=DIRECTION('center_axis',(1.,2.66453525910038E-16,5.91645678915759E-32));
#315=DIRECTION('ref_axis',(-2.66453525910038E-16,1.,2.22044604925031E-16));
#316=DIRECTION('',(-2.66453525910038E-16,1.,2.22044604925031E-16));
#317=DIRECTION('center_axis',(0.,-2.22044604925031E-16,1.));
#318=DIRECTION('ref_axis',(0.,-1.,-2.22044604925031E-16));
#319=CARTESIAN_POINT('',(0.,0.,0.));
#320=CARTESIAN_POINT('Origin',(-15.3338271708078,-51.9796577387919,22.0014771048744));
#321=CARTESIAN_POINT('',(-15.3338271708078,-51.9796577387919,22.0014771048744));
#322=CARTESIAN_POINT('',(-62.3338271708079,-51.9796577387919,22.0014771048744));
#323=CARTESIAN_POINT('',(-1.3338271708078,-51.9796577387919,22.0014771048744));
#324=CARTESIAN_POINT('',(-15.3338271708078,-51.9796577387919,7.00147710487441));
#325=CARTESIAN_POINT('',(-15.3338271708078,-51.9796577387919,22.0014771048744));
#326=CARTESIAN_POINT('',(-62.3338271708079,-51.9796577387919,7.00147710487441));
#327=CARTESIAN_POINT('',(-62.3338271708079,-51.9796577387919,7.00147710487441));
#328=CARTESIAN_POINT('',(-62.3338271708079,-51.9796577387919,4.50147710487443));
#329=CARTESIAN_POINT('Origin',(-15.3338271708078,-48.9796577387919,22.0014771048744));
#330=CARTESIAN_POINT('',(-12.3338271708078,-48.9796577387919,22.0014771048744));
#331=CARTESIAN_POINT('Origin',(-15.3338271708078,-48.9796577387919,22.0014771048744));
#332=CARTESIAN_POINT('',(-12.3338271708078,-48.9796577387919,7.00147710487442));
#333=CARTESIAN_POINT('',(-12.3338271708078,-48.9796577387919,22.0014771048744));
#334=CARTESIAN_POINT('Origin',(-15.3338271708078,-48.9796577387919,7.00147710487442));
#335=CARTESIAN_POINT('Origin',(-12.3338271708079,45.0203422612081,22.0014771048744));
#336=CARTESIAN_POINT('',(-12.3338271708079,45.0203422612081,22.0014771048744));
#337=CARTESIAN_POINT('',(-12.3338271708078,22.5101711306041,22.0014771048744));
#338=CARTESIAN_POINT('',(-12.3338271708079,45.0203422612081,7.00147710487443));
#339=CARTESIAN_POINT('',(-12.3338271708079,45.0203422612081,22.0014771048744));
#340=CARTESIAN_POINT('',(-12.3338271708078,-48.9796577387919,7.00147710487442));
#341=CARTESIAN_POINT('Origin',(-15.3338271708078,45.0203422612081,22.0014771048744));
#342=CARTESIAN_POINT('',(-15.3338271708079,48.0203422612081,22.0014771048744));
#343=CARTESIAN_POINT('Origin',(-15.3338271708078,45.0203422612081,22.0014771048744));
#344=CARTESIAN_POINT('',(-15.3338271708079,48.0203422612081,7.00147710487443));
#345=CARTESIAN_POINT('',(-15.3338271708079,48.0203422612081,22.0014771048744));
#346=CARTESIAN_POINT('Origin',(-15.3338271708078,45.0203422612081,7.00147710487443));
#347=CARTESIAN_POINT('Origin',(-62.3338271708079,48.0203422612081,22.0014771048744));
#348=CARTESIAN_POINT('',(-62.3338271708079,48.0203422612081,22.0014771048744));
#349=CARTESIAN_POINT('',(-24.8338271708078,48.0203422612081,22.0014771048744));
#350=CARTESIAN_POINT('',(-62.3338271708079,48.0203422612081,7.00147710487443));
#351=CARTESIAN_POINT('',(-62.3338271708079,48.0203422612081,4.50147710487444));
#352=CARTESIAN_POINT('',(-15.3338271708079,48.0203422612081,7.00147710487443));
#353=CARTESIAN_POINT('Origin',(-37.3338271708078,-1.9796577387919,7.00147710487443));
#354=CARTESIAN_POINT('',(-62.3338271708079,49.010171130604,7.00147710487444));
#355=CARTESIAN_POINT('Origin',(12.6661728291922,-8.88178419700125E-15,22.0014771048744));
#356=CARTESIAN_POINT('',(-62.3338271708079,-100.,22.0014771048744));
#357=CARTESIAN_POINT('',(-62.3338271708079,100.,22.0014771048745));
#358=CARTESIAN_POINT('',(87.6661728291922,-100.,22.0014771048744));
#359=CARTESIAN_POINT('',(-62.3338271708079,-100.,22.0014771048744));
#360=CARTESIAN_POINT('',(87.6661728291922,100.,22.0014771048745));
#361=CARTESIAN_POINT('',(87.6661728291922,-100.,22.0014771048744));
#362=CARTESIAN_POINT('',(-62.3338271708079,100.,22.0014771048745));
#363=CARTESIAN_POINT('',(87.6661728291922,100.,22.0014771048745));
#364=CARTESIAN_POINT('',(-62.3338271708079,100.,22.0014771048745));
#365=CARTESIAN_POINT('Origin',(-62.3338271708079,-100.,-12.9985228951256));
#366=CARTESIAN_POINT('',(-62.3338271708079,-100.,-12.9985228951256));
#367=CARTESIAN_POINT('',(87.6661728291922,-100.,-12.9985228951256));
#368=CARTESIAN_POINT('',(-62.3338271708079,-100.,-12.9985228951256));
#369=CARTESIAN_POINT('',(87.6661728291922,-100.,-12.9985228951256));
#370=CARTESIAN_POINT('',(-62.3338271708079,-100.,-12.9985228951256));
#371=CARTESIAN_POINT('Origin',(-62.3338271708079,100.,-12.9985228951256));
#372=CARTESIAN_POINT('',(-62.3338271708079,100.,-12.9985228951256));
#373=CARTESIAN_POINT('',(-62.3338271708079,100.,-12.9985228951256));
#374=CARTESIAN_POINT('',(-62.3338271708079,100.,-12.9985228951256));
#375=CARTESIAN_POINT('Origin',(87.6661728291922,100.,-12.9985228951256));
#376=CARTESIAN_POINT('',(87.6661728291922,100.,-12.9985228951256));
#377=CARTESIAN_POINT('',(87.6661728291922,100.,-12.9985228951256));
#378=CARTESIAN_POINT('',(87.6661728291922,100.,-12.9985228951256));
#379=CARTESIAN_POINT('Origin',(87.6661728291922,-100.,-12.9985228951256));
#380=CARTESIAN_POINT('',(87.6661728291922,-100.,-12.9985228951256));
#381=CARTESIAN_POINT('Origin',(12.6661728291922,-2.22044604925031E-15,-12.9985228951256));
#382=UNCERTAINTY_MEASURE_WITH_UNIT(LENGTH_MEASURE(0.01),#386,
'DISTANCE_ACCURACY_VALUE',
'Maximum model space distance between geometric entities at asserted c
onnectivities');
#383=UNCERTAINTY_MEASURE_WITH_UNIT(LENGTH_MEASURE(0.01),#386,
'DISTANCE_ACCURACY_VALUE',
'Maximum model space distance between geometric entities at asserted c
onnectivities');
#384=(
GEOMETRIC_REPRESENTATION_CONTEXT(3)
GLOBAL_UNCERTAINTY_ASSIGNED_CONTEXT((#382))
GLOBAL_UNIT_ASSIGNED_CONTEXT((#386,#388,#389))
REPRESENTATION_CONTEXT('','3D')
);
#385=(
GEOMETRIC_REPRESENTATION_CONTEXT(3)
GLOBAL_UNCERTAINTY_ASSIGNED_CONTEXT((#383))
GLOBAL_UNIT_ASSIGNED_CONTEXT((#386,#388,#389))
REPRESENTATION_CONTEXT('','3D')
);
#386=(
LENGTH_UNIT()
NAMED_UNIT(*)
SI_UNIT(.MILLI.,.METRE.)
);
#387=(
LENGTH_UNIT()
NAMED_UNIT(*)
SI_UNIT(.CENTI.,.METRE.)
);
#388=(
NAMED_UNIT(*)
PLANE_ANGLE_UNIT()
SI_UNIT($,.RADIAN.)
);
#389=(
NAMED_UNIT(*)
SI_UNIT($,.STERADIAN.)
SOLID_ANGLE_UNIT()
);
#390=SHAPE_DEFINITION_REPRESENTATION(#391,#392);
#391=PRODUCT_DEFINITION_SHAPE('',$,#394);
#392=SHAPE_REPRESENTATION('',(#242),#384);
#393=PRODUCT_DEFINITION_CONTEXT('part definition',#398,'design');
#394=PRODUCT_DEFINITION('Open pocket_3 walls',
'OPEN POCKET_01_WITH Bound. walls, WITH Int. Fillets - 01',#395,#393);
#395=PRODUCT_DEFINITION_FORMATION('',$,#400);
#396=PRODUCT_RELATED_PRODUCT_CATEGORY(
'OPEN POCKET_01_WITH Bound. walls, WITH Int. Fillets - 01',
'OPEN POCKET_01_WITH Bound. walls, WITH Int. Fillets - 01',(#400));
#397=APPLICATION_PROTOCOL_DEFINITION('international standard',
'automotive_design',2009,#398);
#398=APPLICATION_CONTEXT(
'Core Data for Automotive Mechanical Design Process');
#399=PRODUCT_CONTEXT('part definition',#398,'mechanical');
#400=PRODUCT('Open pocket_3 walls',
'OPEN POCKET_01_WITH Bound. walls, WITH Int. Fillets - 01',$,(#399));
#401=PRESENTATION_STYLE_ASSIGNMENT((#402));
#402=SURFACE_STYLE_USAGE(.BOTH.,#405);
#403=SURFACE_STYLE_RENDERING_WITH_PROPERTIES($,#409,(#404));
#404=SURFACE_STYLE_TRANSPARENT(0.);
#405=SURFACE_SIDE_STYLE('',(#406,#403));
#406=SURFACE_STYLE_FILL_AREA(#407);
#407=FILL_AREA_STYLE('',(#408));
#408=FILL_AREA_STYLE_COLOUR('',#409);
#409=COLOUR_RGB('',0.749019607843137,0.749019607843137,0.749019607843137);
ENDSEC;
END-ISO-10303-21;
